simulation/qsim/MIPS.msim.vcd
$comment
	File created using the following command:
		vcd file MIPS.msim.vcd -direction
$end
$date
	Thu Nov 24 00:54:12 2016
$end
$version
	ModelSim Version 10.4d
$end
$timescale
	1ps
$end

$scope module alu_vlg_vec_tst $end
$var reg 32 ! a [31:0] $end
$var reg 32 " b [31:0] $end
$var reg 3 # op [2:0] $end
$var wire 1 $ y [31] $end
$var wire 1 % y [30] $end
$var wire 1 & y [29] $end
$var wire 1 ' y [28] $end
$var wire 1 ( y [27] $end
$var wire 1 ) y [26] $end
$var wire 1 * y [25] $end
$var wire 1 + y [24] $end
$var wire 1 , y [23] $end
$var wire 1 - y [22] $end
$var wire 1 . y [21] $end
$var wire 1 / y [20] $end
$var wire 1 0 y [19] $end
$var wire 1 1 y [18] $end
$var wire 1 2 y [17] $end
$var wire 1 3 y [16] $end
$var wire 1 4 y [15] $end
$var wire 1 5 y [14] $end
$var wire 1 6 y [13] $end
$var wire 1 7 y [12] $end
$var wire 1 8 y [11] $end
$var wire 1 9 y [10] $end
$var wire 1 : y [9] $end
$var wire 1 ; y [8] $end
$var wire 1 < y [7] $end
$var wire 1 = y [6] $end
$var wire 1 > y [5] $end
$var wire 1 ? y [4] $end
$var wire 1 @ y [3] $end
$var wire 1 A y [2] $end
$var wire 1 B y [1] $end
$var wire 1 C y [0] $end
$var wire 1 D zero $end

$scope module i1 $end
$var wire 1 E gnd $end
$var wire 1 F vcc $end
$var wire 1 G unknown $end
$var tri1 1 H devclrn $end
$var tri1 1 I devpor $end
$var tri1 1 J devoe $end
$var wire 1 K zero~output_o $end
$var wire 1 L y[0]~output_o $end
$var wire 1 M y[1]~output_o $end
$var wire 1 N y[2]~output_o $end
$var wire 1 O y[3]~output_o $end
$var wire 1 P y[4]~output_o $end
$var wire 1 Q y[5]~output_o $end
$var wire 1 R y[6]~output_o $end
$var wire 1 S y[7]~output_o $end
$var wire 1 T y[8]~output_o $end
$var wire 1 U y[9]~output_o $end
$var wire 1 V y[10]~output_o $end
$var wire 1 W y[11]~output_o $end
$var wire 1 X y[12]~output_o $end
$var wire 1 Y y[13]~output_o $end
$var wire 1 Z y[14]~output_o $end
$var wire 1 [ y[15]~output_o $end
$var wire 1 \ y[16]~output_o $end
$var wire 1 ] y[17]~output_o $end
$var wire 1 ^ y[18]~output_o $end
$var wire 1 _ y[19]~output_o $end
$var wire 1 ` y[20]~output_o $end
$var wire 1 a y[21]~output_o $end
$var wire 1 b y[22]~output_o $end
$var wire 1 c y[23]~output_o $end
$var wire 1 d y[24]~output_o $end
$var wire 1 e y[25]~output_o $end
$var wire 1 f y[26]~output_o $end
$var wire 1 g y[27]~output_o $end
$var wire 1 h y[28]~output_o $end
$var wire 1 i y[29]~output_o $end
$var wire 1 j y[30]~output_o $end
$var wire 1 k y[31]~output_o $end
$var wire 1 l a[7]~input_o $end
$var wire 1 m b[7]~input_o $end
$var wire 1 n a[6]~input_o $end
$var wire 1 o b[6]~input_o $end
$var wire 1 p LessThan0~0_combout $end
$var wire 1 q a[5]~input_o $end
$var wire 1 r b[5]~input_o $end
$var wire 1 s LessThan0~1_combout $end
$var wire 1 t a[4]~input_o $end
$var wire 1 u b[4]~input_o $end
$var wire 1 v LessThan0~2_combout $end
$var wire 1 w b[0]~input_o $end
$var wire 1 x a[0]~input_o $end
$var wire 1 y a[1]~input_o $end
$var wire 1 z b[1]~input_o $end
$var wire 1 { LessThan0~3_combout $end
$var wire 1 | a[3]~input_o $end
$var wire 1 } b[3]~input_o $end
$var wire 1 ~ a[2]~input_o $end
$var wire 1 !! b[2]~input_o $end
$var wire 1 "! LessThan0~4_combout $end
$var wire 1 #! LessThan0~5_combout $end
$var wire 1 $! LessThan0~6_combout $end
$var wire 1 %! LessThan0~7_combout $end
$var wire 1 &! LessThan0~8_combout $end
$var wire 1 '! a[8]~input_o $end
$var wire 1 (! b[8]~input_o $end
$var wire 1 )! LessThan0~9_combout $end
$var wire 1 *! a[9]~input_o $end
$var wire 1 +! b[9]~input_o $end
$var wire 1 ,! a[10]~input_o $end
$var wire 1 -! b[10]~input_o $end
$var wire 1 .! LessThan0~10_combout $end
$var wire 1 /! a[11]~input_o $end
$var wire 1 0! b[11]~input_o $end
$var wire 1 1! LessThan0~11_combout $end
$var wire 1 2! a[12]~input_o $end
$var wire 1 3! b[12]~input_o $end
$var wire 1 4! a[13]~input_o $end
$var wire 1 5! b[13]~input_o $end
$var wire 1 6! a[14]~input_o $end
$var wire 1 7! b[14]~input_o $end
$var wire 1 8! LessThan0~12_combout $end
$var wire 1 9! LessThan0~13_combout $end
$var wire 1 :! LessThan0~14_combout $end
$var wire 1 ;! LessThan0~15_combout $end
$var wire 1 <! LessThan0~16_combout $end
$var wire 1 =! LessThan0~17_combout $end
$var wire 1 >! a[15]~input_o $end
$var wire 1 ?! b[15]~input_o $end
$var wire 1 @! LessThan0~18_combout $end
$var wire 1 A! a[16]~input_o $end
$var wire 1 B! b[16]~input_o $end
$var wire 1 C! LessThan0~19_combout $end
$var wire 1 D! a[17]~input_o $end
$var wire 1 E! b[17]~input_o $end
$var wire 1 F! LessThan0~20_combout $end
$var wire 1 G! a[18]~input_o $end
$var wire 1 H! b[18]~input_o $end
$var wire 1 I! a[19]~input_o $end
$var wire 1 J! b[19]~input_o $end
$var wire 1 K! a[20]~input_o $end
$var wire 1 L! b[20]~input_o $end
$var wire 1 M! a[21]~input_o $end
$var wire 1 N! b[21]~input_o $end
$var wire 1 O! LessThan0~21_combout $end
$var wire 1 P! LessThan0~22_combout $end
$var wire 1 Q! LessThan0~23_combout $end
$var wire 1 R! LessThan0~24_combout $end
$var wire 1 S! LessThan0~25_combout $end
$var wire 1 T! LessThan0~26_combout $end
$var wire 1 U! LessThan0~27_combout $end
$var wire 1 V! a[22]~input_o $end
$var wire 1 W! b[22]~input_o $end
$var wire 1 X! LessThan0~28_combout $end
$var wire 1 Y! a[23]~input_o $end
$var wire 1 Z! b[23]~input_o $end
$var wire 1 [! LessThan0~29_combout $end
$var wire 1 \! a[24]~input_o $end
$var wire 1 ]! b[24]~input_o $end
$var wire 1 ^! LessThan0~30_combout $end
$var wire 1 _! a[25]~input_o $end
$var wire 1 `! b[25]~input_o $end
$var wire 1 a! a[26]~input_o $end
$var wire 1 b! b[26]~input_o $end
$var wire 1 c! a[27]~input_o $end
$var wire 1 d! b[27]~input_o $end
$var wire 1 e! a[28]~input_o $end
$var wire 1 f! b[28]~input_o $end
$var wire 1 g! LessThan0~31_combout $end
$var wire 1 h! LessThan0~32_combout $end
$var wire 1 i! LessThan0~33_combout $end
$var wire 1 j! LessThan0~34_combout $end
$var wire 1 k! LessThan0~35_combout $end
$var wire 1 l! LessThan0~36_combout $end
$var wire 1 m! a[29]~input_o $end
$var wire 1 n! b[29]~input_o $end
$var wire 1 o! a[30]~input_o $end
$var wire 1 p! b[30]~input_o $end
$var wire 1 q! op[1]~input_o $end
$var wire 1 r! op[2]~input_o $end
$var wire 1 s! op[0]~input_o $end
$var wire 1 t! a[31]~input_o $end
$var wire 1 u! b[31]~input_o $end
$var wire 1 v! Mux0~0_combout $end
$var wire 1 w! Mux0~1_combout $end
$var wire 1 x! Add0~130_cout $end
$var wire 1 y! Add0~1_sumout $end
$var wire 1 z! Mux0~2_combout $end
$var wire 1 {! Mux0~3_combout $end
$var wire 1 |! Mux0~4_combout $end
$var wire 1 }! Mux0~5_combout $end
$var wire 1 ~! Mux0~6_combout $end
$var wire 1 !" Mux0~7_combout $end
$var wire 1 "" Mux32~0_combout $end
$var wire 1 #" y[0]$latch~combout $end
$var wire 1 $" Add0~2 $end
$var wire 1 %" Add0~5_sumout $end
$var wire 1 &" Mux1~0_combout $end
$var wire 1 '" y[1]$latch~combout $end
$var wire 1 (" Add0~6 $end
$var wire 1 )" Add0~9_sumout $end
$var wire 1 *" Mux2~0_combout $end
$var wire 1 +" y[2]$latch~combout $end
$var wire 1 ," Add0~10 $end
$var wire 1 -" Add0~13_sumout $end
$var wire 1 ." Mux3~0_combout $end
$var wire 1 /" y[3]$latch~combout $end
$var wire 1 0" Add0~14 $end
$var wire 1 1" Add0~17_sumout $end
$var wire 1 2" Mux4~0_combout $end
$var wire 1 3" y[4]$latch~combout $end
$var wire 1 4" Add0~18 $end
$var wire 1 5" Add0~21_sumout $end
$var wire 1 6" Mux5~0_combout $end
$var wire 1 7" y[5]$latch~combout $end
$var wire 1 8" WideOr0~0_combout $end
$var wire 1 9" Add0~22 $end
$var wire 1 :" Add0~25_sumout $end
$var wire 1 ;" Mux6~0_combout $end
$var wire 1 <" y[6]$latch~combout $end
$var wire 1 =" Add0~26 $end
$var wire 1 >" Add0~29_sumout $end
$var wire 1 ?" Mux7~0_combout $end
$var wire 1 @" y[7]$latch~combout $end
$var wire 1 A" Add0~30 $end
$var wire 1 B" Add0~33_sumout $end
$var wire 1 C" Mux8~0_combout $end
$var wire 1 D" y[8]$latch~combout $end
$var wire 1 E" Add0~34 $end
$var wire 1 F" Add0~37_sumout $end
$var wire 1 G" Mux9~0_combout $end
$var wire 1 H" y[9]$latch~combout $end
$var wire 1 I" Add0~38 $end
$var wire 1 J" Add0~41_sumout $end
$var wire 1 K" Mux10~0_combout $end
$var wire 1 L" y[10]$latch~combout $end
$var wire 1 M" Add0~42 $end
$var wire 1 N" Add0~45_sumout $end
$var wire 1 O" Mux11~0_combout $end
$var wire 1 P" y[11]$latch~combout $end
$var wire 1 Q" WideOr0~1_combout $end
$var wire 1 R" Add0~46 $end
$var wire 1 S" Add0~49_sumout $end
$var wire 1 T" Mux12~0_combout $end
$var wire 1 U" y[12]$latch~combout $end
$var wire 1 V" Add0~50 $end
$var wire 1 W" Add0~53_sumout $end
$var wire 1 X" Mux13~0_combout $end
$var wire 1 Y" y[13]$latch~combout $end
$var wire 1 Z" Add0~54 $end
$var wire 1 [" Add0~57_sumout $end
$var wire 1 \" Mux14~0_combout $end
$var wire 1 ]" y[14]$latch~combout $end
$var wire 1 ^" Add0~58 $end
$var wire 1 _" Add0~61_sumout $end
$var wire 1 `" Mux15~0_combout $end
$var wire 1 a" y[15]$latch~combout $end
$var wire 1 b" Add0~62 $end
$var wire 1 c" Add0~65_sumout $end
$var wire 1 d" Mux16~0_combout $end
$var wire 1 e" y[16]$latch~combout $end
$var wire 1 f" Add0~66 $end
$var wire 1 g" Add0~69_sumout $end
$var wire 1 h" Mux17~0_combout $end
$var wire 1 i" y[17]$latch~combout $end
$var wire 1 j" WideOr0~2_combout $end
$var wire 1 k" Add0~70 $end
$var wire 1 l" Add0~73_sumout $end
$var wire 1 m" Mux18~0_combout $end
$var wire 1 n" y[18]$latch~combout $end
$var wire 1 o" Add0~74 $end
$var wire 1 p" Add0~77_sumout $end
$var wire 1 q" Mux19~0_combout $end
$var wire 1 r" y[19]$latch~combout $end
$var wire 1 s" Add0~78 $end
$var wire 1 t" Add0~81_sumout $end
$var wire 1 u" Mux20~0_combout $end
$var wire 1 v" y[20]$latch~combout $end
$var wire 1 w" Add0~82 $end
$var wire 1 x" Add0~85_sumout $end
$var wire 1 y" Mux21~0_combout $end
$var wire 1 z" y[21]$latch~combout $end
$var wire 1 {" Add0~86 $end
$var wire 1 |" Add0~89_sumout $end
$var wire 1 }" Mux22~0_combout $end
$var wire 1 ~" y[22]$latch~combout $end
$var wire 1 !# Add0~90 $end
$var wire 1 "# Add0~93_sumout $end
$var wire 1 ## Mux23~0_combout $end
$var wire 1 $# y[23]$latch~combout $end
$var wire 1 %# WideOr0~3_combout $end
$var wire 1 &# Add0~94 $end
$var wire 1 '# Add0~97_sumout $end
$var wire 1 (# Mux24~0_combout $end
$var wire 1 )# y[24]$latch~combout $end
$var wire 1 *# Add0~98 $end
$var wire 1 +# Add0~101_sumout $end
$var wire 1 ,# Mux25~0_combout $end
$var wire 1 -# y[25]$latch~combout $end
$var wire 1 .# Add0~102 $end
$var wire 1 /# Add0~105_sumout $end
$var wire 1 0# Mux26~0_combout $end
$var wire 1 1# y[26]$latch~combout $end
$var wire 1 2# Add0~106 $end
$var wire 1 3# Add0~109_sumout $end
$var wire 1 4# Mux27~0_combout $end
$var wire 1 5# y[27]$latch~combout $end
$var wire 1 6# Add0~110 $end
$var wire 1 7# Add0~113_sumout $end
$var wire 1 8# Mux28~0_combout $end
$var wire 1 9# y[28]$latch~combout $end
$var wire 1 :# Add0~114 $end
$var wire 1 ;# Add0~117_sumout $end
$var wire 1 <# Mux29~0_combout $end
$var wire 1 =# y[29]$latch~combout $end
$var wire 1 ># WideOr0~4_combout $end
$var wire 1 ?# Add0~118 $end
$var wire 1 @# Add0~121_sumout $end
$var wire 1 A# Mux30~0_combout $end
$var wire 1 B# y[30]$latch~combout $end
$var wire 1 C# Add0~122 $end
$var wire 1 D# Add0~125_sumout $end
$var wire 1 E# Mux31~0_combout $end
$var wire 1 F# y[31]$latch~combout $end
$var wire 1 G# WideOr0~5_combout $end
$var wire 1 H# WideOr0~combout $end
$upscope $end
$upscope $end
$enddefinitions $end
#0
$dumpvars
b0 !
b11111111111111111111111111111111 "
b101 #
0C
0B
0A
0@
0?
0>
0=
0<
0;
0:
09
08
07
06
05
04
03
02
01
00
0/
0.
0-
0,
0+
0*
0)
0(
0'
0&
0%
0$
1D
0E
1F
xG
1H
1I
1J
1K
0L
0M
0N
0O
0P
0Q
0R
0S
0T
0U
0V
0W
0X
0Y
0Z
0[
0\
0]
0^
0_
0`
0a
0b
0c
0d
0e
0f
0g
0h
0i
0j
0k
0l
1m
0n
1o
0p
0q
1r
1s
0t
1u
1v
1w
0x
0y
1z
1{
0|
1}
0~
1!!
0"!
1#!
0$!
1%!
0&!
0'!
1(!
1)!
0*!
1+!
0,!
1-!
1.!
0/!
10!
11!
02!
13!
04!
15!
06!
17!
08!
09!
1:!
0;!
1<!
0=!
0>!
1?!
1@!
0A!
1B!
1C!
0D!
1E!
1F!
0G!
1H!
0I!
1J!
0K!
1L!
0M!
1N!
0O!
0P!
0Q!
0R!
1S!
0T!
0U!
0V!
1W!
1X!
0Y!
1Z!
1[!
0\!
1]!
1^!
0_!
1`!
0a!
1b!
0c!
1d!
0e!
1f!
0g!
0h!
0i!
1j!
0k!
0l!
0m!
1n!
0o!
1p!
0q!
1r!
1s!
0t!
1u!
0v!
0w!
1x!
1y!
0z!
0{!
0|!
1}!
1~!
0!"
0""
0#"
0$"
0%"
0&"
0'"
0("
0)"
0*"
0+"
0,"
0-"
0."
0/"
00"
01"
02"
03"
04"
05"
06"
07"
18"
09"
0:"
0;"
0<"
0="
0>"
0?"
0@"
0A"
0B"
0C"
0D"
0E"
0F"
0G"
0H"
0I"
0J"
0K"
0L"
0M"
0N"
0O"
0P"
1Q"
0R"
0S"
0T"
0U"
0V"
0W"
0X"
0Y"
0Z"
0["
0\"
0]"
0^"
0_"
0`"
0a"
0b"
0c"
0d"
0e"
0f"
0g"
0h"
0i"
1j"
0k"
0l"
0m"
0n"
0o"
0p"
0q"
0r"
0s"
0t"
0u"
0v"
0w"
0x"
0y"
0z"
0{"
0|"
0}"
0~"
0!#
0"#
0##
0$#
1%#
0&#
0'#
0(#
0)#
0*#
0+#
0,#
0-#
0.#
0/#
00#
01#
02#
03#
04#
05#
06#
07#
08#
09#
0:#
0;#
0<#
0=#
1>#
0?#
0@#
0A#
0B#
0C#
0D#
0E#
0F#
1G#
0H#
$end
#5000
b111 #
1q!
1|!
0}!
0~!
1!"
1#"
1L
08"
1C
1H#
0K
0D
#10000
b11 #
0r!
1D#
1@#
1;#
17#
13#
1/#
1+#
1'#
1"#
1|"
1x"
1t"
1p"
1l"
1g"
1c"
1_"
1["
1W"
1S"
1N"
1J"
1F"
1B"
1>"
1:"
15"
11"
1-"
1)"
1%"
1""
0|!
1{!
1$"
0y!
0x!
1("
0%"
0$"
1y!
1}!
1,"
0)"
0("
1%"
1~!
10"
0-"
0,"
1)"
0!"
14"
01"
00"
1-"
19"
05"
04"
11"
1="
0:"
09"
15"
1A"
0>"
0="
1:"
1E"
0B"
0A"
1>"
1I"
0F"
0E"
1B"
1M"
0J"
0I"
1F"
1R"
0N"
0M"
1J"
1V"
0S"
0R"
1N"
1Z"
0W"
0V"
1S"
1^"
0["
0Z"
1W"
1b"
0_"
0^"
1["
1f"
0c"
0b"
1_"
1k"
0g"
0f"
1c"
1o"
0l"
0k"
1g"
1s"
0p"
0o"
1l"
1w"
0t"
0s"
1p"
1{"
0x"
0w"
1t"
1!#
0|"
0{"
1x"
1&#
0"#
0!#
1|"
1*#
0'#
0&#
1"#
1.#
0+#
0*#
1'#
12#
0/#
0.#
1+#
16#
03#
02#
1/#
1:#
07#
06#
13#
1?#
0;#
0:#
17#
1C#
0@#
0?#
1;#
0D#
0C#
1@#
1D#
#20000
b1 #
b101 #
0q!
1r!
0D#
0@#
0;#
07#
03#
0/#
0+#
0'#
0"#
0|"
0x"
0t"
0p"
0l"
0g"
0c"
0_"
0["
0W"
0S"
0N"
0J"
0F"
0B"
0>"
0:"
05"
01"
0-"
0)"
0%"
0""
0{!
0y!
1x!
0}!
1y!
0~!
1}!
0#"
0L
1~!
1!"
18"
0C
0H#
0!"
1#"
1L
1K
08"
1D
1C
0#"
0L
1H#
18"
0C
0K
0H#
0D
1K
1D
#25000
b100 #
b110 #
0s!
1q!
0~!
1!"
1#"
1L
08"
1C
1H#
0K
0D
#30000
b10 #
b11 #
1s!
0r!
1D#
1@#
1;#
17#
13#
1/#
1+#
1'#
1"#
1|"
1x"
1t"
1p"
1l"
1g"
1c"
1_"
1["
1W"
1S"
1N"
1J"
1F"
1B"
1>"
1:"
15"
11"
1-"
1)"
1%"
1""
1{!
1$"
0y!
0x!
1~!
1("
0%"
0$"
1y!
0!"
1,"
0)"
0("
1%"
10"
0-"
0,"
1)"
14"
01"
00"
1-"
19"
05"
04"
11"
1="
0:"
09"
15"
1A"
0>"
0="
1:"
1E"
0B"
0A"
1>"
1I"
0F"
0E"
1B"
1M"
0J"
0I"
1F"
1R"
0N"
0M"
1J"
1V"
0S"
0R"
1N"
1Z"
0W"
0V"
1S"
1^"
0["
0Z"
1W"
1b"
0_"
0^"
1["
1f"
0c"
0b"
1_"
1k"
0g"
0f"
1c"
1o"
0l"
0k"
1g"
1s"
0p"
0o"
1l"
1w"
0t"
0s"
1p"
1{"
0x"
0w"
1t"
1!#
0|"
0{"
1x"
1&#
0"#
0!#
1|"
1*#
0'#
0&#
1"#
1.#
0+#
0*#
1'#
12#
0/#
0.#
1+#
16#
03#
02#
1/#
1:#
07#
06#
13#
1?#
0;#
0:#
17#
1C#
0@#
0?#
1;#
0D#
0C#
1@#
1D#
#35000
b10 #
0s!
1E#
1A#
1<#
18#
14#
10#
1,#
1(#
1##
1}"
1y"
1u"
1q"
1m"
1h"
1d"
1`"
1\"
1X"
1T"
1O"
1K"
1G"
1C"
1?"
1;"
16"
12"
1."
1*"
1&"
0""
0~!
0{!
1!"
1F#
1B#
1=#
19#
15#
11#
1-#
1)#
1$#
1~"
1z"
1v"
1r"
1n"
1i"
1e"
1a"
1]"
1Y"
1U"
1P"
1L"
1H"
1D"
1@"
1<"
17"
13"
1/"
1+"
1'"
0#"
0L
1M
1N
1O
1P
1Q
1R
1S
1T
1U
1V
1W
1X
1Y
1Z
1[
1\
1]
1^
1_
1`
1a
1b
1c
1d
1e
1f
1g
1h
1i
1j
1k
0Q"
0j"
0%#
0>#
0G#
1$
1%
1&
1'
1(
1)
1*
1+
1,
1-
1.
1/
10
11
12
13
14
15
16
17
18
19
1:
1;
1<
1=
1>
1?
1@
1A
1B
0C
1#"
1L
1C
#40000
b11 #
1s!
0E#
0A#
0<#
08#
04#
00#
0,#
0(#
0##
0}"
0y"
0u"
0q"
0m"
0h"
0d"
0`"
0\"
0X"
0T"
0O"
0K"
0G"
0C"
0?"
0;"
06"
02"
0."
0*"
0&"
1""
1~!
1{!
0!"
#45000
b1 #
b101 #
b100 #
0s!
0q!
1r!
0D#
0@#
0;#
07#
03#
0/#
0+#
0'#
0"#
0|"
0x"
0t"
0p"
0l"
0g"
0c"
0_"
0["
0W"
0S"
0N"
0J"
0F"
0B"
0>"
0:"
05"
01"
0-"
0)"
0%"
0""
0{!
0y!
1x!
0}!
1y!
0~!
1}!
0F#
0B#
0=#
09#
05#
01#
0-#
0)#
0$#
0~"
0z"
0v"
0r"
0n"
0i"
0e"
0a"
0]"
0Y"
0U"
0P"
0L"
0H"
0D"
0@"
0<"
07"
03"
0/"
0+"
0'"
0#"
0L
0M
0N
0O
0P
0Q
0R
0S
0T
0U
0V
0W
0X
0Y
0Z
0[
0\
0]
0^
0_
0`
0a
0b
0c
0d
0e
0f
0g
0h
0i
0j
0k
1~!
1!"
18"
1Q"
1j"
1%#
1>#
1G#
0$
0%
0&
0'
0(
0)
0*
0+
0,
0-
0.
0/
00
01
02
03
04
05
06
07
08
09
0:
0;
0<
0=
0>
0?
0@
0A
0B
0C
0H#
0!"
1#"
1L
1K
08"
1D
1C
0#"
0L
1H#
18"
0C
0K
0H#
0D
1K
1D
#50000
b110 #
b10 #
b11 #
1s!
1q!
0r!
1D#
1@#
1;#
17#
13#
1/#
1+#
1'#
1"#
1|"
1x"
1t"
1p"
1l"
1g"
1c"
1_"
1["
1W"
1S"
1N"
1J"
1F"
1B"
1>"
1:"
15"
11"
1-"
1)"
1%"
1""
1{!
1$"
0y!
0x!
1("
0%"
0$"
1y!
1,"
0)"
0("
1%"
10"
0-"
0,"
1)"
14"
01"
00"
1-"
19"
05"
04"
11"
1="
0:"
09"
15"
1A"
0>"
0="
1:"
1E"
0B"
0A"
1>"
1I"
0F"
0E"
1B"
1M"
0J"
0I"
1F"
1R"
0N"
0M"
1J"
1V"
0S"
0R"
1N"
1Z"
0W"
0V"
1S"
1^"
0["
0Z"
1W"
1b"
0_"
0^"
1["
1f"
0c"
0b"
1_"
1k"
0g"
0f"
1c"
1o"
0l"
0k"
1g"
1s"
0p"
0o"
1l"
1w"
0t"
0s"
1p"
1{"
0x"
0w"
1t"
1!#
0|"
0{"
1x"
1&#
0"#
0!#
1|"
1*#
0'#
0&#
1"#
1.#
0+#
0*#
1'#
12#
0/#
0.#
1+#
16#
03#
02#
1/#
1:#
07#
06#
13#
1?#
0;#
0:#
17#
1C#
0@#
0?#
1;#
0D#
0C#
1@#
1D#
#55000
b1 #
b101 #
b100 #
0s!
0q!
1r!
0D#
0@#
0;#
07#
03#
0/#
0+#
0'#
0"#
0|"
0x"
0t"
0p"
0l"
0g"
0c"
0_"
0["
0W"
0S"
0N"
0J"
0F"
0B"
0>"
0:"
05"
01"
0-"
0)"
0%"
0""
0{!
0y!
1x!
0}!
1y!
0~!
1}!
1~!
1!"
0!"
1#"
1L
08"
1C
0#"
0L
1H#
18"
0C
0K
0H#
0D
1K
1D
#65000
b110 #
b111 #
1s!
1q!
1|!
0}!
0~!
1!"
1#"
1L
08"
1C
1H#
0K
0D
#70000
b11 #
b1 #
0q!
0r!
1E#
1D#
1A#
1@#
1<#
1;#
18#
17#
14#
13#
10#
1/#
1,#
1+#
1(#
1'#
1##
1"#
1}"
1|"
1y"
1x"
1u"
1t"
1q"
1p"
1m"
1l"
1h"
1g"
1d"
1c"
1`"
1_"
1\"
1["
1X"
1W"
1T"
1S"
1O"
1N"
1K"
1J"
1G"
1F"
1C"
1B"
1?"
1>"
1;"
1:"
16"
15"
12"
11"
1."
1-"
1*"
1)"
1&"
1%"
0|!
1{!
1$"
0y!
0x!
1("
0%"
0$"
1y!
1'"
1+"
1/"
13"
17"
1<"
1@"
1D"
1H"
1L"
1P"
1U"
1Y"
1]"
1a"
1e"
1i"
1n"
1r"
1v"
1z"
1~"
1$#
1)#
1-#
11#
15#
19#
1=#
1B#
1F#
1k
1j
1i
1h
1g
1f
1e
1d
1c
1b
1a
1`
1_
1^
1]
1\
1[
1Z
1Y
1X
1W
1V
1U
1T
1S
1R
1Q
1P
1O
1N
1M
1,"
0)"
0("
1%"
0G#
0>#
0%#
0j"
0Q"
1B
1A
1@
1?
1>
1=
1<
1;
1:
19
18
17
16
15
14
13
12
11
10
1/
1.
1-
1,
1+
1*
1)
1(
1'
1&
1%
1$
10"
0-"
0,"
1)"
14"
01"
00"
1-"
19"
05"
04"
11"
1="
0:"
09"
15"
1A"
0>"
0="
1:"
1E"
0B"
0A"
1>"
1I"
0F"
0E"
1B"
1M"
0J"
0I"
1F"
1R"
0N"
0M"
1J"
1V"
0S"
0R"
1N"
1Z"
0W"
0V"
1S"
1^"
0["
0Z"
1W"
1b"
0_"
0^"
1["
1f"
0c"
0b"
1_"
1k"
0g"
0f"
1c"
1o"
0l"
0k"
1g"
1s"
0p"
0o"
1l"
1w"
0t"
0s"
1p"
1{"
0x"
0w"
1t"
1!#
0|"
0{"
1x"
1&#
0"#
0!#
1|"
1*#
0'#
0&#
1"#
1.#
0+#
0*#
1'#
12#
0/#
0.#
1+#
16#
03#
02#
1/#
1:#
07#
06#
13#
1?#
0;#
0:#
17#
1C#
0@#
0?#
1;#
0D#
0C#
1@#
1D#
#75000
b0 #
b10 #
0s!
1q!
1}!
0{!
#80000
b110 #
b100 #
0q!
1r!
0E#
0D#
0A#
0@#
0<#
0;#
08#
07#
04#
03#
00#
0/#
0,#
0+#
0(#
0'#
0##
0"#
0}"
0|"
0y"
0x"
0u"
0t"
0q"
0p"
0m"
0l"
0h"
0g"
0d"
0c"
0`"
0_"
0\"
0["
0X"
0W"
0T"
0S"
0O"
0N"
0K"
0J"
0G"
0F"
0C"
0B"
0?"
0>"
0;"
0:"
06"
05"
02"
01"
0."
0-"
0*"
0)"
0&"
0%"
0y!
1x!
1~!
1y!
0!"
0'"
0+"
0/"
03"
07"
0<"
0@"
0D"
0H"
0L"
0P"
0U"
0Y"
0]"
0a"
0e"
0i"
0n"
0r"
0v"
0z"
0~"
0$#
0)#
0-#
01#
05#
09#
0=#
0B#
0F#
0k
0j
0i
0h
0g
0f
0e
0d
0c
0b
0a
0`
0_
0^
0]
0\
0[
0Z
0Y
0X
0W
0V
0U
0T
0S
0R
0Q
0P
0O
0N
0M
1G#
1>#
1%#
1j"
1Q"
0B
0A
0@
0?
0>
0=
0<
0;
0:
09
08
07
06
05
04
03
02
01
00
0/
0.
0-
0,
0+
0*
0)
0(
0'
0&
0%
0$
0#"
0L
18"
0C
0H#
1K
1D
#85000
b101 #
b1 #
1s!
0r!
1E#
1D#
1A#
1@#
1<#
1;#
18#
17#
14#
13#
10#
1/#
1,#
1+#
1(#
1'#
1##
1"#
1}"
1|"
1y"
1x"
1u"
1t"
1q"
1p"
1m"
1l"
1h"
1g"
1d"
1c"
1`"
1_"
1\"
1["
1X"
1W"
1T"
1S"
1O"
1N"
1K"
1J"
1G"
1F"
1C"
1B"
1?"
1>"
1;"
1:"
16"
15"
12"
11"
1."
1-"
1*"
1)"
1&"
1%"
1{!
1$"
0y!
0x!
1("
0%"
0$"
1y!
0}!
1'"
1+"
1/"
13"
17"
1<"
1@"
1D"
1H"
1L"
1P"
1U"
1Y"
1]"
1a"
1e"
1i"
1n"
1r"
1v"
1z"
1~"
1$#
1)#
1-#
11#
15#
19#
1=#
1B#
1F#
1k
1j
1i
1h
1g
1f
1e
1d
1c
1b
1a
1`
1_
1^
1]
1\
1[
1Z
1Y
1X
1W
1V
1U
1T
1S
1R
1Q
1P
1O
1N
1M
1,"
0)"
0("
1%"
0~!
0G#
0>#
0%#
0j"
0Q"
08"
1B
1A
1@
1?
1>
1=
1<
1;
1:
19
18
17
16
15
14
13
12
11
10
1/
1.
1-
1,
1+
1*
1)
1(
1'
1&
1%
1$
10"
0-"
0,"
1)"
1H#
1!"
0K
14"
01"
00"
1-"
0D
1#"
1L
19"
05"
04"
11"
1C
1="
0:"
09"
15"
1A"
0>"
0="
1:"
1E"
0B"
0A"
1>"
1I"
0F"
0E"
1B"
1M"
0J"
0I"
1F"
1R"
0N"
0M"
1J"
1V"
0S"
0R"
1N"
1Z"
0W"
0V"
1S"
1^"
0["
0Z"
1W"
1b"
0_"
0^"
1["
1f"
0c"
0b"
1_"
1k"
0g"
0f"
1c"
1o"
0l"
0k"
1g"
1s"
0p"
0o"
1l"
1w"
0t"
0s"
1p"
1{"
0x"
0w"
1t"
1!#
0|"
0{"
1x"
1&#
0"#
0!#
1|"
1*#
0'#
0&#
1"#
1.#
0+#
0*#
1'#
12#
0/#
0.#
1+#
16#
03#
02#
1/#
1:#
07#
06#
13#
1?#
0;#
0:#
17#
1C#
0@#
0?#
1;#
0D#
0C#
1@#
1D#
#90000
b0 #
b100 #
0s!
1r!
0E#
0D#
0A#
0@#
0<#
0;#
08#
07#
04#
03#
00#
0/#
0,#
0+#
0(#
0'#
0##
0"#
0}"
0|"
0y"
0x"
0u"
0t"
0q"
0p"
0m"
0l"
0h"
0g"
0d"
0c"
0`"
0_"
0\"
0["
0X"
0W"
0T"
0S"
0O"
0N"
0K"
0J"
0G"
0F"
0C"
0B"
0?"
0>"
0;"
0:"
06"
05"
02"
01"
0."
0-"
0*"
0)"
0&"
0%"
0{!
0y!
1x!
1y!
1}!
0'"
0+"
0/"
03"
07"
0<"
0@"
0D"
0H"
0L"
0P"
0U"
0Y"
0]"
0a"
0e"
0i"
0n"
0r"
0v"
0z"
0~"
0$#
0)#
0-#
01#
05#
09#
0=#
0B#
0F#
0k
0j
0i
0h
0g
0f
0e
0d
0c
0b
0a
0`
0_
0^
0]
0\
0[
0Z
0Y
0X
0W
0V
0U
0T
0S
0R
0Q
0P
0O
0N
0M
1~!
1G#
1>#
1%#
1j"
1Q"
0B
0A
0@
0?
0>
0=
0<
0;
0:
09
08
07
06
05
04
03
02
01
00
0/
0.
0-
0,
0+
0*
0)
0(
0'
0&
0%
0$
0!"
0#"
0L
18"
0C
0H#
1K
1D
