simulation/qsim/MIPS.msim.vcd
$comment
	File created using the following command:
		vcd file MIPS.msim.vcd -direction
$end
$date
	Wed Nov 23 21:24:09 2016
$end
$version
	ModelSim Version 10.4d
$end
$timescale
	1ps
$end

$scope module aludeco_vlg_vec_tst $end
$var reg 2 ! aluop [1:0] $end
$var reg 6 " funct [5:0] $end
$var wire 1 # alucontrol [2] $end
$var wire 1 $ alucontrol [1] $end
$var wire 1 % alucontrol [0] $end

$scope module i1 $end
$var wire 1 & gnd $end
$var wire 1 ' vcc $end
$var wire 1 ( unknown $end
$var tri1 1 ) devclrn $end
$var tri1 1 * devpor $end
$var tri1 1 + devoe $end
$var wire 1 , alucontrol[0]~output_o $end
$var wire 1 - alucontrol[1]~output_o $end
$var wire 1 . alucontrol[2]~output_o $end
$var wire 1 / aluop[1]~input_o $end
$var wire 1 0 funct[0]~input_o $end
$var wire 1 1 funct[1]~input_o $end
$var wire 1 2 funct[2]~input_o $end
$var wire 1 3 funct[3]~input_o $end
$var wire 1 4 WideOr2~0_combout $end
$var wire 1 5 funct[4]~input_o $end
$var wire 1 6 funct[5]~input_o $end
$var wire 1 7 alucontrol~0_combout $end
$var wire 1 8 alucontrol~1_combout $end
$var wire 1 9 aluop[0]~input_o $end
$var wire 1 : WideOr0~0_combout $end
$var wire 1 ; Selector3~0_combout $end
$upscope $end
$upscope $end
$enddefinitions $end
#0
$dumpvars
b1 !
b111111 "
0%
1$
1#
0&
1'
x(
1)
1*
1+
0,
1-
1.
0/
10
11
12
13
04
15
16
07
18
19
0:
1;
$end
#5000
b11111 "
b1111 "
b111 "
b11 "
b10 "
00
02
03
05
06
14
#10000
b0 "
b100000 "
b110000 "
b110100 "
01
12
15
16
1:
#15000
b111100 "
b111110 "
b101110 "
b101010 "
11
02
13
05
0:
04
#20000
b0 !
b100010 "
b100110 "
12
03
09
0;
0.
0#
#25000
b100111 "
b110111 "
10
15
#30000
b10111 "
b10101 "
b11101 "
b11001 "
b1001 "
01
02
13
05
06
#35000
b1 !
b101001 "
b100001 "
03
16
19
1;
1.
1#
#40000
b100011 "
b100111 "
b111 "
b1111 "
11
12
13
06
#45000
b0 !
b111 "
03
09
0;
0.
0#
#50000
b10 !
b10111 "
b10101 "
b10001 "
b11 !
b11001 "
01
02
13
15
19
1/
1;
17
1,
1.
1#
1%
#55000
b111001 "
b111011 "
b111111 "
b10 !
09
11
12
16
#60000
b111110 "
b0 !
b101110 "
b101010 "
b1 !
19
0/
00
02
05
07
0,
0%
#65000
b100010 "
b100000 "
b110000 "
b110100 "
b0 !
09
01
12
03
15
1:
14
0;
0.
0#
#70000
b110101 "
b10 !
b111101 "
1/
10
13
0:
04
1;
17
1,
1.
1#
1%
#75000
b11101 "
b1101 "
b11 !
b1100 "
b100 "
19
00
03
05
06
1:
14
#80000
b0 "
b100000 "
b110000 "
b10 !
b110001 "
b111001 "
09
10
02
13
15
16
0:
04
#85000
b111101 "
b11101 "
b1101 "
b11 !
b101 "
19
12
03
05
06
1:
#90000
b1 !
b100 "
b0 "
b100000 "
00
02
16
0/
14
07
0,
0%
#95000
b100010 "
b11 !
b10 "
1/
11
06
0:
17
1,
1%
#100000
b1010 "
b101010 "
13
16
04
07
0,
0%
17
1,
1%
#105000
b10 !
b101011 "
b101111 "
b0 !
b100111 "
10
12
03
09
0/
0;
07
0,
0.
0#
0%
#110000
b110111 "
b110101 "
b10101 "
b1 !
b10001 "
b11 !
19
1/
01
02
15
06
1;
17
1,
1.
1#
1%
#115000
b10000 "
b11000 "
b11010 "
b10 !
b0 !
09
0/
00
11
13
0;
07
0,
0.
0#
0%
#120000
b111010 "
b111110 "
b111111 "
b10 !
1/
10
12
16
1;
17
1,
1.
1#
1%
#125000
b101111 "
b101101 "
b11 !
b1101 "
b1001 "
b1000 "
19
00
01
02
05
06
#130000
b0 "
b1 !
b10 "
b0 !
b100010 "
b100110 "
09
0/
11
12
03
16
0;
07
0,
0.
0#
0%
#135000
b100100 "
b100 "
01
06
1:
14
#140000
b10100 "
b11100 "
b1 !
b11110 "
19
11
13
15
0:
04
1;
1.
1#
#145000
b11 !
b111110 "
16
1/
17
1,
1%
#150000
b111111 "
b111011 "
b110011 "
b10 !
b0 !
b10011 "
09
0/
10
02
03
06
0;
07
0,
0.
0#
0%
#155000
b11 "
b10 "
b110 "
b1110 "
b1 !
b101110 "
19
00
12
13
05
16
1;
1.
1#
#160000
b101100 "
b11 !
b111100 "
b111101 "
b110101 "
b10 !
b10101 "
09
1/
10
01
03
15
06
1:
17
1,
1%
#165000
b10001 "
b10011 "
b11 "
b10 "
b1010 "
00
11
02
13
05
0:
#170000
b1110 "
b11110 "
b11111 "
10
12
15
#175000
b11101 "
01
#180000
b111101 "
b111001 "
b101001 "
b101011 "
11
02
05
16
#185000
b111011 "
15
#190000
b110011 "
b110010 "
b10010 "
b10 "
00
03
05
06
14
#195000
b0 "
b1000 "
b1001 "
b101001 "
b111001 "
10
01
13
15
16
04
#200000
b111011 "
b11011 "
11
06
#205000
b11111 "
b10111 "
b10101 "
01
12
03
1:
#210000
b110101 "
b110001 "
b111001 "
02
13
16
0:
#215000
b111000 "
b101000 "
b101010 "
b1010 "
b1110 "
00
11
12
05
06
#220000
b1111 "
b11111 "
b11101 "
10
01
15
#225000
b11001 "
b1001 "
02
05
#230000
b1 "
b100001 "
b100000 "
b100010 "
b100110 "
00
11
12
03
16
#235000
b110110 "
b111110 "
b111010 "
02
13
15
#240000
b111011 "
b101011 "
10
05
#245000
b100011 "
b100010 "
b110010 "
00
03
15
14
#250000
b110000 "
b110001 "
b100001 "
10
01
05
04
07
0,
0%
17
1,
1%
#255000
b1 "
b101 "
b1101 "
b1100 "
b11100 "
00
12
13
15
06
#260000
b11110 "
b111110 "
11
16
#265000
b111100 "
b11100 "
01
06
#270000
b11000 "
b10000 "
b10010 "
11
02
03
14
#275000
b10011 "
b110011 "
b111011 "
b111001 "
10
01
13
16
04
#280000
b110001 "
03
#285000
b100001 "
b100101 "
b100100 "
b100110 "
00
11
12
05
#290000
b110 "
b10110 "
b10111 "
b10101 "
10
01
15
06
1:
#295000
b10001 "
b1 "
b11 "
11
02
05
0:
#300000
b1011 "
b101011 "
b101010 "
b101110 "
b111110 "
b111100 "
00
01
12
13
15
16
#305000
b11100 "
06
#310000
b10100 "
b10101 "
b10001 "
b110001 "
10
02
03
16
#315000
b110101 "
b10101 "
12
06
1:
#320000
b101 "
b111 "
b110 "
b100110 "
00
11
05
16
0:
0;
0.
0#
1;
1.
1#
#325000
b101110 "
b101010 "
b111010 "
b111000 "
b11000 "
01
02
13
15
06
#330000
b10000 "
b0 "
b10 "
11
03
05
14
#335000
b11 "
b100011 "
b101011 "
b111011 "
b111001 "
10
01
13
15
16
04
#340000
b111101 "
b11101 "
b10101 "
12
03
06
1:
#345000
b101 "
b1 "
b1001 "
02
13
05
0:
#350000
b1000 "
b1010 "
b11010 "
00
11
15
#355000
b111010 "
b111110 "
b110110 "
b100110 "
12
03
05
16
#360000
b100111 "
b100101 "
b101 "
b1 "
10
01
02
06
#365000
b1001 "
b11001 "
b11000 "
b11010 "
b111010 "
00
11
13
15
16
#370000
b101010 "
b101011 "
10
05
#375000
b100011 "
b11 "
b10011 "
b10010 "
00
03
15
06
14
#380000
b10110 "
b11110 "
b111110 "
b101110 "
b101111 "
10
12
13
05
16
04
07
0,
0%
17
1,
1%
#385000
b101011 "
b1011 "
b1010 "
00
02
06
#390000
b1000 "
b11000 "
b11100 "
b111100 "
01
12
15
16
#395000
b111101 "
b111111 "
b101111 "
b101011 "
10
11
02
05
#400000
b100011 "
b110011 "
03
15
#405000
b110010 "
b110000 "
b100000 "
00
01
05
1:
14
07
0;
0.
0,
0%
0#
#410000
b0 "
b100 "
b110 "
b10110 "
11
12
15
06
0:
04
1;
17
1,
1.
1#
1%
#415000
b10111 "
b10011 "
b10001 "
b1 "
10
01
02
05
#420000
b1001 "
b101001 "
b101101 "
b101111 "
11
12
13
16
#425000
b111111 "
b11111 "
b11101 "
01
15
06
#430000
b111101 "
16
#435000
b111100 "
b110100 "
b100100 "
00
03
05
1:
14
08
0-
0$
07
0;
0.
0,
0%
0#
#440000
b100110 "
b100111 "
b110111 "
10
11
15
0:
04
1;
18
17
1,
1-
1.
1#
1$
1%
#445000
b10111 "
b10101 "
b10100 "
b100 "
00
01
05
06
1:
14
#450000
b0 "
b10 "
b10010 "
11
02
15
0:
#455000
b110010 "
b100010 "
05
16
07
0,
0%
#460000
b100011 "
b11 "
10
06
04
17
1,
1%
#465000
b1011 "
b1111 "
b1101 "
b11101 "
01
12
13
15
#470000
b11100 "
b10100 "
b100 "
00
03
05
1:
14
#475000
b0 "
b10 "
b11 "
b1011 "
b11011 "
10
11
02
13
15
0:
04
#480000
b111011 "
b110011 "
03
16
#485000
b10011 "
06
#490000
b10001 "
b10000 "
b0 "
b1000 "
b101000 "
00
01
13
05
16
#495000
b101100 "
b100100 "
b100 "
12
03
06
1:
14
#500000
b101 "
b1 "
b1001 "
b101001 "
10
02
13
16
0:
04
0;
07
0,
0.
0#
0%
17
1;
1.
1,
1%
1#
#505000
b111001 "
b111000 "
b111100 "
b11100 "
00
12
15
06
#510000
b10100 "
b100 "
b101 "
b1 "
10
02
03
05
#515000
b10001 "
b10000 "
00
15
1:
14
#525000
b10010 "
b110010 "
b110110 "
b100110 "
11
12
05
16
0:
04
0;
07
0,
0.
0#
0%
17
1;
1.
1,
1%
1#
#530000
b100111 "
b100101 "
b101 "
10
01
06
1:
#535000
b1101 "
b1001 "
b1000 "
b1010 "
00
11
02
13
0:
#540000
b101010 "
b100010 "
b100110 "
b100111 "
10
12
03
16
#545000
b100011 "
b100010 "
00
02
14
07
0,
0%
#550000
b110010 "
b110110 "
b110111 "
10
12
15
04
17
1,
1%
#555000
b110101 "
b111101 "
b111001 "
b111000 "
00
01
02
13
#560000
b11000 "
b1000 "
b1010 "
b10 "
b110 "
b111 "
10
11
12
03
05
06
#565000
b10111 "
b10110 "
00
15
#575000
b10111 "
10
#580000
b10101 "
b10001 "
01
02
#585000
b11001 "
13
#590000
b111001 "
b101001 "
b101000 "
b101010 "
b101110 "
00
11
12
05
16
#595000
b100110 "
03
#600000
b110 "
b10 "
02
06
14
#605000
b10010 "
b11010 "
b11110 "
12
13
15
04
#610000
b11111 "
b11101 "
b111101 "
b110101 "
10
01
03
16
1:
#615000
b100101 "
b100111 "
11
05
0:
0;
0.
0#
1;
1.
1#
#620000
b100011 "
b100010 "
b10 "
b1010 "
b1000 "
00
01
02
13
06
#625000
b11000 "
b11100 "
b11101 "
b10101 "
b10111 "
10
11
12
03
15
#630000
b110111 "
b100111 "
05
16
#635000
b100011 "
b100010 "
b100000 "
00
01
02
1:
14
07
0;
0.
0,
0%
0#
#640000
b101000 "
b111000 "
b111100 "
b111101 "
10
12
13
15
0:
04
1;
17
1,
1.
1#
1%
#645000
b111111 "
b110111 "
b100111 "
b100011 "
11
02
03
05
#650000
b11 "
b111 "
12
06
#655000
b110 "
b100 "
b10100 "
b110100 "
00
01
15
16
1:
14
#660000
b111100 "
b111101 "
b101101 "
10
13
05
0:
04
0;
07
0,
0.
0#
0%
17
1;
1.
1,
1%
1#
#670000
b1101 "
b101 "
b10101 "
03
15
06
1:
#675000
b10100 "
b11100 "
b1100 "
00
13
05
0:
#680000
b1000 "
b101000 "
b101001 "
b111001 "
10
02
15
16
#685000
b111011 "
b110011 "
b110111 "
11
12
03
#690000
b10111 "
06
#695000
b10110 "
b110 "
b100 "
b1100 "
00
01
13
05
#700000
b1000 "
b11000 "
b10000 "
02
03
15
1:
14
#705000
b0 "
05
#710000
b100000 "
b100001 "
b100101 "
b110101 "
10
12
15
16
04
#715000
b110111 "
b111111 "
11
13
0:
#720000
b11111 "
b11110 "
b1110 "
b110 "
00
03
05
06
#725000
b10 "
b0 "
b100000 "
b100001 "
b110001 "
b111001 "
10
01
02
13
15
16
#730000
b111011 "
b11011 "
b10011 "
11
03
06
#735000
b10111 "
b111 "
b101 "
b1101 "
01
12
13
05
#740000
b101101 "
b111101 "
15
16
#750000
b11101 "
b1101 "
05
06
#755000
b1001 "
b1 "
b100001 "
02
03
16
#760000
b100011 "
b110011 "
b111011 "
11
13
15
#765000
b111111 "
b11111 "
b10111 "
12
03
06
#770000
b10110 "
b110 "
b100110 "
b101110 "
00
13
05
16
#775000
b101100 "
b100100 "
01
03
1:
14
08
0-
0$
07
0;
0.
0,
0%
0#
#780000
b100000 "
b101000 "
02
13
0:
04
18
1-
1$
17
1;
1.
1,
1%
1#
#785000
b1000 "
b1010 "
b1110 "
11
12
06
#790000
b11110 "
15
#795000
b10110 "
b110110 "
b110100 "
b100100 "
01
03
05
16
1:
14
08
0-
0$
07
0;
0.
0,
0%
0#
#800000
b100 "
b10100 "
15
06
1;
18
17
1,
1-
1.
1#
1$
1%
#805000
b10101 "
b110101 "
10
16
04
#810000
b110001 "
b111001 "
b101001 "
02
13
05
0:
0;
0.
0#
1;
1.
1#
#815000
b101000 "
b1000 "
b11000 "
00
15
06
#820000
b11010 "
b10010 "
b10011 "
b11 "
10
11
03
05
#825000
b111 "
b100111 "
b101111 "
b101110 "
b111110 "
00
12
13
15
16
#830000
b111010 "
b101010 "
02
05
#835000
b101011 "
b111011 "
10
15
#840000
b111001 "
b110001 "
b110101 "
b110100 "
b100100 "
00
01
12
03
05
1:
14
08
0-
0$
07
0;
0.
0,
0%
0#
#845000
b100 "
b110 "
b1110 "
b1010 "
b11010 "
11
02
13
15
06
0:
04
1;
18
17
1,
1-
1.
1#
1$
1%
#850000
b11011 "
b111011 "
b111001 "
b110001 "
b100001 "
10
01
03
05
16
#855000
b100000 "
b0 "
b10 "
b1010 "
b11010 "
00
11
13
15
06
#860000
b11110 "
b11111 "
b111111 "
b110111 "
b100111 "
10
12
03
05
16
#865000
b100101 "
b101 "
b1101 "
b11101 "
01
13
15
06
#870000
b11001 "
b11000 "
b11010 "
b111010 "
b110010 "
00
11
02
03
16
14
#875000
b100010 "
b100000 "
b101000 "
01
13
05
04
07
0,
0%
17
1,
1%
#880000
b101001 "
b111001 "
b110001 "
10
03
15
#885000
b110011 "
11
#890000
b110111 "
b10111 "
12
06
#895000
b11111 "
b111111 "
13
16
#900000
b111110 "
b101110 "
b101100 "
00
01
05
#905000
b100100 "
b100101 "
b110101 "
b110111 "
10
11
03
15
#910000
b10111 "
b11111 "
b11110 "
00
13
06
#915000
b1110 "
b101110 "
b101111 "
10
05
16
#920000
b101011 "
b101001 "
b100001 "
b110001 "
01
02
03
15
#925000
b110011 "
11
#930000
b10011 "
b10010 "
b11010 "
b1010 "
b1000 "
00
01
13
05
06
#935000
b1100 "
b1101 "
b11101 "
b11111 "
10
11
12
15
#940000
b111111 "
b111011 "
b101011 "
b101001 "
01
02
05
16
#945000
b101000 "
00
#950000
b101100 "
b111100 "
b111110 "
b111111 "
10
11
12
15
#955000
b110111 "
b110011 "
b100011 "
02
03
05
#960000
b100001 "
b100000 "
b101000 "
b101100 "
00
01
12
13
#965000
b111100 "
b111110 "
b111010 "
11
02
15
#970000
b110010 "
b100010 "
03
05
14
07
0,
0%
#975000
b10 "
b0 "
01
06
1:
17
1,
1%
#980000
b1000 "
b11000 "
b111000 "
13
15
16
0:
04
#985000
b111001 "
b111011 "
b110011 "
b10011 "
10
11
03
06
#990000
b10111 "
b10110 "
b11110 "
00
12
13
#995000
b1110 "
b1010 "
b10 "
02
03
05
14
