simulation/qsim/MIPS.msim.vcd
$comment
	File created using the following command:
		vcd file MIPS.msim.vcd -direction
$end
$date
	Wed Nov 23 10:24:01 2016
$end
$version
	ModelSim Version 10.4d
$end
$timescale
	1ps
$end

$scope module sl2_vlg_vec_tst $end
$var reg 32 ! a [31:0] $end
$var wire 1 " y [31] $end
$var wire 1 # y [30] $end
$var wire 1 $ y [29] $end
$var wire 1 % y [28] $end
$var wire 1 & y [27] $end
$var wire 1 ' y [26] $end
$var wire 1 ( y [25] $end
$var wire 1 ) y [24] $end
$var wire 1 * y [23] $end
$var wire 1 + y [22] $end
$var wire 1 , y [21] $end
$var wire 1 - y [20] $end
$var wire 1 . y [19] $end
$var wire 1 / y [18] $end
$var wire 1 0 y [17] $end
$var wire 1 1 y [16] $end
$var wire 1 2 y [15] $end
$var wire 1 3 y [14] $end
$var wire 1 4 y [13] $end
$var wire 1 5 y [12] $end
$var wire 1 6 y [11] $end
$var wire 1 7 y [10] $end
$var wire 1 8 y [9] $end
$var wire 1 9 y [8] $end
$var wire 1 : y [7] $end
$var wire 1 ; y [6] $end
$var wire 1 < y [5] $end
$var wire 1 = y [4] $end
$var wire 1 > y [3] $end
$var wire 1 ? y [2] $end
$var wire 1 @ y [1] $end
$var wire 1 A y [0] $end

$scope module i1 $end
$var wire 1 B gnd $end
$var wire 1 C vcc $end
$var wire 1 D unknown $end
$var tri1 1 E devclrn $end
$var tri1 1 F devpor $end
$var tri1 1 G devoe $end
$var wire 1 H a[30]~input_o $end
$var wire 1 I a[31]~input_o $end
$var wire 1 J y[0]~output_o $end
$var wire 1 K y[1]~output_o $end
$var wire 1 L y[2]~output_o $end
$var wire 1 M y[3]~output_o $end
$var wire 1 N y[4]~output_o $end
$var wire 1 O y[5]~output_o $end
$var wire 1 P y[6]~output_o $end
$var wire 1 Q y[7]~output_o $end
$var wire 1 R y[8]~output_o $end
$var wire 1 S y[9]~output_o $end
$var wire 1 T y[10]~output_o $end
$var wire 1 U y[11]~output_o $end
$var wire 1 V y[12]~output_o $end
$var wire 1 W y[13]~output_o $end
$var wire 1 X y[14]~output_o $end
$var wire 1 Y y[15]~output_o $end
$var wire 1 Z y[16]~output_o $end
$var wire 1 [ y[17]~output_o $end
$var wire 1 \ y[18]~output_o $end
$var wire 1 ] y[19]~output_o $end
$var wire 1 ^ y[20]~output_o $end
$var wire 1 _ y[21]~output_o $end
$var wire 1 ` y[22]~output_o $end
$var wire 1 a y[23]~output_o $end
$var wire 1 b y[24]~output_o $end
$var wire 1 c y[25]~output_o $end
$var wire 1 d y[26]~output_o $end
$var wire 1 e y[27]~output_o $end
$var wire 1 f y[28]~output_o $end
$var wire 1 g y[29]~output_o $end
$var wire 1 h y[30]~output_o $end
$var wire 1 i y[31]~output_o $end
$var wire 1 j a[0]~input_o $end
$var wire 1 k a[1]~input_o $end
$var wire 1 l a[2]~input_o $end
$var wire 1 m a[3]~input_o $end
$var wire 1 n a[4]~input_o $end
$var wire 1 o a[5]~input_o $end
$var wire 1 p a[6]~input_o $end
$var wire 1 q a[7]~input_o $end
$var wire 1 r a[8]~input_o $end
$var wire 1 s a[9]~input_o $end
$var wire 1 t a[10]~input_o $end
$var wire 1 u a[11]~input_o $end
$var wire 1 v a[12]~input_o $end
$var wire 1 w a[13]~input_o $end
$var wire 1 x a[14]~input_o $end
$var wire 1 y a[15]~input_o $end
$var wire 1 z a[16]~input_o $end
$var wire 1 { a[17]~input_o $end
$var wire 1 | a[18]~input_o $end
$var wire 1 } a[19]~input_o $end
$var wire 1 ~ a[20]~input_o $end
$var wire 1 !! a[21]~input_o $end
$var wire 1 "! a[22]~input_o $end
$var wire 1 #! a[23]~input_o $end
$var wire 1 $! a[24]~input_o $end
$var wire 1 %! a[25]~input_o $end
$var wire 1 &! a[26]~input_o $end
$var wire 1 '! a[27]~input_o $end
$var wire 1 (! a[28]~input_o $end
$var wire 1 )! a[29]~input_o $end
$upscope $end
$upscope $end
$enddefinitions $end
#0
$dumpvars
b11001011000001000011100010010 !
0A
0@
0?
1>
0=
0<
1;
0:
09
08
17
16
15
04
03
02
01
10
0/
0.
0-
0,
0+
1*
1)
0(
1'
0&
0%
1$
1#
0"
0B
1C
xD
1E
1F
1G
0H
0I
0J
0K
0L
1M
0N
0O
1P
0Q
0R
0S
1T
1U
1V
0W
0X
0Y
0Z
1[
0\
0]
0^
0_
0`
1a
1b
0c
1d
0e
0f
1g
1h
0i
0j
1k
0l
0m
1n
0o
0p
0q
1r
1s
1t
0u
0v
0w
0x
1y
0z
0{
0|
0}
0~
1!!
1"!
0#!
1$!
0%!
0&!
1'!
1(!
0)!
$end
#5000
b10011001011000001000011100010010 !
b10111001011000001000011100010010 !
b10111101011000001000011100010010 !
b10111111011000001000011100010010 !
b10111111111000001000011100010010 !
b10111111111010001000011100010010 !
b10111111111010000000011100010010 !
b10111111111010000010011100010010 !
b10111111111010000011011100010010 !
b10111111111010000011111100010010 !
b10111111111010000011110100010010 !
b10111111111010000011110100000010 !
1I
0n
0s
1u
1v
1w
0y
1}
1#!
1%!
1&!
1)!
1i
1f
1e
1c
1_
0[
1Y
1X
1W
0U
0P
0;
06
14
13
12
00
1,
1(
1&
1%
1"
#10000
b11111111111010000011110100000010 !
b11110111111010000011110100000010 !
b11110111111011000011110100000010 !
b11110111111011000011100100000010 !
b11110111111011000011100000000010 !
b11110111111011000011100010000010 !
b11110111111011000011100011000010 !
b11110111111011000011100011100010 !
b11110111111011000011100011101010 !
b11110111111011000011100011101110 !
b11110111111011000011100011101100 !
b1110111111011000011100011101100 !
b1010111111011000011100011101100 !
b1010011111011000011100011101100 !
b1010011011011000011100011101100 !
b1010011011011000001100011101100 !
b1010011011011000000100011101100 !
b1010011011011000000101011101100 !
1H
0I
0k
1l
1m
1o
1p
1q
0r
1s
0t
0v
0w
1|
0#!
0&!
0'!
0)!
0i
0g
0f
0c
1^
0Y
0X
0V
1U
0T
1S
1R
1Q
1O
1N
0M
0>
1=
1<
1:
19
18
07
16
05
03
02
1-
0(
0%
0$
0"
#15000
b1010010011011000000101011101100 !
b1010010011111000000101011101100 !
b1010010011111100000101011101100 !
b1010010011111110000101011101100 !
b1010000011111110000101011101100 !
b1010000011111111000101011101100 !
b1011000011111111000101011101100 !
b1011000011110111000101011101100 !
b1011000011110111000111011101100 !
b1011000011110111000111001101100 !
b1011000011110111000111000101100 !
b1011000011110111000111000001100 !
b1011000011110111000111000000100 !
b1011000011110111000111000000000 !
b1011000011110111000111000000010 !
b1111000011110111000111000000010 !
b1111100011110111000111000000010 !
b1111100111110111000111000000010 !
b1111100111110111001111000000010 !
1k
0l
0m
0o
0p
0q
1t
1v
1y
1z
1{
0|
1~
1#!
0$!
0%!
1&!
1'!
1)!
1i
1g
1f
0e
0d
1c
1`
0^
1]
1\
1[
1X
1V
0S
0R
0Q
0O
0N
1M
1>
0=
0<
0:
09
08
15
13
10
1/
1.
0-
1+
1(
0'
0&
1%
1$
1"
#20000
b1101100111110111001111000000010 !
b1101100101110111001111000000010 !
b1101100101100111001111000000010 !
b1101100101100111001011000000010 !
b101100101100111001011000000010 !
b101100101100111001011100000010 !
b10101100101100111001011100000010 !
b10101101101100111001011100000010 !
b10101101101000111001011100000010 !
b10101101101000011001011100000010 !
b10101101101000001001011100000010 !
b10101101101000000001011100000010 !
b10100101101000000001011100000010 !
b10100101101000000001011101000010 !
b10100101101000000001011101100010 !
b10100101101000000001011101101010 !
b10100101101000000001011101101110 !
b10100001101000000001011101101110 !
b10100001101000000000011101101110 !
0H
1I
1l
1m
1o
1p
1r
0u
0v
0y
0z
0{
0}
0~
0"!
1$!
0&!
0'!
0(!
0h
0g
0f
1d
0b
0`
0_
0]
0\
0[
0X
0W
1T
1R
1Q
1O
1N
1=
1<
1:
19
17
04
03
00
0/
0.
0,
0+
0)
1'
0%
0$
0#
#25000
b10100001100000000000011101101110 !
b10100001100000000000011101101111 !
b10100001100000000010011101101111 !
b10100001100000000010011111101111 !
b10100001100000000010011111101101 !
b10000001100000000010011111101101 !
b11000001100000000010011111101101 !
b11000001100000000010011011101101 !
b11000001100000100010011011101101 !
b11000001100000101010011011101101 !
b11000001100000101010011011100101 !
b11000101100000101010011011100101 !
b11000101100000101011011011100101 !
1H
1j
0k
0m
1q
0r
1v
1w
1y
1{
0!!
1&!
0)!
0i
1f
0a
1]
1[
1Y
1X
0T
1S
0O
0M
1L
1?
0>
0<
18
07
13
12
10
1.
0*
1%
0"
#30000
b11000101100000101111011011100101 !
b11000101100000101111010011100101 !
b11000101000000101111010011100101 !
b11000101000010101111010011100101 !
b11000101000010101111110011100101 !
b11000100000010101111110011100101 !
b11000100000110101111110011100101 !
b11000100000110111111110011100101 !
b11000100000110111111110010100101 !
b11000100000110111111110010000101 !
b11000100000110111111110010000001 !
b11000100001110111111110010000001 !
b11000100001110111101110010000001 !
b11000100001110111101110000000001 !
b10000100001110111101110000000001 !
0H
0l
0o
0p
0q
0s
1u
0w
1x
1z
1}
1~
1!!
0#!
0$!
0d
0c
1a
1`
1_
1\
1Z
0Y
1W
0U
0S
0R
0Q
0N
0=
0:
09
08
06
14
02
11
1/
1,
1+
1*
0(
0'
#35000
b10000100001110111101110000010001 !
b10000110001110111101110000010001 !
b10010110001110111101110000010001 !
b10110001110111101110000010001 !
b10110001110111101110000010000 !
b110110001110111101110000010000 !
b110110001110110101110000010000 !
b110110001110110101110000011000 !
b110110001110110001110000011000 !
b110110001110110001111000011000 !
b110110001100110001111000011000 !
b110111001100110001111000011000 !
b110111001000110001111000011000 !
b110111001000100001111000011000 !
b110111001000100001111000111000 !
0I
0j
1m
1n
1o
1s
0x
0y
0z
0}
0~
1$!
1%!
1(!
1)!
1i
1h
1e
1d
0`
0_
0\
0[
0Z
1U
1Q
1P
1O
0L
0?
1<
1;
1:
16
01
00
0/
0,
0+
1'
1&
1#
1"
#40000
b110111001001100001111000111000 !
b110111001001100001101000111000 !
b110111001001100001101000111010 !
b110111001001000001101000111010 !
b110011001001000001101000111010 !
b110011101001000001101000111010 !
b110011101001000001001000111010 !
b110011101001000001001001111010 !
b110011101001000001001001101010 !
b110001101001000001001001101010 !
b110001101001000001001001101011 !
b10001101001000001001001101011 !
b10001101001000001001001100011 !
b10000101001000001001001100011 !
b10000101001000001001001000011 !
1j
1k
0m
0n
0o
1p
0t
0u
0{
1|
1#!
0$!
0%!
0&!
0)!
0i
0f
0e
0d
1c
1^
0]
0W
0V
1R
0Q
0P
0O
1M
1L
1?
1>
0<
0;
0:
19
05
04
0.
1-
1(
0'
0&
0%
0"
#45000
b10000101001000001001001000111 !
b10000101001000011001001000111 !
b1010000101001000011001001000111 !
b11010000101001000011001001000111 !
b11010000101001000011000001000111 !
b11010000101101000011000001000111 !
b11010000101101010011000001000111 !
b11010000101100010011000001000111 !
b11010100101100010011000001000111 !
b11010100101100010011000001010111 !
b11010110101100010011000001010111 !
b11010110101100010011000001010110 !
b11110110101100010011000001010110 !
b11110110101100010011000001110110 !
1H
1I
0j
1l
1n
1o
0s
1w
1z
0|
1~
1%!
1&!
1)!
1i
1f
1e
1`
0^
1\
1Y
0U
1Q
1P
1N
0L
0?
1=
1;
1:
06
12
1/
0-
1+
1&
1%
1"
#50000
b11111110101100010011000001110110 !
b11111110101100010011000011110110 !
b11111110101110010011000011110110 !
b11111110101110010011000011110100 !
b11111110001110010011000011110100 !
b11111110001110010011100011110100 !
b11111110001110010011100011111100 !
b11111110001110010011100011111000 !
b11111110001110010001100011111000 !
b11111110001110010001101011111000 !
b11111110001010010001101011111000 !
b11111010001010010001101011111000 !
b11111010001010010001101011101000 !
b11011010001010010001101011101000 !
0k
0l
1m
0n
1q
1s
1u
0w
1}
0~
0#!
0&!
1'!
0)!
0i
1g
0f
0c
0`
1_
0Y
1W
1U
1S
0P
1O
0N
0M
0>
0=
1<
0;
18
16
14
02
1,
0+
0(
0%
1$
0"
#55000
b11011010011010010001101011101000 !
b11011010011010010001101111101000 !
b11011010011010010000101111101000 !
b11011010010010010000101111101000 !
b11011010010010011000101111101000 !
b11011011010010011000101111101000 !
b10011011010010011000101111101000 !
b11011010010011000101111101000 !
b11011010010011000001111101000 !
b11011010010011000001111100000 !
b11011010010011000001111110000 !
b111011010010011000001111110000 !
0H
0I
0m
1n
1r
0u
0v
1y
0!!
1"!
1$!
1)!
1i
1d
1b
0a
1[
0X
0W
1T
1P
0O
0<
1;
17
04
03
10
0*
1)
1'
1"
#60000
b111011010010011100001111110000 !
b111011010010001100001111110000 !
b111011010011001100001111110000 !
b111001010011001100001111110000 !
b111001010011001100001111110001 !
b111001010011001100001101110001 !
b111001010001001100001101110001 !
b111001010001001100001101110011 !
b111001110001001100001101110011 !
b111001110001001100001101110111 !
b111001110001001110001101110111 !
b111001110001001110000101110111 !
b111001110001001110000001110111 !
b111001110001001111000001110111 !
b111001110001000111000001110111 !
b1111001110001000111000001110111 !
b11111001110001000111000001110111 !
b11111001110001000111000001111111 !
1H
1I
1j
1k
1l
1m
0q
0r
0s
1v
1w
1x
0y
0z
1|
0}
1#!
0%!
0e
1c
0_
1^
0\
0[
1Z
1Y
1X
0U
0T
0S
1O
1N
1M
1L
1?
1>
1=
1<
08
07
06
13
12
11
00
0/
1-
0,
1(
0&
#65000
b11101001110001000111000001111111 !
b11101001110001000111000000111111 !
b11100001110001000111000000111111 !
b11100101110001000111000000111111 !
b11100100110001000111000000111111 !
b11000100110001000111000000111111 !
b11000100110001010111000000111111 !
b11000100110011010111000000111111 !
b11000100010011010111000000111111 !
b11000100010011010101000000111111 !
b11000100010011010101000000110111 !
0m
0p
0w
1z
1}
0#!
0$!
1&!
0'!
0(!
0)!
0i
0h
0g
1f
0d
0c
1_
1\
0Y
0R
0O
0<
09
02
1/
1,
0(
0'
1%
0$
0#
0"
#70000
b11000100010011110101000000110111 !
b11000100010011110001000000110111 !
b11000100010010110001000000110111 !
b11000110010010110001000000110111 !
b11000110010010110001000000110110 !
b11000110010010110001000000110100 !
b11000110010010110001000100110100 !
b11000110010010110000000100110100 !
b1000110010010110000000100110100 !
b1010110010010110000000100110100 !
b1010110010010110000000101110100 !
b1010111010010110000000101110100 !
b1110111010010110000000101110100 !
b1110111010010100000000101110100 !
b1110111010000100000000101110100 !
0I
0j
0k
1p
1r
0v
0x
0z
1{
0|
0}
1$!
1%!
1(!
1)!
1i
1h
1e
1d
0_
0^
1]
0\
0Z
0X
1T
1R
0M
0L
0?
0>
19
17
03
01
0/
1.
0-
0,
1'
1&
1#
1"
#75000
b1110111010000100000010101110100 !
b1110111000000100000010101110100 !
b1110111000000100000010101100100 !
b1110111000000101000010101100100 !
b1111111000000101000010101100100 !
b1111011000000101000010101100100 !
b1111011000000101010010101100100 !
b1111011000000001010010101100100 !
b1111011000000001110010101100100 !
b1111011000001001110010101100100 !
b1111001000001001110010101100100 !
b1111001000001001110010101100101 !
b1111001000001001110010001100101 !
b1111001000001001111010001100101 !
b1101001000001001111010001100101 !
b1101001000001001111010000100101 !
b1101000000001001111010000100101 !
b1001000000001001111010000100101 !
b1001000000001011111010000100101 !
b1001000000011011111010000100101 !
1j
0n
0p
0r
1t
1v
1w
1x
1y
1z
0{
1|
1}
0"!
0$!
0%!
0&!
1'!
0(!
0)!
0i
0h
1g
0f
0e
0d
0b
1_
1^
0]
1\
1[
1Z
1Y
1X
1V
0T
0R
0P
1L
1?
0;
09
07
15
13
12
11
10
1/
0.
1-
1,
0)
0'
0&
0%
1$
0#
0"
#80000
b1001000000011011111010000000101 !
b1001000000011011111010010000101 !
b1001000000011011111010010000001 !
b1001000000011011111011010000001 !
b1000000011011111011010000001 !
b1000100011011111011010000001 !
b1000100011011111011010001001 !
b1000100011011111011010001011 !
b1000100011011101011010001011 !
b1000100011011101011010001010 !
b1000100011011101011110001010 !
b11000100011011101011110001010 !
b11000100011011101011111001010 !
b11001100011011101011111001010 !
b11001100001011101011111001010 !
0H
0j
1k
0l
1m
0o
1p
1q
1r
1s
0w
0}
1#!
1$!
1(!
1h
1d
1c
0_
0Y
1U
1T
1S
1R
0Q
1O
0N
1M
0L
0?
1>
0=
1<
0:
19
18
17
16
02
0,
1(
1'
1#
#85000
b11001100101011101011111001010 !
b11001101101011101011111001010 !
b11001101101011101111111001010 !
b10011001101101011101111111001010 !
b10011001111101011101111111001010 !
b10011001111101011101111111011010 !
b10011001111101010101111111011010 !
b10011001111101000101111111011010 !
b11011001111101000101111111011010 !
b11011001011101000101111111011010 !
b11011001011101000111111111011010 !
b11011001011101000111111111011011 !
b11011001011101000111111110011011 !
1H
1I
1j
1n
0p
1u
1w
0y
0z
1~
1!!
1"!
0#!
0c
1b
1a
1`
0\
0[
1Y
1W
0R
1P
1L
1?
1;
09
14
12
00
0/
1+
1*
1)
0(
#90000
b11011001011101000111101110011011 !
b11011101011101000111101110011011 !
b11011101011101100111101110011011 !
b11011101011101100011101110011011 !
b11011111011101100011101110011011 !
b11011111011101100010101110011011 !
b11111111011101100010101110011011 !
b11111111011101100010101110011001 !
b11101111011101100010101110011001 !
b11101110011101100010101110011001 !
b11101110011101100010001110011001 !
b11101110001101100010001110011001 !
b11101110001101100010001110001001 !
b11101110001101101010001110001001 !
b11101110001101111010001110001001 !
b10101110001101111010001110001001 !
b10101110001101111010001110001000 !
0H
0j
0k
0n
0t
0u
0v
0x
1y
1z
1{
0"!
0$!
1%!
1&!
0(!
1)!
1i
0h
1f
1e
0d
0b
1]
1\
1[
0Z
0X
0W
0V
0P
0M
0L
0?
0>
0;
05
04
03
01
10
1/
1.
0)
0'
1&
1%
0#
1"
#95000
b10100110001101111010001110001000 !
b10100110001100111010001110001000 !
b10100110001100111010001110101000 !
b10100110001100111010001110101100 !
b10100110001100111010001110100100 !
b10100110001100111010001010100100 !
b10100110001110111010001010100100 !
b10100110000110111010001010100100 !
b10100110100110111010001010100100 !
b10100110100110111000001010100100 !
b10110110100110111000001010100100 !
b10110110100110111000001010110100 !
b10110110100110110000001010110100 !
b11110110100110110000001010110100 !
1H
1l
0m
1n
1o
0r
0w
0y
0|
1}
0!!
1#!
0'!
1(!
1h
0g
1c
0a
1_
0^
0[
0Y
0T
1Q
1P
0O
1N
1=
0<
1;
1:
07
02
00
0-
1,
0*
1(
0$
1#
#100000
b11110110100010110000001010110100 !
b1110110100010110000001010110100 !
b1110110100010110000011010110100 !
b1110110100010110100011010110100 !
b1110100100010110100011010110100 !
b1110100100010110100011010110110 !
b1110101100010110100011010110110 !
b1110101100010110100111010110110 !
b1110101110010110100111010110110 !
b1110101110010100100111010110110 !
b1111101110010100100111010110110 !
b1111101110010100100111010111110 !
b1111101110010100100111110111110 !
b1101101110010100100111110111110 !
b1101101110010100100111110101110 !
b101101110010100100111110101110 !
0H
0I
1k
1m
0n
1r
1t
1u
1x
0z
0~
1"!
1$!
0%!
1'!
0(!
0h
1g
0e
1d
1b
0`
0\
1Z
1W
1V
1T
0P
1O
1M
1>
1<
0;
17
15
14
11
0/
0+
1)
1'
0&
1$
0#
#105000
b101101110010100100111111101110 !
b101101110010100101111111101110 !
b1101110010100101111111101110 !
b1101111010100101111111101110 !
b1101011010100101111111101110 !
b1101011110100101111111101110 !
b1101011110100001111111101110 !
b1111011110100001111111101110 !
b1111011110100001111111101100 !
b1111011110100001011111101100 !
b1111001110100001011111101100 !
b1111001110110001011111101100 !
b111001110110001011111101100 !
b111001110110001011111111100 !
b1000111001110110001011111111100 !
1H
0k
1n
1p
0u
1v
0x
1z
1~
1!!
0"!
0#!
1%!
0'!
0)!
0i
0g
1e
0c
0b
1a
1`
1\
0Z
1X
0W
1R
1P
0M
0>
1;
19
04
13
01
1/
1+
1*
0)
0(
1&
0$
0"
#110000
b1000111001110110001011111011100 !
b1000111001110111001011111011100 !
b1000110001110111001011111011100 !
b1000110001110111001011011011100 !
b1010110001110111001011011011100 !
b1010110001110111000011011011100 !
b1110110001110111000011011011100 !
b1110110000110111000011011011100 !
b1110110000010111000011011011100 !
b1110100000010111000011011011100 !
b1110100000010111000011011011110 !
b1111100000010111000011011011110 !
1k
0o
0r
0v
1y
0~
0!!
0$!
0%!
1'!
1(!
1)!
1i
1h
1g
0e
0d
0a
0`
1[
0X
0T
0Q
1M
1>
0:
07
03
10
0+
0*
0'
0&
1$
1#
1"
#115000
b1111100000010111000011001011110 !
b1111100000010111000010001011110 !
b1111100000011111000010001011110 !
b11111100000011111000010001011110 !
b11111100100011111000010001011110 !
b11111100100011111000110001011110 !
b11111100110011111000110001011110 !
b11111100110011111000110001001110 !
b11111100110011111000110001101110 !
b11011100110011111000110001101110 !
b11011100111011111000110001101110 !
b11011100111111111000110001101110 !
b11011110111111111000110001101110 !
b11011110111111111000110001101100 !
1I
0k
0n
1o
0q
0s
1u
1|
1~
1!!
1"!
1#!
1%!
0)!
0i
1e
1c
1b
1a
1`
1^
1W
0U
0S
1Q
0P
0M
0>
0;
1:
08
06
14
1-
1+
1*
1)
1(
1&
0"
#120000
b11011110111101111000110001101100 !
b11011110111101111000100001101100 !
b11011110111101111000100001100100 !
b11011110111101111100100001100100 !
b11011110111101111101100001100100 !
b11011110111101111101100011100100 !
b1011110111101111101100011100100 !
b1011110101101111101100011100100 !
b1011110101101111101100011110100 !
b1011110100101111101100011110100 !
0I
0m
1n
1q
0t
1v
1x
0}
0!!
0"!
0b
0a
0_
1Z
1X
0V
1S
1P
0O
0<
1;
18
05
13
11
0,
0*
0)
#125000
b1011010100101111101100011110100 !
b1011010100101011101100011110100 !
b1011010100101011101100011110101 !
b1011010100101011101100010110101 !
b11010100101011101100010110101 !
b11010100101010101100010110101 !
b11011100101010101100010110101 !
b10011100101010101100010110101 !
b10011100101010101101010110101 !
b10011000101010101101010110101 !
b10011000101010101001010110101 !
b10011000101010101001010010101 !
b110011000101010101001010010101 !
b110011000101010101001010010111 !
b110011000111010101001010010111 !
b110011000111010101011010010111 !
b110011000111010101011010011111 !
b110011000111010001011010011111 !
b110011010111010001011010011111 !
0H
1j
1k
1m
0o
0p
1s
1t
0u
0x
0y
0{
1}
1"!
0#!
1$!
0&!
0'!
1)!
1i
0g
0f
1d
0c
1b
1_
0]
0[
0Z
0W
1V
1U
0R
0Q
1O
1M
1L
1?
1>
1<
0:
09
16
15
04
01
00
0.
1,
1)
0(
1'
0%
0$
1"
#130000
b110011010111010001011010011011 !
b110011010111010001011110011011 !
b110001010111010001011110011011 !
b110001010111010000011110011011 !
b110001010111010000011100011011 !
b110001010111010000011100001011 !
b110101010111010000011100001011 !
b110101010111010000011100001010 !
b1110101010111010000011100001010 !
b1110100010111010000011100001010 !
b1110100110111010000011100001010 !
b1110100110111010000111100001010 !
b1110100110111010000111100101010 !
b1110100110111010000111100101000 !
b1110100110111010000101100101000 !
b1110100100111010000101100101000 !
1H
0j
0k
0l
0n
1o
0q
1r
0t
1u
0v
0"!
1#!
0$!
0%!
1&!
1f
0e
0d
1c
0b
0X
1W
0V
1T
0S
1Q
0P
0N
0M
0L
0?
0>
0=
0;
1:
08
17
05
14
03
0)
1(
0'
0&
1%
#135000
b1110100100111000000101100101000 !
b1100100100111000000101100101000 !
b1100100100110000000101100101000 !
b1100100100010000000101100101000 !
b1100100101010000000101100101000 !
b1100100101010100000101100101000 !
b1100100101010100000101101101000 !
b1101100101010100000101101101000 !
b1101100101010100000100101101000 !
b1101100101010100100100101101000 !
b1101100101010100100100001101000 !
b1101110101010100100100001101000 !
b1101010101010100100100001101000 !
b1101010001010100100100001101000 !
b1101010001010100100000001101000 !
b1101010011010100100000001101000 !
1p
0r
0s
0u
1x
0z
1{
0|
0~
1!!
1"!
0#!
1%!
0&!
1'!
0(!
0h
1g
0f
1e
0c
1b
1a
0`
0^
1]
0\
1Z
0W
0U
0T
1R
19
07
06
04
11
0/
1.
0-
0+
1*
1)
0(
1&
0%
1$
0#
#140000
b1101010011010100110000001101000 !
b1101010011010101110000001101000 !
b1101010011000101110000001101000 !
b1101010011000101110000001100000 !
b1101010011000101110000001100100 !
b1101010011000101110000011100100 !
b1101010011000101110000011100101 !
b101010011000101110000011100101 !
b101011011000101110000011100101 !
b101011011000101110000011100111 !
b111011011000101110000011100111 !
b111011011001101110000011100111 !
b111011011101101110000011100111 !
b111011010101101110000011100111 !
b111011010101001110000011100111 !
b111011010101001110000010100111 !
b110011010101001110000010100111 !
b110011010101001010000010100111 !
b110001010101001010000010100111 !
b110001110101001010000010100111 !
b110001110101001010100010100111 !
b110001100101001010100010100111 !
0H
1j
1k
1l
0m
0p
1q
1u
1w
0x
1y
0{
1|
0}
1~
0!!
0"!
1#!
1$!
0%!
0'!
1(!
1h
0g
0e
1d
1c
0b
0a
1`
0_
1^
0]
1[
0Z
1Y
1W
1S
0R
0O
1N
1M
1L
1?
1>
1=
0<
09
18
14
12
01
10
0.
1-
0,
1+
0*
0)
1(
1'
0&
0$
1#
#145000
b110001100101001011100010100111 !
b110001100101001011100010110111 !
b110001100101001011110010110111 !
b110001100101001001110010110111 !
b110001100101001001110010111111 !
b110001100101001001110010111011 !
b110001100101001001110000111011 !
b110001100101001001110000111010 !
b110000100101001001110000111010 !
b110000101101001001110000111010 !
b111000101101001001110000111010 !
b111000101101001101110000111010 !
b111010101101001101110000111010 !
0j
0l
1m
1n
0q
1t
1v
0w
1x
1!!
0$!
1%!
1'!
1g
1e
0d
1a
1Z
0Y
1X
1V
0S
1P
1O
0N
0L
0?
0=
1<
1;
08
15
13
02
11
1*
0'
1&
1$
#150000
b11010101101001101110000111010 !
b11010101101001101110000011010 !
b11010101101011101110000011010 !
b11010101101011101111000011010 !
b11010101101011101111100011010 !
b11010101111011101111100011010 !
b11010101111011101111100011000 !
b11010101011011101111100011000 !
b11010101011011101011100011000 !
b11010111011011101011100011000 !
b11010111011011101011100001000 !
b11010111011011101001100001000 !
b11010111011011111001100001000 !
b11010111011011111001100000000 !
b11010111011011111001100000100 !
b10010111011011111001100000100 !
b10010111011011011001100000100 !
b10000111011011011001100000100 !
0k
1l
0m
0n
0o
1r
1s
0t
0u
1w
0x
1z
1}
0~
1"!
0%!
0'!
0)!
0i
0g
0e
1b
0`
1_
1\
0Z
1Y
0W
0V
1U
1T
0Q
0P
0O
1N
0M
0>
1=
0<
0;
0:
17
16
05
04
12
01
1/
1,
0+
1)
0&
0$
0"
#155000
b10010000111011011011001100000100 !
b10010100111011011011001100000100 !
b10000100111011011011001100000100 !
b10000100111011111011001100000100 !
b10000100111011111010001100000100 !
b10000100111011111010001110000100 !
b10000101111011111010001110000100 !
b10000101110011111010001110000100 !
b10000101110011111010000110000100 !
b10000101110011111010000010000100 !
b10000101110111111010000010000100 !
b10000101110111111010000010010100 !
b10001101110111111010000010010100 !
b10001101110111111110000010010100 !
b10001111110111111110000010010100 !
1I
1n
1q
0r
0s
0v
1x
1{
1~
0!!
1$!
1%!
1&!
1'!
0(!
0h
1g
1f
1e
1d
0a
1`
1]
1Z
0X
0U
0T
1S
1P
1;
18
07
06
03
11
1.
1+
0*
1'
1&
1%
1$
0#
#160000
b11001111110111111110000010010100 !
b11001111110111111110000011010100 !
b11001111010111111110000011010100 !
b11101111010111111110000011010100 !
b11101111010111111110000011110100 !
b11101111010111101110000011110100 !
b11101111010111101110000011110110 !
b11101111010111101110100011110110 !
b11101111000111101110100011110110 !
b11101111000111101110110011110110 !
b11101111000111101110110011111110 !
b11101111000111101110110011111010 !
b1101111000111101110110011111010 !
b1101011000111101110110011111010 !
b1111011000111101110110011111010 !
b1111011000111001110110011111010 !
b1111011000111001111110011111010 !
b1111011000111001111110001111010 !
b1111011000111001111111001111010 !
b1111011000111001111111101111010 !
b1110011000111001111111101111010 !
b1110011000111001011111101111010 !
b1110001000111001011111101111010 !
1H
0I
1k
0l
1m
1o
1p
0q
1r
1s
1t
1u
1v
0x
0z
0{
0"!
0#!
0%!
0&!
0'!
1(!
1)!
1i
1h
0g
0f
0e
0c
0b
0]
0\
0Z
1X
1W
1V
1U
1T
0S
1R
1Q
1O
0N
1M
1>
0=
1<
1:
19
08
17
16
15
14
13
01
0/
0.
0)
0(
0&
0%
0$
1#
1"
#165000
b1110001000111000011111101111010 !
b1110001000111000011111101111011 !
b1110001000101000011111101111011 !
b1110001000101000011111101101011 !
b1110001000101000011111100101011 !
b1110001100101000011111100101011 !
b1010001100101000011111100101011 !
b1010001100101010011111100101011 !
b1010001100101010011111100101001 !
b1010001100101010011011100101001 !
b1010001100101010011001100101001 !
b1010001100101010011001100100001 !
b1010001100101010011001100100101 !
b1010001100101110011001100100101 !
b1010001100101110010001100100101 !
b1010001100101110010001000100101 !
b1010001100101110110001000100101 !
b1010011100101110110001000100101 !
1j
0k
1l
0m
0n
0p
0r
0t
0u
0v
1x
0y
1z
1{
0}
1#!
1%!
0)!
0i
1e
1c
0_
1]
1\
0[
1Z
0X
0W
0V
0T
0R
0P
0O
1N
0M
1L
1?
0>
1=
0<
0;
09
07
05
04
03
11
00
1/
1.
0,
1(
1&
0"
#170000
b1010011100100110110001000100101 !
b1010011100100110100001000100101 !
b1010010100100110100001000100101 !
b1010010100100110100001000000101 !
b1010010100100110100000000000101 !
b1010010100100111100000000000101 !
b1010010100110111100000000000101 !
b1010010100110111100000000010101 !
b1010010000110111100000000010101 !
b1010010000110111100000000011101 !
b1010010000110111100000000011001 !
b1010010000110011100000000011001 !
b1010010000110011000000000011001 !
0l
1m
1n
0o
0s
0w
0x
1y
0{
0|
1}
0#!
0$!
0d
0c
1_
0^
0]
1[
0Z
0Y
0U
0Q
1P
1O
0N
0=
1<
1;
0:
06
02
01
10
0.
0-
1,
0(
0'
