simulation/qsim/MIPS.msim.vcd
$comment
	File created using the following command:
		vcd file MIPS.msim.vcd -direction
$end
$date
	Wed Nov 23 23:24:34 2016
$end
$version
	ModelSim Version 10.4d
$end
$timescale
	1ps
$end

$scope module maindec_vlg_vec_tst $end
$var reg 6 ! op [5:0] $end
$var wire 1 " aluop [1] $end
$var wire 1 # aluop [0] $end
$var wire 1 $ alusrc $end
$var wire 1 % branch $end
$var wire 1 & memtorreg $end
$var wire 1 ' memwrite $end
$var wire 1 ( regdst $end
$var wire 1 ) regwrite $end

$scope module i1 $end
$var wire 1 * gnd $end
$var wire 1 + vcc $end
$var wire 1 , unknown $end
$var tri1 1 - devclrn $end
$var tri1 1 . devpor $end
$var tri1 1 / devoe $end
$var wire 1 0 memtorreg~output_o $end
$var wire 1 1 memwrite~output_o $end
$var wire 1 2 branch~output_o $end
$var wire 1 3 alusrc~output_o $end
$var wire 1 4 regdst~output_o $end
$var wire 1 5 regwrite~output_o $end
$var wire 1 6 aluop[0]~output_o $end
$var wire 1 7 aluop[1]~output_o $end
$var wire 1 8 op[0]~input_o $end
$var wire 1 9 op[1]~input_o $end
$var wire 1 : op[3]~input_o $end
$var wire 1 ; op[5]~input_o $end
$var wire 1 < op[2]~input_o $end
$var wire 1 = op[4]~input_o $end
$var wire 1 > WideOr6~0_combout $end
$var wire 1 ? Decoder0~0_combout $end
$var wire 1 @ WideOr4~0_combout $end
$var wire 1 A Decoder0~1_combout $end
$var wire 1 B WideOr1~0_combout $end
$upscope $end
$upscope $end
$enddefinitions $end
#0
$dumpvars
b11000 !
0#
0"
1$
0%
0&
1'
0(
0)
0*
1+
x,
1-
1.
1/
00
11
02
13
04
05
06
07
08
09
1:
0;
0<
1=
0>
0?
1@
0A
1B
$end
#5000
b111000 !
b101000 !
b101100 !
b101101 !
18
1<
0=
1;
#10000
b100101 !
b100111 !
b111 !
b11 !
19
0<
0:
0;
#15000
b10011 !
b11011 !
b111011 !
b111111 !
1<
1:
1=
1;
#20000
b111110 !
b111100 !
b101100 !
b100100 !
08
09
0:
0=
#25000
b100000 !
b100010 !
b110010 !
19
0<
1=
#30000
b10010 !
b10011 !
b11 !
18
0=
0;
#35000
b1011 !
b1111 !
b1101 !
b101101 !
b111101 !
09
1<
1:
1=
1;
#40000
b111100 !
b110100 !
b10100 !
08
0:
0;
#45000
b10000 !
b0 !
b1000 !
b101000 !
0<
1:
0=
1;
#50000
b101010 !
b101110 !
b100110 !
b110 !
19
1<
0:
0;
#55000
b111 !
b10111 !
b10101 !
b10001 !
b11001 !
18
09
0<
1:
1=
#60000
b1001 !
b1101 !
b101 !
1<
0:
0=
#65000
b100 !
b110 !
08
19
#70000
b100110 !
b110110 !
b110100 !
09
1=
1;
#75000
b110000 !
b110001 !
18
0<
#80000
b110011 !
b110111 !
19
1<
#85000
b100111 !
b100101 !
09
0=
#90000
b101 !
b100 !
b0 !
b10 !
08
19
0<
0;
1>
0@
03
01
0'
0$
#95000
b1010 !
b11010 !
b11011 !
18
1:
1=
0>
1@
13
11
1'
1$
#100000
b111011 !
b111001 !
b101001 !
b101000 !
08
09
0=
1;
#105000
b101100 !
b100100 !
b100 !
b10100 !
b10101 !
18
1<
0:
1=
0;
#110000
b10111 !
b11111 !
b111111 !
b101111 !
b101110 !
08
19
1:
0=
1;
#115000
b101010 !
b100010 !
b100011 !
18
0<
0:
0B
1>
01
15
1)
0'
#120000
b11 !
b10011 !
b10111 !
b11111 !
1<
1:
1=
0;
1B
0>
11
05
0)
1'
#125000
b111111 !
b110111 !
0:
1;
#130000
b110101 !
b110100 !
08
09
#135000
b100100 !
b100000 !
b0 !
b10 !
b11 !
18
19
0<
0=
0;
#140000
b1011 !
b1111 !
b101111 !
b101110 !
08
1<
1:
1;
#145000
b100110 !
b100010 !
0<
0:
#150000
b110010 !
b110000 !
09
1=
#155000
b10000 !
b11000 !
b11100 !
b11110 !
19
1<
1:
0;
#160000
b11111 !
b1111 !
b101111 !
b100111 !
18
0:
0=
1;
#165000
b100011 !
b110011 !
b111011 !
0<
1:
1=
#170000
b111001 !
b111000 !
b111100 !
b110100 !
08
09
1<
0:
#175000
b10100 !
b100 !
b101 !
b1 !
b1001 !
18
0<
1:
0=
0;
#180000
b101001 !
b101000 !
b100000 !
08
0:
1;
#185000
b100010 !
b110010 !
b110011 !
18
19
1=
#190000
b10011 !
b10001 !
09
0;
#195000
b1 !
b0 !
08
0=
0B
1>
1A
0@
03
14
17
01
15
1)
0'
1"
1(
0$
#200000
b1000 !
b101000 !
b101010 !
b101011 !
18
19
1:
1;
1B
0>
0A
1@
13
04
07
11
05
0)
1'
0"
0(
1$
#205000
b101111 !
b111111 !
b110111 !
b110110 !
08
1<
0:
1=
#210000
b10110 !
b10010 !
b10 !
b1010 !
0<
1:
0=
0;
#215000
b1000 !
b11000 !
09
1=
#220000
b11001 !
b111001 !
b111011 !
b101011 !
18
19
0=
1;
#225000
b101010 !
b1010 !
08
0;
#230000
b10 !
b10010 !
b10011 !
b110011 !
18
0:
1=
1;
#235000
b111011 !
b101011 !
b1011 !
1:
0=
0;
#240000
b1111 !
b101111 !
1<
1;
#245000
b101110 !
b111110 !
08
1=
#250000
b111100 !
b110100 !
b110000 !
09
0<
0:
#255000
b10000 !
b10001 !
b10011 !
18
19
0;
#260000
b10111 !
1<
#265000
b110111 !
b110011 !
0<
1;
#270000
b111011 !
b111010 !
08
1:
#275000
b101010 !
b101110 !
b101111 !
18
1<
0=
#280000
b101101 !
b1101 !
09
0;
#285000
b1111 !
19
#290000
b11111 !
b11110 !
08
1=
#295000
b10110 !
b10010 !
b10 !
b11 !
18
0<
0:
0=
#300000
b100011 !
b100001 !
b101001 !
b111001 !
09
1:
1=
1;
#305000
b111000 !
b111010 !
b101010 !
08
19
0=
#310000
b101110 !
b1110 !
b110 !
b100 !
09
1<
0:
0;
1>
0@
1?
12
16
03
01
0'
0$
1#
1%
#315000
b101 !
b10101 !
b11101 !
18
1:
1=
0>
1@
0?
02
06
13
11
1'
1$
0#
0%
#320000
b11001 !
b111001 !
b111011 !
b111010 !
08
19
0<
1;
#325000
b110010 !
b110110 !
b110100 !
b110101 !
18
09
1<
0:
#330000
b100101 !
b101 !
b1 !
b11 !
b10 !
08
19
0<
0=
0;
1>
0@
03
01
0'
0$
#335000
b1010 !
b101010 !
1:
1;
0>
1@
13
11
1'
1$
#340000
b101110 !
b101100 !
09
1<
#345000
b1100 !
b1110 !
19
0;
#350000
b1111 !
b111 !
b100111 !
b100101 !
18
09
0:
1;
#355000
b100001 !
b1 !
b11 !
19
0<
0;
#360000
b111 !
1<
#365000
b10111 !
b10110 !
b10100 !
08
09
1=
#370000
b10000 !
b10001 !
b10011 !
18
19
0<
#375000
b11011 !
b111011 !
b101011 !
b101111 !
b101110 !
b101100 !
08
09
1<
1:
0=
1;
#380000
b100100 !
b110100 !
b110000 !
0<
0:
1=
#385000
b110001 !
b110011 !
b111011 !
b101011 !
b101111 !
18
19
1<
1:
0=
#390000
b101110 !
b100110 !
b110110 !
08
0:
1=
#395000
b10110 !
b10100 !
b10101 !
b101 !
18
09
0=
0;
#400000
b100101 !
1;
#405000
b101101 !
1:
#410000
b111101 !
b11101 !
1=
0;
#415000
b11001 !
0<
#420000
b11000 !
b10000 !
b10100 !
08
1<
0:
#425000
b10110 !
b10111 !
18
19
#430000
b111 !
b100111 !
b101111 !
b101011 !
b101001 !
09
0<
1:
0=
1;
#435000
b101000 !
b1000 !
b0 !
08
0:
0;
0B
1>
1A
0@
03
14
17
01
15
1)
0'
1"
1(
0$
#440000
b1000 !
1:
0A
1@
13
04
07
0"
0(
1$
#445000
b1100 !
b100 !
1<
0:
1B
0@
1?
12
16
03
05
0)
0$
1#
1%
#450000
b100100 !
1;
0>
1@
0?
02
06
13
11
1'
1$
0#
0%
#455000
b100110 !
b100010 !
b10 !
19
0<
0;
1>
0@
03
01
0'
0$
#460000
b1010 !
b1000 !
b1100 !
09
1<
1:
0>
1@
13
11
1'
1$
#465000
b11100 !
b11101 !
b111101 !
b110101 !
18
0:
1=
1;
#470000
b110111 !
b110011 !
b100011 !
b11 !
19
0<
0=
0;
#475000
b10011 !
1=
#480000
b11011 !
b11111 !
b111111 !
1<
1:
1;
#485000
b111110 !
b110110 !
b110010 !
08
0<
0:
#490000
b100010 !
b10 !
b1010 !
1:
0=
0;
#495000
b1000 !
b1001 !
b1101 !
b11101 !
18
09
1<
1=
#500000
b10101 !
b10111 !
b10110 !
b10010 !
08
19
0<
0:
#505000
b11010 !
b11011 !
b11111 !
18
1<
1:
#510000
b11101 !
b11001 !
09
0<
#520000
b111001 !
b111101 !
1<
1;
#525000
b110101 !
b110100 !
b110110 !
b10110 !
08
19
0:
0;
#530000
b110 !
b10 !
b11 !
b1 !
b100001 !
18
09
0<
0=
1;
#535000
b101001 !
b111001 !
b111000 !
08
1:
1=
#540000
b111100 !
b111110 !
19
1<
#545000
b110110 !
b110010 !
0<
0:
#550000
b10010 !
b10 !
0=
0;
1>
0@
03
01
0'
0$
#555000
b0 !
b1000 !
b101000 !
b111000 !
09
1:
1=
1;
0>
1@
13
11
1'
1$
#560000
b111001 !
b111101 !
b11101 !
b1101 !
18
1<
0=
0;
#565000
b1111 !
b111 !
b11 !
b10011 !
19
0<
0:
1=
#570000
b10010 !
b10000 !
08
09
#575000
b10100 !
b10101 !
b10111 !
18
19
1<
#580000
b111 !
b11 !
b1 !
09
0<
0=
#585000
b100001 !
b110001 !
1=
1;
#590000
b110011 !
b100011 !
19
0=
0B
1>
01
15
1)
0'
#595000
b101011 !
b101111 !
b101101 !
09
1<
1:
1B
0>
11
05
0)
1'
#600000
b101100 !
b111100 !
b111000 !
b111010 !
08
19
0<
1=
#605000
b11010 !
b1010 !
b1110 !
b1100 !
09
1<
0=
0;
#610000
b100 !
b101 !
b100101 !
b100001 !
18
0<
0:
1;
#615000
b110001 !
1=
#620000
b110011 !
b100011 !
19
0=
0B
1>
01
15
1)
0'
#625000
b101011 !
b1011 !
1:
0;
1B
0>
11
05
0)
1'
#630000
b1010 !
08
#635000
b1000 !
b1001 !
18
09
#640000
b1 !
b11 !
b10 !
08
19
0:
1>
0@
03
01
0'
0$
#645000
b10010 !
b11010 !
b11000 !
09
1:
1=
0>
1@
13
11
1'
1$
#650000
b11100 !
b11101 !
b10101 !
b10111 !
18
19
1<
0:
#655000
b110111 !
b100111 !
b101111 !
1:
0=
1;
#660000
b101101 !
b1101 !
b11101 !
09
1=
0;
#665000
b11001 !
b11000 !
b10000 !
b110000 !
08
0<
0:
1;
#670000
b110100 !
b111100 !
1<
1:
#675000
b110100 !
0:
#680000
b110110 !
b100110 !
b100111 !
b111 !
b11 !
18
19
0<
0=
0;
#685000
b100011 !
b100111 !
1<
1;
#690000
b111 !
0;
#695000
b10111 !
b10011 !
0<
1=
#700000
b11011 !
b11001 !
b11000 !
b111000 !
b111100 !
08
09
1<
1:
1;
#705000
b110100 !
b110101 !
b10101 !
b10001 !
18
0<
0:
0;
#710000
b1 !
b11 !
b1011 !
b1010 !
08
19
1:
0=
#715000
b1000 !
b0 !
b1 !
18
09
0:
#720000
b10001 !
1=
#725000
b10011 !
b11011 !
b1011 !
19
1:
0=
#730000
b101011 !
b101010 !
b100010 !
08
0:
1;
#735000
b100110 !
b101110 !
1<
1:
#740000
b1110 !
b1111 !
b1011 !
b11 !
18
0<
0:
0;
#750000
b10 !
b110 !
b1110 !
08
1<
1:
#755000
b1100 !
b1101 !
b1001 !
18
09
0<
#760000
b101001 !
b101011 !
b101010 !
b101110 !
08
19
1<
1;
#765000
b100110 !
b110 !
b111 !
18
0:
0;
#770000
b1111 !
b1110 !
08
1:
#775000
b11110 !
b11100 !
b11101 !
18
09
1=
#780000
b10101 !
b10111 !
19
0:
#785000
b111 !
b110 !
08
0=
#790000
b100110 !
b100100 !
09
1;
#795000
b100000 !
b0 !
0<
0;
0B
1>
1A
0@
03
14
17
01
15
1)
0'
1"
1(
0$
#800000
b1000 !
b1001 !
b1011 !
18
19
1:
1B
0>
0A
1@
13
04
07
11
05
0)
1'
0"
0(
1$
#805000
b11011 !
b11111 !
b111111 !
b110111 !
b110101 !
09
1<
0:
1=
1;
#810000
b110100 !
b100100 !
b100000 !
08
0<
0=
#815000
b100010 !
b110010 !
19
1=
#820000
b111010 !
b111011 !
18
1:
#825000
b11011 !
b11111 !
b11101 !
b10101 !
09
1<
0:
0;
#830000
b101 !
b100101 !
b100111 !
19
0=
1;
#835000
b101111 !
b111111 !
b11111 !
1:
1=
0;
#840000
b11110 !
b11010 !
b11000 !
b111000 !
08
09
0<
1;
#845000
b101000 !
b101010 !
b1010 !
19
0=
0;
#850000
b1011 !
b1111 !
b11111 !
18
1<
1=
#855000
b11101 !
b111101 !
b101101 !
09
0=
1;
#860000
b100101 !
b100100 !
b100000 !
b100010 !
b10 !
b10010 !
08
19
0<
0:
1=
0;
#865000
b11010 !
b11110 !
b111110 !
b101110 !
1<
1:
0=
1;
#870000
b101111 !
b101101 !
b100101 !
b100001 !
b1 !
b10001 !
18
09
0<
0:
1=
0;
#875000
b10000 !
b10010 !
b11010 !
b11110 !
b1110 !
08
19
1<
1:
0=
#880000
b1111 !
b1101 !
b1001 !
18
09
0<
#885000
b101001 !
b100001 !
b110001 !
b110101 !
1<
0:
1=
1;
#890000
b10101 !
b10001 !
0<
0;
#895000
b11001 !
1:
#900000
b11011 !
b1011 !
19
0=
#905000
b1111 !
b111 !
b10111 !
1<
0:
1=
#910000
b10110 !
b110110 !
b110010 !
b111010 !
08
0<
1:
1;
#915000
b101010 !
b1010 !
b1110 !
1<
0=
0;
#920000
b1111 !
b11111 !
b111111 !
18
1=
1;
#925000
b111101 !
b110101 !
b110001 !
b100001 !
b1 !
09
0<
0:
0=
0;
#930000
b0 !
b100 !
b10100 !
b110100 !
08
1<
1=
1;
#935000
b111100 !
b111101 !
b111001 !
18
0<
1:
#940000
b101001 !
b100001 !
b100000 !
b100100 !
08
1<
0:
0=
#945000
b100110 !
b100111 !
b100011 !
18
19
0<
0B
1>
01
15
1)
0'
#950000
b110011 !
b111011 !
b111010 !
b111110 !
08
1<
1:
1=
1B
0>
11
05
0)
1'
#955000
b11110 !
b11100 !
b1100 !
b1101 !
18
09
0=
0;
#960000
b101 !
b111 !
b10111 !
19
0:
1=
#965000
b10110 !
08
#970000
b10010 !
b10000 !
b0 !
09
0<
0=
0B
1>
1A
0@
03
14
17
01
15
1)
0'
1"
1(
0$
#975000
b100000 !
b101000 !
b101001 !
b101101 !
18
1<
1:
1;
1B
0>
0A
1@
13
04
07
11
05
0)
1'
0"
0(
1$
#980000
b111101 !
b110101 !
b110100 !
08
0:
1=
#985000
b110000 !
b100000 !
0<
0=
#990000
b0 !
b1 !
b10001 !
18
1=
0;
#995000
b11001 !
b11101 !
b111101 !
1<
1:
1;
