simulation/qsim/MIPS.msim.vcd
$comment
	File created using the following command:
		vcd file MIPS.msim.vcd -direction
$end
$date
	Wed Nov 23 10:13:01 2016
$end
$version
	ModelSim Version 10.4d
$end
$timescale
	1ps
$end

$scope module signext_vlg_vec_tst $end
$var reg 16 ! a [15:0] $end
$var wire 1 " y [31] $end
$var wire 1 # y [30] $end
$var wire 1 $ y [29] $end
$var wire 1 % y [28] $end
$var wire 1 & y [27] $end
$var wire 1 ' y [26] $end
$var wire 1 ( y [25] $end
$var wire 1 ) y [24] $end
$var wire 1 * y [23] $end
$var wire 1 + y [22] $end
$var wire 1 , y [21] $end
$var wire 1 - y [20] $end
$var wire 1 . y [19] $end
$var wire 1 / y [18] $end
$var wire 1 0 y [17] $end
$var wire 1 1 y [16] $end
$var wire 1 2 y [15] $end
$var wire 1 3 y [14] $end
$var wire 1 4 y [13] $end
$var wire 1 5 y [12] $end
$var wire 1 6 y [11] $end
$var wire 1 7 y [10] $end
$var wire 1 8 y [9] $end
$var wire 1 9 y [8] $end
$var wire 1 : y [7] $end
$var wire 1 ; y [6] $end
$var wire 1 < y [5] $end
$var wire 1 = y [4] $end
$var wire 1 > y [3] $end
$var wire 1 ? y [2] $end
$var wire 1 @ y [1] $end
$var wire 1 A y [0] $end

$scope module i1 $end
$var wire 1 B gnd $end
$var wire 1 C vcc $end
$var wire 1 D unknown $end
$var tri1 1 E devclrn $end
$var tri1 1 F devpor $end
$var tri1 1 G devoe $end
$var wire 1 H y[0]~output_o $end
$var wire 1 I y[1]~output_o $end
$var wire 1 J y[2]~output_o $end
$var wire 1 K y[3]~output_o $end
$var wire 1 L y[4]~output_o $end
$var wire 1 M y[5]~output_o $end
$var wire 1 N y[6]~output_o $end
$var wire 1 O y[7]~output_o $end
$var wire 1 P y[8]~output_o $end
$var wire 1 Q y[9]~output_o $end
$var wire 1 R y[10]~output_o $end
$var wire 1 S y[11]~output_o $end
$var wire 1 T y[12]~output_o $end
$var wire 1 U y[13]~output_o $end
$var wire 1 V y[14]~output_o $end
$var wire 1 W y[15]~output_o $end
$var wire 1 X y[16]~output_o $end
$var wire 1 Y y[17]~output_o $end
$var wire 1 Z y[18]~output_o $end
$var wire 1 [ y[19]~output_o $end
$var wire 1 \ y[20]~output_o $end
$var wire 1 ] y[21]~output_o $end
$var wire 1 ^ y[22]~output_o $end
$var wire 1 _ y[23]~output_o $end
$var wire 1 ` y[24]~output_o $end
$var wire 1 a y[25]~output_o $end
$var wire 1 b y[26]~output_o $end
$var wire 1 c y[27]~output_o $end
$var wire 1 d y[28]~output_o $end
$var wire 1 e y[29]~output_o $end
$var wire 1 f y[30]~output_o $end
$var wire 1 g y[31]~output_o $end
$var wire 1 h a[0]~input_o $end
$var wire 1 i a[1]~input_o $end
$var wire 1 j a[2]~input_o $end
$var wire 1 k a[3]~input_o $end
$var wire 1 l a[4]~input_o $end
$var wire 1 m a[5]~input_o $end
$var wire 1 n a[6]~input_o $end
$var wire 1 o a[7]~input_o $end
$var wire 1 p a[8]~input_o $end
$var wire 1 q a[9]~input_o $end
$var wire 1 r a[10]~input_o $end
$var wire 1 s a[11]~input_o $end
$var wire 1 t a[12]~input_o $end
$var wire 1 u a[13]~input_o $end
$var wire 1 v a[14]~input_o $end
$var wire 1 w a[15]~input_o $end
$upscope $end
$upscope $end
$enddefinitions $end
#0
$dumpvars
b1010101100110010 !
0A
1@
0?
0>
1=
1<
0;
0:
19
18
07
16
05
14
03
12
11
10
1/
1.
1-
1,
1+
1*
1)
1(
1'
1&
1%
1$
1#
1"
0B
1C
xD
1E
1F
1G
0H
1I
0J
0K
1L
1M
0N
0O
1P
1Q
0R
1S
0T
1U
0V
1W
1X
1Y
1Z
1[
1\
1]
1^
1_
1`
1a
1b
1c
1d
1e
1f
1g
0h
1i
0j
0k
1l
1m
0n
0o
1p
1q
0r
1s
0t
1u
0v
1w
$end
#5000
b1000101100110010 !
b1001101100110010 !
b1001001100110010 !
b1001000100110010 !
b1001000100100010 !
b1001000100101010 !
b1001000100101110 !
b1001000100101100 !
b1001000100101101 !
1h
0i
1j
1k
0l
0q
0s
1t
0u
0U
1T
0S
0Q
0L
1K
1J
0I
1H
1A
0@
1?
1>
0=
08
06
15
04
#10000
b1000100101101 !
b1000101101101 !
b11000101101101 !
b11000101101001 !
b11000101101011 !
1i
0j
1n
1u
0w
0W
0X
0Y
0Z
0[
0\
0]
0^
0_
0`
0a
0b
0c
0d
0e
0f
0g
1U
1N
0J
1I
1@
0?
1;
14
0"
0#
0$
0%
0&
0'
0(
0)
0*
0+
0,
0-
0.
0/
00
01
02
#15000
b111000101101011 !
b111000001101011 !
b111000011101011 !
b111100011101011 !
b111100010101011 !
0n
1o
0p
1s
1v
1V
1S
0P
1O
0N
0;
1:
09
16
13
#20000
b111110010101011 !
b111110010001011 !
b1111110010001011 !
b1101110010001011 !
b1101110010001111 !
b1101110010001101 !
b1101110110001101 !
b1101110111001101 !
0i
1j
0m
1n
1p
1r
0u
1w
1W
1X
1Y
1Z
1[
1\
1]
1^
1_
1`
1a
1b
1c
1d
1e
1f
1g
0U
1R
1P
1N
0M
1J
0I
0@
1?
0<
1;
19
17
04
1"
1#
1$
1%
1&
1'
1(
1)
1*
1+
1,
1-
1.
1/
10
11
12
#25000
b1101110111001100 !
b1001110111001100 !
b1001110101001100 !
b1001110101001000 !
0h
0j
0o
0v
0V
0O
0J
0H
0A
0?
0:
03
#30000
b1001111101001000 !
b1001111101011000 !
b1001111101010000 !
b1001011101010000 !
b1011101010000 !
b1011101010010 !
b1011001010010 !
b1011001010011 !
1h
1i
0k
1l
0p
1q
0s
0w
0W
0X
0Y
0Z
0[
0\
0]
0^
0_
0`
0a
0b
0c
0d
0e
0f
0g
0S
1Q
0P
1L
0K
1I
1H
1A
1@
0>
1=
09
18
06
0"
0#
0$
0%
0&
0'
0(
0)
0*
0+
0,
0-
0.
0/
00
01
02
#35000
b11001010011 !
b1001010011 !
b10001001010011 !
b10001011010011 !
b10000011010011 !
b10000011011011 !
b1010000011011011 !
b1010000011011010 !
0h
1k
1o
0q
0r
0t
1u
1w
1W
1X
1Y
1Z
1[
1\
1]
1^
1_
1`
1a
1b
1c
1d
1e
1f
1g
1U
0T
0R
0Q
1O
1K
0H
0A
1>
1:
08
07
05
14
1"
1#
1$
1%
1&
1'
1(
1)
1*
1+
1,
1-
1.
1/
10
11
12
#40000
b1010000011011110 !
b1010100011011110 !
b1011100011011110 !
b1001100011011110 !
b1001101011011110 !
b1001101011010110 !
b1101011010110 !
1j
0k
1q
1s
1t
0u
0w
0W
0X
0Y
0Z
0[
0\
0]
0^
0_
0`
0a
0b
0c
0d
0e
0f
0g
0U
1T
1S
1Q
0K
1J
1?
0>
18
16
15
04
0"
0#
0$
0%
0&
0'
0(
0)
0*
0+
0,
0-
0.
0/
00
01
02
#45000
b101101011010110 !
b101101001010110 !
b101001001010110 !
b100001001010110 !
b110001001010110 !
0o
0s
0t
1u
1v
1V
1U
0T
0S
0O
0:
06
05
14
13
#50000
b110001101010110 !
b110011101010110 !
b110010101010110 !
b1110010101010110 !
b1010010101010110 !
b1010110101010110 !
b1000110101010110 !
1p
0q
1r
1s
0u
0v
1w
1W
1X
1Y
1Z
1[
1\
1]
1^
1_
1`
1a
1b
1c
1d
1e
1f
1g
0V
0U
1S
1R
0Q
1P
19
08
17
16
04
03
1"
1#
1$
1%
1&
1'
1(
1)
1*
1+
1,
1-
1.
1/
10
11
12
#55000
b1000110101110110 !
b1000110100110110 !
b1000110100100110 !
b1000110100100100 !
b1000110110100100 !
b1000110010100100 !
b1000100010100100 !
b100010100100 !
b10100100 !
b10000010100100 !
0i
0l
1m
0n
1o
0p
0r
0s
1u
0w
0W
0X
0Y
0Z
0[
0\
0]
0^
0_
0`
0a
0b
0c
0d
0e
0f
0g
1U
0S
0R
0P
1O
0N
1M
0L
0I
0@
0=
1<
0;
1:
09
07
06
14
0"
0#
0$
0%
0&
0'
0(
0)
0*
0+
0,
0-
0.
0/
00
01
02
#60000
b10000010100101 !
b10000010101101 !
b10001010101101 !
b110001010101101 !
b110001010001101 !
b110001110001101 !
b110011110001101 !
1h
1k
0m
1p
1q
1r
1v
1V
1R
1Q
1P
0M
1K
1H
1A
1>
0<
19
18
17
13
#65000
b110011110001001 !
b110011110001011 !
b1110011110001011 !
b1110011110001010 !
b1110011110000010 !
b1010011110000010 !
b1010011110100010 !
b1010011010100010 !
b1010001010100010 !
0h
1i
0j
0k
1m
0p
0r
0v
1w
1W
1X
1Y
1Z
1[
1\
1]
1^
1_
1`
1a
1b
1c
1d
1e
1f
1g
0V
0R
0P
1M
0K
0J
1I
0H
0A
1@
0?
0>
1<
09
07
03
1"
1#
1$
1%
1&
1'
1(
1)
1*
1+
1,
1-
1.
1/
10
11
12
#70000
b1011001010100010 !
b1011001011100010 !
b1011001011110010 !
b1011101011110010 !
b1001101011110010 !
b1001100011110010 !
b1100011110010 !
b1100011110011 !
b1100011111011 !
b1110011111011 !
1h
1k
1l
1n
0q
1r
1s
1t
0u
0w
0W
0X
0Y
0Z
0[
0\
0]
0^
0_
0`
0a
0b
0c
0d
0e
0f
0g
0U
1T
1S
1R
0Q
1N
1L
1K
1H
1A
1>
1=
1;
08
17
16
15
04
0"
0#
0$
0%
0&
0'
0(
0)
0*
0+
0,
0-
0.
0/
00
01
02
#75000
b1110001111011 !
b1110001111001 !
b1110001101001 !
b1010001101001 !
b1001010001101001 !
b1001010001101000 !
b1001010001100000 !
0h
0i
0k
0l
0o
0s
1w
1W
1X
1Y
1Z
1[
1\
1]
1^
1_
1`
1a
1b
1c
1d
1e
1f
1g
0S
0O
0L
0K
0I
0H
0A
0@
0>
0=
0:
06
1"
1#
1$
1%
1&
1'
1(
1)
1*
1+
1,
1-
1.
1/
10
11
12
#80000
b1001010001100100 !
b1001010001000100 !
b1001010101000100 !
b1000010101000100 !
b1010010101000100 !
b1010011101000100 !
b1010001101000100 !
b1010001111000100 !
b1010001111010100 !
b1010101111010100 !
1j
1l
0m
1o
1p
1q
0r
1s
0t
1u
1U
0T
1S
0R
1Q
1P
1O
0M
1L
1J
1?
1=
0<
1:
19
18
07
16
05
14
#85000
b1010101111010110 !
b10101111010110 !
b10101111010111 !
b10101011010111 !
b11101011010111 !
b1101011010111 !
b1101001010111 !
b1001001010111 !
1h
1i
0o
0p
0s
1t
0u
0w
0W
0X
0Y
0Z
0[
0\
0]
0^
0_
0`
0a
0b
0c
0d
0e
0f
0g
0U
1T
0S
0P
0O
1I
1H
1A
1@
0:
09
06
15
04
0"
0#
0$
0%
0&
0'
0(
0)
0*
0+
0,
0-
0.
0/
00
01
02
#90000
b101001001010111 !
b101001001011111 !
b101001001011011 !
b101001001111011 !
b101011001111011 !
b101011001111001 !
b1101011001111001 !
b1101011101111001 !
b1100011101111001 !
b1110011101111001 !
b1110011111111001 !
b1110111111111001 !
0i
0j
1k
1m
1o
1p
1r
1s
0t
1u
1v
1w
1W
1X
1Y
1Z
1[
1\
1]
1^
1_
1`
1a
1b
1c
1d
1e
1f
1g
1V
1U
0T
1S
1R
1P
1O
1M
1K
0J
0I
0@
0?
1>
1<
1:
19
17
16
05
14
13
1"
1#
1$
1%
1&
1'
1(
1)
1*
1+
1,
1-
1.
1/
10
11
12
#95000
b1110111110111001 !
b1110111110111000 !
b1110101110111000 !
b1110101010111000 !
b1111101010111000 !
b1111101000111000 !
0h
0n
0o
0p
0r
1t
1T
0R
0P
0O
0N
0H
0A
0;
0:
09
07
15
#100000
b1111101000101000 !
b1011101000101000 !
b1011101000100000 !
b1011101000100100 !
b11101000100100 !
b1101000100100 !
b1101001100100 !
b1101001100101 !
b1101011100101 !
1h
1j
0k
0l
1n
1o
0u
0v
0w
0W
0X
0Y
0Z
0[
0\
0]
0^
0_
0`
0a
0b
0c
0d
0e
0f
0g
0V
0U
1O
1N
0L
0K
1J
1H
1A
1?
0>
0=
1;
1:
04
03
0"
0#
0$
0%
0&
0'
0(
0)
0*
0+
0,
0-
0.
0/
00
01
02
#105000
b1100011100101 !
b1100011100111 !
b1110011100111 !
b1110011110111 !
b101110011110111 !
b101110011111111 !
b1101110011111111 !
b1101110011111110 !
0h
1i
1k
1l
0q
1r
1v
1w
1W
1X
1Y
1Z
1[
1\
1]
1^
1_
1`
1a
1b
1c
1d
1e
1f
1g
1V
1R
0Q
1L
1K
1I
0H
0A
1@
1>
1=
08
17
13
1"
1#
1$
1%
1&
1'
1(
1)
1*
1+
1,
1-
1.
1/
10
11
12
#110000
b1101110010111110 !
b1101111010111110 !
b1101111010101110 !
b101111010101110 !
0l
0n
1q
0w
0W
0X
0Y
0Z
0[
0\
0]
0^
0_
0`
0a
0b
0c
0d
0e
0f
0g
1Q
0N
0L
0=
0;
18
0"
0#
0$
0%
0&
0'
0(
0)
0*
0+
0,
0-
0.
0/
00
01
02
#115000
b101111010001110 !
b101011010001110 !
b101011010001010 !
b111011010001010 !
b111011000001010 !
b111001000001010 !
b11001000001010 !
b11001001001010 !
b11001001011010 !
b1011001001011010 !
0j
1l
0m
1n
0o
0r
0s
1u
0v
1w
1W
1X
1Y
1Z
1[
1\
1]
1^
1_
1`
1a
1b
1c
1d
1e
1f
1g
0V
1U
0S
0R
0O
1N
0M
1L
0J
0?
1=
0<
1;
0:
07
06
14
03
1"
1#
1$
1%
1&
1'
1(
1)
1*
1+
1,
1-
1.
1/
10
11
12
#120000
b1011001101011010 !
b1011001101011011 !
b1011101101011011 !
b1011101101011111 !
b1001101101011111 !
b1001101111011111 !
b1101101111011111 !
b1101101110011111 !
b101101110011111 !
1h
1j
0n
1o
1p
1s
0u
1v
0w
0W
0X
0Y
0Z
0[
0\
0]
0^
0_
0`
0a
0b
0c
0d
0e
0f
0g
1V
0U
1S
1P
1O
0N
1J
1H
1A
1?
0;
1:
19
16
04
13
0"
0#
0$
0%
0&
0'
0(
0)
0*
0+
0,
0-
0.
0/
00
01
02
#125000
b100101110011111 !
b100101110011101 !
b100101110010101 !
b100100110010101 !
b100110110010101 !
b100110010010101 !
b100110010010100 !
b100110010010000 !
b100110000010000 !
b110000010000 !
0h
0i
0j
0k
0o
0p
0q
1r
0t
0v
0V
0T
1R
0Q
0P
0O
0K
0J
0I
0H
0A
0@
0?
0>
0:
09
08
17
05
03
#130000
b10110000010000 !
b10110001010000 !
b1010110001010000 !
b1010110001010010 !
b1010100001010010 !
b1010100001010011 !
1h
1i
1n
0r
1u
1w
1W
1X
1Y
1Z
1[
1\
1]
1^
1_
1`
1a
1b
1c
1d
1e
1f
1g
1U
0R
1N
1I
1H
1A
1@
1;
07
14
1"
1#
1$
1%
1&
1'
1(
1)
1*
1+
1,
1-
1.
1/
10
11
12
#135000
b1011100001010011 !
b1011100001011011 !
b1011101001011011 !
b1011101001011111 !
b1111101001011111 !
b1101101001011111 !
b1101101001011101 !
b1101101001011100 !
0h
0i
1j
1k
1q
1t
0u
1v
1V
0U
1T
1Q
1K
1J
0I
0H
0A
0@
1?
1>
18
15
04
13
#140000
b1101101001111100 !
b1101101001101100 !
b1101001001101100 !
b1101001011101100 !
b1101001010101100 !
b101001010101100 !
b100001010101100 !
b100001010100100 !
b100001010100000 !
b1010100000 !
b10001010100000 !
0j
0k
0l
1m
0n
1o
0s
0t
1u
0v
0w
0W
0X
0Y
0Z
0[
0\
0]
0^
0_
0`
0a
0b
0c
0d
0e
0f
0g
0V
1U
0T
0S
1O
0N
1M
0L
0K
0J
0?
0>
0=
1<
0;
1:
06
05
14
03
0"
0#
0$
0%
0&
0'
0(
0)
0*
0+
0,
0-
0.
0/
00
01
02
#145000
b10001010100010 !
b10001010000010 !
b10101010000010 !
b11101010000010 !
b11101010001010 !
b111101010001010 !
b101101010001010 !
1i
1k
0m
1s
1t
0u
1v
1V
0U
1T
1S
0M
1K
1I
1@
1>
0<
16
15
04
13
#150000
b101100010001010 !
b101100010001011 !
b101100000001011 !
b101100001001011 !
b101100001001001 !
b101000001001001 !
b111000001001001 !
1h
0i
1n
0o
0q
0s
1u
1U
0S
0Q
0O
1N
0I
1H
1A
0@
1;
0:
08
06
14
#155000
b111000101001001 !
b111010101001001 !
b1111010101001001 !
b1111010101001101 !
b1011010101001101 !
b1011011101001101 !
b1011011101001100 !
b1001011101001100 !
0h
1j
1p
1q
1r
0u
0v
1w
1W
1X
1Y
1Z
1[
1\
1]
1^
1_
1`
1a
1b
1c
1d
1e
1f
1g
0V
0U
1R
1Q
1P
1J
0H
0A
1?
19
18
17
04
03
1"
1#
1$
1%
1&
1'
1(
1)
1*
1+
1,
1-
1.
1/
10
11
12
#160000
b1000011101001100 !
b1000011101001110 !
b1000111101001110 !
b1000111001001110 !
b1000101001001110 !
b101001001110 !
b100001001110 !
b10100001001110 !
1i
0p
0q
0r
1s
0t
1u
0w
0W
0X
0Y
0Z
0[
0\
0]
0^
0_
0`
0a
0b
0c
0d
0e
0f
0g
1U
0T
1S
0R
0Q
0P
1I
1@
09
08
07
16
05
14
0"
0#
0$
0%
0&
0'
0(
0)
0*
0+
0,
0-
0.
0/
00
01
02
#165000
b10100011001110 !
b10100010001110 !
b10100010001010 !
b110100010001010 !
b110100010001011 !
b110100010001001 !
b110000010001001 !
b110001010001001 !
b100001010001001 !
1h
0i
0j
0n
1o
1q
0s
0u
1v
1V
0U
0S
1Q
1O
0N
0J
0I
1H
1A
0@
0?
0;
1:
18
06
04
13
#170000
b100001010011001 !
b100001010111001 !
b100001010110001 !
b100001110110001 !
b100011110110001 !
b100011100110001 !
b100011101110001 !
b100011101110011 !
b100111101110011 !
1i
0k
1l
1m
1n
0o
1p
1r
1s
1S
1R
1P
0O
1N
1M
1L
0K
1I
1@
0>
1=
1<
1;
0:
19
17
16
#175000
b101111101110011 !
b101111101110111 !
b101111101110110 !
b101110101110110 !
b111110101110110 !
b111110101100110 !
b111110101101110 !
b111110001101110 !
b111100001101110 !
b111100000101110 !
b111000000101110 !
0h
1j
1k
0l
0n
0p
0q
0r
0s
1t
1u
1U
1T
0S
0R
0Q
0P
0N
0L
1K
1J
0H
0A
1?
1>
0=
0;
09
08
07
06
15
14
#180000
b111000010101110 !
b111000010101100 !
b110000010101100 !
b110000010101000 !
b110000010101001 !
b110001010101001 !
b100001010101001 !
b100001010111001 !
b100001010110001 !
b100011010110001 !
b100111010110001 !
1h
0i
0j
0k
1l
1o
1q
1r
1s
0t
0u
0U
0T
1S
1R
1Q
1O
1L
0K
0J
0I
1H
1A
0@
0?
0>
1=
1:
18
17
16
05
04
#185000
b100111010010001 !
b101111010010001 !
b101111010010101 !
b111111010010101 !
b111111010000101 !
b111111010001101 !
b111101010001101 !
b111001010001101 !
1j
1k
0l
0m
0r
0s
1t
1u
1U
1T
0S
0R
0M
0L
1K
1J
1?
1>
0=
0<
07
06
15
14
#190000
b11001010001101 !
b11001110001101 !
b11001111001101 !
b11001101001101 !
b11001101001100 !
b11000101001100 !
b11000101011100 !
b11000101010100 !
b11100101010100 !
0h
0k
1l
1n
0o
1p
0q
1s
0v
0V
1S
0Q
1P
0O
1N
1L
0K
0H
0A
0>
1=
1;
0:
19
08
16
03
#195000
b11100101010110 !
b11100101110110 !
b111100101110110 !
b111100100110110 !
b111100100100110 !
b111100100101110 !
1i
1k
0l
1m
0n
1v
1V
0N
1M
0L
1K
1I
1@
1>
0=
1<
0;
13
#200000
b111110100101110 !
b111110000101110 !
b111110000101111 !
b111010000101111 !
b111010000001111 !
b111010001001111 !
b111010001000111 !
1h
0k
0m
1n
0p
1r
0s
0S
1R
0P
1N
0M
0K
1H
1A
0>
0<
1;
09
17
06
#205000
b111010001000011 !
b101010001000011 !
b101010011000011 !
b101011011000011 !
b101011011000001 !
b1011011000001 !
b1001011000001 !
b1101011000001 !
b1101011100001 !
0i
0j
1m
1o
1q
0r
1s
0u
0v
0V
0U
1S
0R
1Q
1O
1M
0J
0I
0@
0?
1<
1:
18
07
16
04
03
#210000
b1001101011100001 !
b1000101011100001 !
b1000101011110001 !
b1000101111110001 !
b1000101111110000 !
b1000101110110000 !
b1000101110111000 !
b1000101100111000 !
b1000100100111000 !
b1100100100111000 !
b1100100100011000 !
0h
1k
1l
0m
0n
0o
1p
0q
0t
1v
1w
1W
1X
1Y
1Z
1[
1\
1]
1^
1_
1`
1a
1b
1c
1d
1e
1f
1g
1V
0T
0Q
1P
0O
0N
0M
1L
1K
0H
0A
1>
1=
0<
0;
0:
19
08
05
13
1"
1#
1$
1%
1&
1'
1(
1)
1*
1+
1,
1-
1.
1/
10
11
12
#215000
b1100100100011100 !
b1110100100011100 !
b1110100100011110 !
b1110000100011110 !
b110000100011110 !
b111000100011110 !
b111000100011111 !
b111000100010111 !
b111000110010111 !
b11000110010111 !
b11000110110111 !
1h
1i
1j
0k
1m
1o
0s
1t
1u
0v
0w
0W
0X
0Y
0Z
0[
0\
0]
0^
0_
0`
0a
0b
0c
0d
0e
0f
0g
0V
1U
1T
0S
1O
1M
0K
1J
1I
1H
1A
1@
1?
0>
1<
1:
06
15
14
03
0"
0#
0$
0%
0&
0'
0(
0)
0*
0+
0,
0-
0.
0/
00
01
02
#220000
b11000110100111 !
b11000111100111 !
b11001111100111 !
b1011001111100111 !
b1010001111100111 !
b1010001111100110 !
b1110001111100110 !
0h
0l
1n
1q
0t
1v
1w
1W
1X
1Y
1Z
1[
1\
1]
1^
1_
1`
1a
1b
1c
1d
1e
1f
1g
1V
0T
1Q
1N
0L
0H
0A
0=
1;
18
05
13
1"
1#
1$
1%
1&
1'
1(
1)
1*
1+
1,
1-
1.
1/
10
11
12
#225000
b1110001111100100 !
b1110101111100100 !
b1110101111000100 !
b1110101111010100 !
b1110100111010100 !
b110100111010100 !
b110100111010101 !
b10100111010101 !
1h
0i
1l
0m
0q
1s
0v
0w
0W
0X
0Y
0Z
0[
0\
0]
0^
0_
0`
0a
0b
0c
0d
0e
0f
0g
0V
1S
0Q
0M
1L
0I
1H
1A
0@
1=
0<
08
16
03
0"
0#
0$
0%
0&
0'
0(
0)
0*
0+
0,
0-
0.
0/
00
01
02
#230000
b10110111010101 !
b10110110010101 !
b10110110010111 !
b10010110010111 !
1i
0n
1r
0s
0S
1R
0N
1I
1@
0;
17
06
#235000
b10010010010111 !
b10010010111 !
b10010011111 !
b10010111111 !
b10010101111 !
b10010101101 !
0i
1k
0l
1m
0p
0u
0U
0P
1M
0L
1K
0I
0@
1>
0=
1<
09
04
#240000
b1010010101101 !
b1001010010101101 !
b1101010010101101 !
b1101000010101101 !
b1101000011101101 !
b1101000111101101 !
b1101000111111101 !
b1101000111111111 !
1i
1l
1n
1p
0r
1t
1v
1w
1W
1X
1Y
1Z
1[
1\
1]
1^
1_
1`
1a
1b
1c
1d
1e
1f
1g
1V
1T
0R
1P
1N
1L
1I
1@
1=
1;
19
07
15
13
1"
1#
1$
1%
1&
1'
1(
1)
1*
1+
1,
1-
1.
1/
10
11
12
#245000
b1101000111111110 !
b1101000111011110 !
b1100000111011110 !
b100000111011110 !
b111011110 !
b10111011110 !
b10110011110 !
b10010011110 !
b10010001110 !
0h
0l
0m
0n
0p
1r
0t
0v
0w
0W
0X
0Y
0Z
0[
0\
0]
0^
0_
0`
0a
0b
0c
0d
0e
0f
0g
0V
0T
1R
0P
0N
0M
0L
0H
0A
0=
0<
0;
09
17
05
03
0"
0#
0$
0%
0&
0'
0(
0)
0*
0+
0,
0-
0.
0/
00
01
02
#250000
b110010001110 !
b110010000110 !
b110010100110 !
b1110010100110 !
b1001110010100110 !
b1001100010100110 !
b1001100110100110 !
0k
1m
1p
0r
1s
1t
1w
1W
1X
1Y
1Z
1[
1\
1]
1^
1_
1`
1a
1b
1c
1d
1e
1f
1g
1T
1S
0R
1P
1M
0K
0>
1<
19
07
16
15
1"
1#
1$
1%
1&
1'
1(
1)
1*
1+
1,
1-
1.
1/
10
11
12
#255000
b1001100110100010 !
b1001100100100010 !
b1001100100110010 !
b1001100100010010 !
b1100100010010 !
b1100000010010 !
0j
1l
0m
0o
0p
0w
0W
0X
0Y
0Z
0[
0\
0]
0^
0_
0`
0a
0b
0c
0d
0e
0f
0g
0P
0O
0M
1L
0J
0?
1=
0<
0:
09
0"
0#
0$
0%
0&
0'
0(
0)
0*
0+
0,
0-
0.
0/
00
01
02
#260000
b1101000010010 !
b11101000010010 !
b111101000010010 !
b111101001010010 !
b111001001010010 !
b111001001000010 !
b111001001100010 !
b111001101100010 !
0l
1m
1n
1p
1q
0s
1u
1v
1V
1U
0S
1Q
1P
1N
1M
0L
0=
1<
1;
19
18
06
14
13
#265000
b111001101100011 !
b111011101100011 !
b111011101100111 !
b111011111100111 !
b111010111100111 !
b11010111100111 !
b11110111100111 !
1h
1j
1o
0q
1r
1s
0v
0V
1S
1R
0Q
1O
1J
1H
1A
1?
1:
08
17
16
03
#270000
b11110111101111 !
b1011110111101111 !
b1001110111101111 !
b1001110111001111 !
b1001110111001110 !
b1001100111001110 !
b1001100101001110 !
b1001101101001110 !
b1101101101001110 !
0h
1k
0m
0o
1q
0r
0u
1v
1w
1W
1X
1Y
1Z
1[
1\
1]
1^
1_
1`
1a
1b
1c
1d
1e
1f
1g
1V
0U
0R
1Q
0O
0M
1K
0H
0A
1>
0<
0:
18
07
04
13
1"
1#
1$
1%
1&
1'
1(
1)
1*
1+
1,
1-
1.
1/
10
11
12
#275000
b1101101101001100 !
b1101101101011100 !
b1101001101011100 !
b101001101011100 !
b101001101011101 !
b101011101011101 !
b101011111011101 !
b1011111011101 !
1h
0i
1l
1o
1r
0s
0v
0w
0W
0X
0Y
0Z
0[
0\
0]
0^
0_
0`
0a
0b
0c
0d
0e
0f
0g
0V
0S
1R
1O
1L
0I
1H
1A
0@
1=
1:
17
06
03
0"
0#
0$
0%
0&
0'
0(
0)
0*
0+
0,
0-
0.
0/
00
01
02
#280000
b1011110011101 !
b1011110011001 !
b1011110111001 !
b1011110101001 !
b1111110101001 !
b1111110101000 !
b1111100101000 !
0h
0j
0l
1m
0n
0o
1s
1S
0O
0N
1M
0L
0J
0H
0A
0?
0=
1<
0;
0:
16
#285000
b1111000101000 !
b11111000101000 !
b1011111000101000 !
b1011111000101100 !
b1011111000001100 !
b1011111000001101 !
1h
1j
0m
0p
1u
1w
1W
1X
1Y
1Z
1[
1\
1]
1^
1_
1`
1a
1b
1c
1d
1e
1f
1g
1U
0P
0M
1J
1H
1A
1?
0<
09
14
1"
1#
1$
1%
1&
1'
1(
1)
1*
1+
1,
1-
1.
1/
10
11
12
#290000
b1010111000001101 !
b1010111000000101 !
b1010111000000111 !
b1110111000000111 !
b1110111000010111 !
b1110011000010111 !
b1110011010010111 !
b110011010010111 !
b110011010110111 !
b110011010110110 !
0h
1i
0k
1l
1m
1o
0s
0t
1v
0w
0W
0X
0Y
0Z
0[
0\
0]
0^
0_
0`
0a
0b
0c
0d
0e
0f
0g
1V
0T
0S
1O
1M
1L
0K
1I
0H
0A
1@
0>
1=
1<
1:
06
05
13
0"
0#
0$
0%
0&
0'
0(
0)
0*
0+
0,
0-
0.
0/
00
01
02
#295000
b100011010110110 !
b100011010110010 !
b100011010111010 !
b100011010111000 !
b11010111000 !
b11010011000 !
b11010011001 !
1h
0i
0j
1k
0m
0u
0v
0V
0U
0M
1K
0J
0I
1H
1A
0@
0?
1>
0<
04
03
#300000
b10010011001 !
b10010010001 !
b10010010011 !
b100010010010011 !
b100010010110011 !
1i
0k
1m
0q
1v
1V
0Q
1M
0K
1I
1@
0>
1<
08
13
#305000
b100010011110011 !
b100010111110011 !
b100110111110011 !
b100110101110011 !
b1100110101110011 !
b1110110101110011 !
b1110110101110010 !
b1010110101110010 !
b1010110101010010 !
0h
0m
1n
0o
1p
1s
1u
0v
1w
1W
1X
1Y
1Z
1[
1\
1]
1^
1_
1`
1a
1b
1c
1d
1e
1f
1g
0V
1U
1S
1P
0O
1N
0M
0H
0A
0<
1;
0:
19
16
14
03
1"
1#
1$
1%
1&
1'
1(
1)
1*
1+
1,
1-
1.
1/
10
11
12
#310000
b1010100101010010 !
b1010100001010010 !
b1010100011010010 !
b1000100011010010 !
1o
0p
0r
0u
0U
0R
0P
1O
1:
09
07
04
#315000
b1001100011010010 !
b1001100011000010 !
b1001100011000110 !
b1001101011000110 !
b1001101011001110 !
b1001101010001110 !
b1101010001110 !
b101101010001110 !
b101111010001110 !
b101111000001110 !
1j
1k
0l
0n
0o
1q
1r
1t
1v
0w
0W
0X
0Y
0Z
0[
0\
0]
0^
0_
0`
0a
0b
0c
0d
0e
0f
0g
1V
1T
1R
1Q
0O
0N
0L
1K
1J
1?
1>
0=
0;
0:
18
17
15
13
0"
0#
0$
0%
0&
0'
0(
0)
0*
0+
0,
0-
0.
0/
00
01
02
#320000
b101111000001111 !
b101111100001111 !
b1101111100001111 !
b1001111100001111 !
b1001111110001111 !
1h
1o
1p
0v
1w
1W
1X
1Y
1Z
1[
1\
1]
1^
1_
1`
1a
1b
1c
1d
1e
1f
1g
0V
1P
1O
1H
1A
1:
19
03
1"
1#
1$
1%
1&
1'
1(
1)
1*
1+
1,
1-
1.
1/
10
11
12
#325000
b1001011110001111 !
b1001011110101111 !
b1000011110101111 !
b1000011111101111 !
b1000001111101111 !
b1000001111101110 !
b1111101110 !
b1101101110 !
0h
1m
1n
0o
0r
0s
0t
0w
0W
0X
0Y
0Z
0[
0\
0]
0^
0_
0`
0a
0b
0c
0d
0e
0f
0g
0T
0S
0R
0O
1N
1M
0H
0A
1<
1;
0:
07
06
05
0"
0#
0$
0%
0&
0'
0(
0)
0*
0+
0,
0-
0.
0/
00
01
02
