simulation/qsim/MIPS.msim.vcd
$comment
	File created using the following command:
		vcd file MIPS.msim.vcd -direction
$end
$date
	Thu Nov 24 01:06:59 2016
$end
$version
	ModelSim Version 10.4d
$end
$timescale
	1ps
$end

$scope module alu_vlg_vec_tst $end
$var reg 32 ! a [31:0] $end
$var reg 32 " b [31:0] $end
$var reg 3 # op [2:0] $end
$var wire 1 $ y [31] $end
$var wire 1 % y [30] $end
$var wire 1 & y [29] $end
$var wire 1 ' y [28] $end
$var wire 1 ( y [27] $end
$var wire 1 ) y [26] $end
$var wire 1 * y [25] $end
$var wire 1 + y [24] $end
$var wire 1 , y [23] $end
$var wire 1 - y [22] $end
$var wire 1 . y [21] $end
$var wire 1 / y [20] $end
$var wire 1 0 y [19] $end
$var wire 1 1 y [18] $end
$var wire 1 2 y [17] $end
$var wire 1 3 y [16] $end
$var wire 1 4 y [15] $end
$var wire 1 5 y [14] $end
$var wire 1 6 y [13] $end
$var wire 1 7 y [12] $end
$var wire 1 8 y [11] $end
$var wire 1 9 y [10] $end
$var wire 1 : y [9] $end
$var wire 1 ; y [8] $end
$var wire 1 < y [7] $end
$var wire 1 = y [6] $end
$var wire 1 > y [5] $end
$var wire 1 ? y [4] $end
$var wire 1 @ y [3] $end
$var wire 1 A y [2] $end
$var wire 1 B y [1] $end
$var wire 1 C y [0] $end
$var wire 1 D zero $end

$scope module i1 $end
$var wire 1 E gnd $end
$var wire 1 F vcc $end
$var wire 1 G unknown $end
$var tri1 1 H devclrn $end
$var tri1 1 I devpor $end
$var tri1 1 J devoe $end
$var wire 1 K zero~output_o $end
$var wire 1 L y[0]~output_o $end
$var wire 1 M y[1]~output_o $end
$var wire 1 N y[2]~output_o $end
$var wire 1 O y[3]~output_o $end
$var wire 1 P y[4]~output_o $end
$var wire 1 Q y[5]~output_o $end
$var wire 1 R y[6]~output_o $end
$var wire 1 S y[7]~output_o $end
$var wire 1 T y[8]~output_o $end
$var wire 1 U y[9]~output_o $end
$var wire 1 V y[10]~output_o $end
$var wire 1 W y[11]~output_o $end
$var wire 1 X y[12]~output_o $end
$var wire 1 Y y[13]~output_o $end
$var wire 1 Z y[14]~output_o $end
$var wire 1 [ y[15]~output_o $end
$var wire 1 \ y[16]~output_o $end
$var wire 1 ] y[17]~output_o $end
$var wire 1 ^ y[18]~output_o $end
$var wire 1 _ y[19]~output_o $end
$var wire 1 ` y[20]~output_o $end
$var wire 1 a y[21]~output_o $end
$var wire 1 b y[22]~output_o $end
$var wire 1 c y[23]~output_o $end
$var wire 1 d y[24]~output_o $end
$var wire 1 e y[25]~output_o $end
$var wire 1 f y[26]~output_o $end
$var wire 1 g y[27]~output_o $end
$var wire 1 h y[28]~output_o $end
$var wire 1 i y[29]~output_o $end
$var wire 1 j y[30]~output_o $end
$var wire 1 k y[31]~output_o $end
$var wire 1 l op[2]~input_o $end
$var wire 1 m op[0]~input_o $end
$var wire 1 n op[1]~input_o $end
$var wire 1 o b[1]~input_o $end
$var wire 1 p a[1]~input_o $end
$var wire 1 q Equal0~0_combout $end
$var wire 1 r b[0]~input_o $end
$var wire 1 s a[0]~input_o $end
$var wire 1 t Add0~130_cout $end
$var wire 1 u Add0~6 $end
$var wire 1 v Add0~1_sumout $end
$var wire 1 w Selector0~0_combout $end
$var wire 1 x WideNor0~0_combout $end
$var wire 1 y y[1]$latch~combout $end
$var wire 1 z a[22]~input_o $end
$var wire 1 { b[22]~input_o $end
$var wire 1 | LessThan0~0_combout $end
$var wire 1 } a[23]~input_o $end
$var wire 1 ~ b[23]~input_o $end
$var wire 1 !! LessThan0~1_combout $end
$var wire 1 "! a[24]~input_o $end
$var wire 1 #! b[24]~input_o $end
$var wire 1 $! a[25]~input_o $end
$var wire 1 %! b[25]~input_o $end
$var wire 1 &! a[26]~input_o $end
$var wire 1 '! b[26]~input_o $end
$var wire 1 (! a[27]~input_o $end
$var wire 1 )! b[27]~input_o $end
$var wire 1 *! a[28]~input_o $end
$var wire 1 +! b[28]~input_o $end
$var wire 1 ,! LessThan0~2_combout $end
$var wire 1 -! LessThan0~3_combout $end
$var wire 1 .! a[3]~input_o $end
$var wire 1 /! b[3]~input_o $end
$var wire 1 0! a[2]~input_o $end
$var wire 1 1! b[2]~input_o $end
$var wire 1 2! LessThan0~4_combout $end
$var wire 1 3! LessThan0~5_combout $end
$var wire 1 4! a[5]~input_o $end
$var wire 1 5! b[5]~input_o $end
$var wire 1 6! a[7]~input_o $end
$var wire 1 7! b[7]~input_o $end
$var wire 1 8! a[6]~input_o $end
$var wire 1 9! b[6]~input_o $end
$var wire 1 :! LessThan0~6_combout $end
$var wire 1 ;! a[4]~input_o $end
$var wire 1 <! b[4]~input_o $end
$var wire 1 =! LessThan0~7_combout $end
$var wire 1 >! LessThan0~8_combout $end
$var wire 1 ?! LessThan0~9_combout $end
$var wire 1 @! a[8]~input_o $end
$var wire 1 A! b[8]~input_o $end
$var wire 1 B! LessThan0~10_combout $end
$var wire 1 C! a[9]~input_o $end
$var wire 1 D! b[9]~input_o $end
$var wire 1 E! a[10]~input_o $end
$var wire 1 F! b[10]~input_o $end
$var wire 1 G! LessThan0~11_combout $end
$var wire 1 H! a[11]~input_o $end
$var wire 1 I! b[11]~input_o $end
$var wire 1 J! LessThan0~12_combout $end
$var wire 1 K! a[12]~input_o $end
$var wire 1 L! b[12]~input_o $end
$var wire 1 M! a[13]~input_o $end
$var wire 1 N! b[13]~input_o $end
$var wire 1 O! a[14]~input_o $end
$var wire 1 P! b[14]~input_o $end
$var wire 1 Q! LessThan0~13_combout $end
$var wire 1 R! LessThan0~14_combout $end
$var wire 1 S! LessThan0~15_combout $end
$var wire 1 T! LessThan0~16_combout $end
$var wire 1 U! LessThan0~17_combout $end
$var wire 1 V! LessThan0~18_combout $end
$var wire 1 W! LessThan0~19_combout $end
$var wire 1 X! a[15]~input_o $end
$var wire 1 Y! b[15]~input_o $end
$var wire 1 Z! LessThan0~20_combout $end
$var wire 1 [! a[16]~input_o $end
$var wire 1 \! b[16]~input_o $end
$var wire 1 ]! LessThan0~21_combout $end
$var wire 1 ^! a[17]~input_o $end
$var wire 1 _! b[17]~input_o $end
$var wire 1 `! LessThan0~22_combout $end
$var wire 1 a! a[18]~input_o $end
$var wire 1 b! b[18]~input_o $end
$var wire 1 c! a[19]~input_o $end
$var wire 1 d! b[19]~input_o $end
$var wire 1 e! a[20]~input_o $end
$var wire 1 f! b[20]~input_o $end
$var wire 1 g! a[21]~input_o $end
$var wire 1 h! b[21]~input_o $end
$var wire 1 i! LessThan0~23_combout $end
$var wire 1 j! LessThan0~24_combout $end
$var wire 1 k! LessThan0~25_combout $end
$var wire 1 l! LessThan0~26_combout $end
$var wire 1 m! LessThan0~27_combout $end
$var wire 1 n! LessThan0~28_combout $end
$var wire 1 o! LessThan0~29_combout $end
$var wire 1 p! LessThan0~30_combout $end
$var wire 1 q! LessThan0~31_combout $end
$var wire 1 r! LessThan0~32_combout $end
$var wire 1 s! a[29]~input_o $end
$var wire 1 t! b[29]~input_o $end
$var wire 1 u! a[30]~input_o $end
$var wire 1 v! b[30]~input_o $end
$var wire 1 w! a[31]~input_o $end
$var wire 1 x! b[31]~input_o $end
$var wire 1 y! LessThan0~33_combout $end
$var wire 1 z! LessThan0~34_combout $end
$var wire 1 {! Selector1~0_combout $end
$var wire 1 |! Add0~5_sumout $end
$var wire 1 }! Selector1~1_combout $end
$var wire 1 ~! Selector1~2_combout $end
$var wire 1 !" y[0]$latch~combout $end
$var wire 1 "" Add0~2 $end
$var wire 1 #" Add0~9_sumout $end
$var wire 1 $" Selector2~0_combout $end
$var wire 1 %" y[2]$latch~combout $end
$var wire 1 &" Add0~10 $end
$var wire 1 '" Add0~13_sumout $end
$var wire 1 (" Selector3~0_combout $end
$var wire 1 )" y[3]$latch~combout $end
$var wire 1 *" Add0~14 $end
$var wire 1 +" Add0~17_sumout $end
$var wire 1 ," Selector4~0_combout $end
$var wire 1 -" y[4]$latch~combout $end
$var wire 1 ." Add0~18 $end
$var wire 1 /" Add0~21_sumout $end
$var wire 1 0" Selector5~0_combout $end
$var wire 1 1" y[5]$latch~combout $end
$var wire 1 2" WideOr0~0_combout $end
$var wire 1 3" Add0~22 $end
$var wire 1 4" Add0~25_sumout $end
$var wire 1 5" Selector6~0_combout $end
$var wire 1 6" y[6]$latch~combout $end
$var wire 1 7" Add0~26 $end
$var wire 1 8" Add0~29_sumout $end
$var wire 1 9" Selector7~0_combout $end
$var wire 1 :" y[7]$latch~combout $end
$var wire 1 ;" Add0~30 $end
$var wire 1 <" Add0~33_sumout $end
$var wire 1 =" Selector8~0_combout $end
$var wire 1 >" y[8]$latch~combout $end
$var wire 1 ?" Add0~34 $end
$var wire 1 @" Add0~37_sumout $end
$var wire 1 A" Selector9~0_combout $end
$var wire 1 B" y[9]$latch~combout $end
$var wire 1 C" Add0~38 $end
$var wire 1 D" Add0~41_sumout $end
$var wire 1 E" Selector10~0_combout $end
$var wire 1 F" y[10]$latch~combout $end
$var wire 1 G" Add0~42 $end
$var wire 1 H" Add0~45_sumout $end
$var wire 1 I" Selector11~0_combout $end
$var wire 1 J" y[11]$latch~combout $end
$var wire 1 K" WideOr0~1_combout $end
$var wire 1 L" Add0~46 $end
$var wire 1 M" Add0~49_sumout $end
$var wire 1 N" Selector12~0_combout $end
$var wire 1 O" y[12]$latch~combout $end
$var wire 1 P" Add0~50 $end
$var wire 1 Q" Add0~53_sumout $end
$var wire 1 R" Selector13~0_combout $end
$var wire 1 S" y[13]$latch~combout $end
$var wire 1 T" Add0~54 $end
$var wire 1 U" Add0~57_sumout $end
$var wire 1 V" Selector14~0_combout $end
$var wire 1 W" y[14]$latch~combout $end
$var wire 1 X" Add0~58 $end
$var wire 1 Y" Add0~61_sumout $end
$var wire 1 Z" Selector15~0_combout $end
$var wire 1 [" y[15]$latch~combout $end
$var wire 1 \" Add0~62 $end
$var wire 1 ]" Add0~65_sumout $end
$var wire 1 ^" Selector16~0_combout $end
$var wire 1 _" y[16]$latch~combout $end
$var wire 1 `" Add0~66 $end
$var wire 1 a" Add0~69_sumout $end
$var wire 1 b" Selector17~0_combout $end
$var wire 1 c" y[17]$latch~combout $end
$var wire 1 d" WideOr0~2_combout $end
$var wire 1 e" Add0~70 $end
$var wire 1 f" Add0~73_sumout $end
$var wire 1 g" Selector18~0_combout $end
$var wire 1 h" y[18]$latch~combout $end
$var wire 1 i" Add0~74 $end
$var wire 1 j" Add0~77_sumout $end
$var wire 1 k" Selector19~0_combout $end
$var wire 1 l" y[19]$latch~combout $end
$var wire 1 m" Add0~78 $end
$var wire 1 n" Add0~81_sumout $end
$var wire 1 o" Selector20~0_combout $end
$var wire 1 p" y[20]$latch~combout $end
$var wire 1 q" Add0~82 $end
$var wire 1 r" Add0~85_sumout $end
$var wire 1 s" Selector21~0_combout $end
$var wire 1 t" y[21]$latch~combout $end
$var wire 1 u" Add0~86 $end
$var wire 1 v" Add0~89_sumout $end
$var wire 1 w" Selector22~0_combout $end
$var wire 1 x" y[22]$latch~combout $end
$var wire 1 y" Add0~90 $end
$var wire 1 z" Add0~93_sumout $end
$var wire 1 {" Selector23~0_combout $end
$var wire 1 |" y[23]$latch~combout $end
$var wire 1 }" WideOr0~3_combout $end
$var wire 1 ~" Add0~94 $end
$var wire 1 !# Add0~97_sumout $end
$var wire 1 "# Selector24~0_combout $end
$var wire 1 ## y[24]$latch~combout $end
$var wire 1 $# Add0~98 $end
$var wire 1 %# Add0~101_sumout $end
$var wire 1 &# Selector25~0_combout $end
$var wire 1 '# y[25]$latch~combout $end
$var wire 1 (# Add0~102 $end
$var wire 1 )# Add0~105_sumout $end
$var wire 1 *# Selector26~0_combout $end
$var wire 1 +# y[26]$latch~combout $end
$var wire 1 ,# Add0~106 $end
$var wire 1 -# Add0~109_sumout $end
$var wire 1 .# Selector27~0_combout $end
$var wire 1 /# y[27]$latch~combout $end
$var wire 1 0# Add0~110 $end
$var wire 1 1# Add0~113_sumout $end
$var wire 1 2# Selector28~0_combout $end
$var wire 1 3# y[28]$latch~combout $end
$var wire 1 4# Add0~114 $end
$var wire 1 5# Add0~117_sumout $end
$var wire 1 6# Selector29~0_combout $end
$var wire 1 7# y[29]$latch~combout $end
$var wire 1 8# WideOr0~4_combout $end
$var wire 1 9# Add0~118 $end
$var wire 1 :# Add0~121_sumout $end
$var wire 1 ;# Selector30~0_combout $end
$var wire 1 <# y[30]$latch~combout $end
$var wire 1 =# Add0~122 $end
$var wire 1 ># Add0~125_sumout $end
$var wire 1 ?# Selector31~0_combout $end
$var wire 1 @# y[31]$latch~combout $end
$var wire 1 A# WideOr0~5_combout $end
$var wire 1 B# WideOr0~combout $end
$upscope $end
$upscope $end
$enddefinitions $end
#0
$dumpvars
b0 !
b11111111111111111111111111111111 "
b101 #
0C
0B
0A
0@
0?
0>
0=
0<
0;
0:
09
08
07
06
05
04
03
02
01
00
0/
0.
0-
0,
0+
0*
0)
0(
0'
0&
0%
0$
1D
0E
1F
xG
1H
1I
1J
1K
0L
0M
0N
0O
0P
0Q
0R
0S
0T
0U
0V
0W
0X
0Y
0Z
0[
0\
0]
0^
0_
0`
0a
0b
0c
0d
0e
0f
0g
0h
0i
0j
0k
1l
1m
0n
1o
0p
0q
1r
0s
1t
0u
0v
0w
1x
0y
0z
1{
1|
0}
1~
1!!
0"!
1#!
0$!
1%!
0&!
1'!
0(!
1)!
0*!
1+!
0,!
0-!
0.!
1/!
00!
11!
12!
13!
04!
15!
06!
17!
08!
19!
0:!
0;!
1<!
0=!
1>!
0?!
0@!
1A!
1B!
0C!
1D!
0E!
1F!
1G!
0H!
1I!
1J!
0K!
1L!
0M!
1N!
0O!
1P!
0Q!
0R!
1S!
0T!
1U!
0V!
0W!
0X!
1Y!
1Z!
0[!
1\!
1]!
0^!
1_!
1`!
0a!
1b!
0c!
1d!
0e!
1f!
0g!
1h!
0i!
0j!
0k!
1l!
0m!
0n!
0o!
1p!
0q!
0r!
0s!
1t!
0u!
1v!
0w!
1x!
0y!
0z!
0{!
1|!
0}!
0~!
0!"
0""
0#"
0$"
0%"
0&"
0'"
0("
0)"
0*"
0+"
0,"
0-"
0."
0/"
00"
01"
12"
03"
04"
05"
06"
07"
08"
09"
0:"
0;"
0<"
0="
0>"
0?"
0@"
0A"
0B"
0C"
0D"
0E"
0F"
0G"
0H"
0I"
0J"
1K"
0L"
0M"
0N"
0O"
0P"
0Q"
0R"
0S"
0T"
0U"
0V"
0W"
0X"
0Y"
0Z"
0["
0\"
0]"
0^"
0_"
0`"
0a"
0b"
0c"
1d"
0e"
0f"
0g"
0h"
0i"
0j"
0k"
0l"
0m"
0n"
0o"
0p"
0q"
0r"
0s"
0t"
0u"
0v"
0w"
0x"
0y"
0z"
0{"
0|"
1}"
0~"
0!#
0"#
0##
0$#
0%#
0&#
0'#
0(#
0)#
0*#
0+#
0,#
0-#
0.#
0/#
00#
01#
02#
03#
04#
05#
06#
07#
18#
09#
0:#
0;#
0<#
0=#
0>#
0?#
0@#
1A#
0B#
$end
#5000
b111 #
1n
1{!
#10000
b11 #
0l
0{!
0x
#20000
b1 #
b101 #
0n
1l
1x
#25000
b100 #
b110 #
0m
1n
1}!
1~!
1!"
1L
02"
1C
1B#
0K
0D
#30000
b10 #
b11 #
1m
0l
0}!
0x
0~!
#35000
b10 #
0m
1}!
1x
1q
1>#
1:#
15#
11#
1-#
1)#
1%#
1!#
1z"
1v"
1r"
1n"
1j"
1f"
1a"
1]"
1Y"
1U"
1Q"
1M"
1H"
1D"
1@"
1<"
18"
14"
1/"
1+"
1'"
1#"
1v
1u
0|!
0t
1~!
0!"
0L
1""
0v
0u
1|!
0}!
1w
1$"
1("
1,"
10"
15"
19"
1="
1A"
1E"
1I"
1N"
1R"
1V"
1Z"
1^"
1b"
1g"
1k"
1o"
1s"
1w"
1{"
1"#
1&#
1*#
1.#
12#
16#
1;#
1?#
12"
0C
1!"
1L
1&"
0#"
0""
1v
0B#
0~!
1}!
0w
02"
1C
1@#
1<#
17#
13#
1/#
1+#
1'#
1##
1|"
1x"
1t"
1p"
1l"
1h"
1c"
1_"
1["
1W"
1S"
1O"
1J"
1F"
1B"
1>"
1:"
16"
11"
1-"
1)"
1%"
1y
1M
1N
1O
1P
1Q
1R
1S
1T
1U
1V
1W
1X
1Y
1Z
1[
1\
1]
1^
1_
1`
1a
1b
1c
1d
1e
1f
1g
1h
1i
1j
1k
1K
1*"
0'"
0&"
1#"
1B#
1~!
1w
0$"
0K"
0d"
0}"
08#
0A#
1D
1$
1%
1&
1'
1(
1)
1*
1+
1,
1-
1.
1/
10
11
12
13
14
15
16
17
18
19
1:
1;
1<
1=
1>
1?
1@
1A
1B
0y
0!"
0L
0M
0K
1."
0+"
0*"
1'"
1$"
0("
0D
0B
0C
0%"
1y
1!"
1L
1M
0N
13"
0/"
0."
1+"
1("
0,"
0A
1B
1C
0)"
1%"
1N
0O
17"
04"
03"
1/"
1,"
00"
0@
1A
0-"
1)"
1O
0P
1;"
08"
07"
14"
10"
05"
0?
1@
01"
1-"
1P
0Q
1?"
0<"
0;"
18"
15"
09"
0>
1?
06"
11"
1Q
0R
1C"
0@"
0?"
1<"
19"
0="
0=
1>
0:"
16"
1R
0S
1G"
0D"
0C"
1@"
1="
0A"
0<
1=
0>"
1:"
1S
0T
1L"
0H"
0G"
1D"
1A"
0E"
0;
1<
0B"
1>"
1T
0U
1P"
0M"
0L"
1H"
1E"
0I"
0:
1;
0F"
1B"
1U
0V
1T"
0Q"
0P"
1M"
1I"
0N"
09
1:
0J"
1F"
1V
0W
1X"
0U"
0T"
1Q"
1N"
0R"
08
19
0O"
1J"
1W
0X
1\"
0Y"
0X"
1U"
1R"
0V"
07
18
0S"
1O"
1X
0Y
1`"
0]"
0\"
1Y"
1V"
0Z"
06
17
0W"
1S"
1Y
0Z
1e"
0a"
0`"
1]"
1Z"
0^"
05
16
0["
1W"
1Z
0[
1i"
0f"
0e"
1a"
1^"
0b"
04
15
0_"
1["
1[
0\
1m"
0j"
0i"
1f"
1b"
0g"
03
14
0c"
1_"
1\
0]
1q"
0n"
0m"
1j"
1g"
0k"
02
13
0h"
1c"
1]
0^
1u"
0r"
0q"
1n"
1k"
0o"
01
12
0l"
1h"
1^
0_
1y"
0v"
0u"
1r"
1o"
0s"
00
11
0p"
1l"
1_
0`
1~"
0z"
0y"
1v"
1s"
0w"
0/
10
0t"
1p"
1`
0a
1$#
0!#
0~"
1z"
1w"
0{"
0.
1/
0x"
1t"
1a
0b
1(#
0%#
0$#
1!#
1{"
0"#
0-
1.
0|"
1x"
1b
0c
1,#
0)#
0(#
1%#
1"#
0&#
0,
1-
0##
1|"
1c
0d
10#
0-#
0,#
1)#
1&#
0*#
0+
1,
0'#
1##
1d
0e
14#
01#
00#
1-#
1*#
0.#
0*
1+
0+#
1'#
1e
0f
19#
05#
04#
11#
1.#
02#
0)
1*
0/#
1+#
1f
0g
1=#
0:#
09#
15#
12#
06#
0(
1)
03#
1/#
1g
0h
0>#
0=#
1:#
16#
0;#
0'
1(
07#
13#
1h
0i
1>#
1;#
0?#
0&
1'
0<#
17#
1i
0j
1?#
0%
1&
0@#
1<#
1j
0k
0$
1%
1@#
1k
1$
#40000
b11 #
1m
0?#
0;#
06#
02#
0.#
0*#
0&#
0"#
0{"
0w"
0s"
0o"
0k"
0g"
0b"
0^"
0Z"
0V"
0R"
0N"
0I"
0E"
0A"
0="
09"
05"
00"
0,"
0("
0$"
0}!
0x
0w
0q
0>#
0:#
05#
01#
0-#
0)#
0%#
0!#
0z"
0v"
0r"
0n"
0j"
0f"
0a"
0]"
0Y"
0U"
0Q"
0M"
0H"
0D"
0@"
0<"
08"
04"
0/"
0+"
0'"
0#"
0v
0|!
1t
0~!
1|!
#45000
b1 #
b101 #
b100 #
0m
0n
1l
1x
0@#
0<#
07#
03#
0/#
0+#
0'#
0##
0|"
0x"
0t"
0p"
0l"
0h"
0c"
0_"
0["
0W"
0S"
0O"
0J"
0F"
0B"
0>"
0:"
06"
01"
0-"
0)"
0%"
0!"
0y
0M
0L
0N
0O
0P
0Q
0R
0S
0T
0U
0V
0W
0X
0Y
0Z
0[
0\
0]
0^
0_
0`
0a
0b
0c
0d
0e
0f
0g
0h
0i
0j
0k
12"
1K"
1d"
1}"
18#
1A#
0$
0%
0&
0'
0(
0)
0*
0+
0,
0-
0.
0/
00
01
02
03
04
05
06
07
08
09
0:
0;
0<
0=
0>
0?
0@
0A
0C
0B
0B#
1K
1D
#50000
b110 #
b10 #
b11 #
1m
1n
0l
0x
#55000
b1 #
b101 #
b100 #
0m
0n
1l
1x
#65000
b110 #
b111 #
1m
1n
1{!
#70000
b11 #
b1 #
0n
0l
1?#
1;#
16#
12#
1.#
1*#
1&#
1"#
1{"
1w"
1s"
1o"
1k"
1g"
1b"
1^"
1Z"
1V"
1R"
1N"
1I"
1E"
1A"
1="
19"
15"
10"
1,"
1("
1$"
1}!
0{!
1w
1~!
1y
1%"
1)"
1-"
11"
16"
1:"
1>"
1B"
1F"
1J"
1O"
1S"
1W"
1["
1_"
1c"
1h"
1l"
1p"
1t"
1x"
1|"
1##
1'#
1+#
1/#
13#
17#
1<#
1@#
1k
1j
1i
1h
1g
1f
1e
1d
1c
1b
1a
1`
1_
1^
1]
1\
1[
1Z
1Y
1X
1W
1V
1U
1T
1S
1R
1Q
1P
1O
1N
1M
0A#
08#
0}"
0d"
0K"
02"
1B
1A
1@
1?
1>
1=
1<
1;
1:
19
18
17
16
15
14
13
12
11
10
1/
1.
1-
1,
1+
1*
1)
1(
1'
1&
1%
1$
1!"
1L
1B#
1C
0K
0D
#75000
b0 #
b10 #
0m
1n
0?#
0;#
06#
02#
0.#
0*#
0&#
0"#
0{"
0w"
0s"
0o"
0k"
0g"
0b"
0^"
0Z"
0V"
0R"
0N"
0I"
0E"
0A"
0="
09"
05"
00"
0,"
0("
0$"
0w
1q
1>#
1:#
15#
11#
1-#
1)#
1%#
1!#
1z"
1v"
1r"
1n"
1j"
1f"
1a"
1]"
1Y"
1U"
1Q"
1M"
1H"
1D"
1@"
1<"
18"
14"
1/"
1+"
1'"
1#"
1v
1u
0|!
0t
0y
0%"
0)"
0-"
01"
06"
0:"
0>"
0B"
0F"
0J"
0O"
0S"
0W"
0["
0_"
0c"
0h"
0l"
0p"
0t"
0x"
0|"
0##
0'#
0+#
0/#
03#
07#
0<#
0@#
0k
0j
0i
0h
0g
0f
0e
0d
0c
0b
0a
0`
0_
0^
0]
0\
0[
0Z
0Y
0X
0W
0V
0U
0T
0S
0R
0Q
0P
0O
0N
0M
1""
0v
0u
1|!
0}!
1w
1$"
1("
1,"
10"
15"
19"
1="
1A"
1E"
1I"
1N"
1R"
1V"
1Z"
1^"
1b"
1g"
1k"
1o"
1s"
1w"
1{"
1"#
1&#
1*#
1.#
12#
16#
1;#
1?#
1A#
18#
1}"
1d"
1K"
0B
0A
0@
0?
0>
0=
0<
0;
0:
09
08
07
06
05
04
03
02
01
00
0/
0.
0-
0,
0+
0*
0)
0(
0'
0&
0%
0$
1&"
0#"
0""
1v
0~!
1}!
0w
1@#
1<#
17#
13#
1/#
1+#
1'#
1##
1|"
1x"
1t"
1p"
1l"
1h"
1c"
1_"
1["
1W"
1S"
1O"
1J"
1F"
1B"
1>"
1:"
16"
11"
1-"
1)"
1%"
1y
1M
1N
1O
1P
1Q
1R
1S
1T
1U
1V
1W
1X
1Y
1Z
1[
1\
1]
1^
1_
1`
1a
1b
1c
1d
1e
1f
1g
1h
1i
1j
1k
1*"
0'"
0&"
1#"
1~!
1w
0$"
0K"
0d"
0}"
08#
0A#
1$
1%
1&
1'
1(
1)
1*
1+
1,
1-
1.
1/
10
11
12
13
14
15
16
17
18
19
1:
1;
1<
1=
1>
1?
1@
1A
1B
0y
0!"
0L
0M
1."
0+"
0*"
1'"
1$"
0("
0B
0C
0%"
1y
1!"
1L
1M
0N
13"
0/"
0."
1+"
1("
0,"
0A
1B
1C
0)"
1%"
1N
0O
17"
04"
03"
1/"
1,"
00"
0@
1A
0-"
1)"
1O
0P
1;"
08"
07"
14"
10"
05"
0?
1@
01"
1-"
1P
0Q
1?"
0<"
0;"
18"
15"
09"
0>
1?
06"
11"
1Q
0R
1C"
0@"
0?"
1<"
19"
0="
0=
1>
0:"
16"
1R
0S
1G"
0D"
0C"
1@"
1="
0A"
0<
1=
0>"
1:"
1S
0T
1L"
0H"
0G"
1D"
1A"
0E"
0;
1<
0B"
1>"
1T
0U
1P"
0M"
0L"
1H"
1E"
0I"
0:
1;
0F"
1B"
1U
0V
1T"
0Q"
0P"
1M"
1I"
0N"
09
1:
0J"
1F"
1V
0W
1X"
0U"
0T"
1Q"
1N"
0R"
08
19
0O"
1J"
1W
0X
1\"
0Y"
0X"
1U"
1R"
0V"
07
18
0S"
1O"
1X
0Y
1`"
0]"
0\"
1Y"
1V"
0Z"
06
17
0W"
1S"
1Y
0Z
1e"
0a"
0`"
1]"
1Z"
0^"
05
16
0["
1W"
1Z
0[
1i"
0f"
0e"
1a"
1^"
0b"
04
15
0_"
1["
1[
0\
1m"
0j"
0i"
1f"
1b"
0g"
03
14
0c"
1_"
1\
0]
1q"
0n"
0m"
1j"
1g"
0k"
02
13
0h"
1c"
1]
0^
1u"
0r"
0q"
1n"
1k"
0o"
01
12
0l"
1h"
1^
0_
1y"
0v"
0u"
1r"
1o"
0s"
00
11
0p"
1l"
1_
0`
1~"
0z"
0y"
1v"
1s"
0w"
0/
10
0t"
1p"
1`
0a
1$#
0!#
0~"
1z"
1w"
0{"
0.
1/
0x"
1t"
1a
0b
1(#
0%#
0$#
1!#
1{"
0"#
0-
1.
0|"
1x"
1b
0c
1,#
0)#
0(#
1%#
1"#
0&#
0,
1-
0##
1|"
1c
0d
10#
0-#
0,#
1)#
1&#
0*#
0+
1,
0'#
1##
1d
0e
14#
01#
00#
1-#
1*#
0.#
0*
1+
0+#
1'#
1e
0f
19#
05#
04#
11#
1.#
02#
0)
1*
0/#
1+#
1f
0g
1=#
0:#
09#
15#
12#
06#
0(
1)
03#
1/#
1g
0h
0>#
0=#
1:#
16#
0;#
0'
1(
07#
13#
1h
0i
1>#
1;#
0?#
0&
1'
0<#
17#
1i
0j
1?#
0%
1&
0@#
1<#
1j
0k
0$
1%
1@#
1k
1$
#80000
b110 #
b100 #
0n
1l
0?#
0;#
06#
02#
0.#
0*#
0&#
0"#
0{"
0w"
0s"
0o"
0k"
0g"
0b"
0^"
0Z"
0V"
0R"
0N"
0I"
0E"
0A"
0="
09"
05"
00"
0,"
0("
0$"
0}!
0w
0q
0>#
0:#
05#
01#
0-#
0)#
0%#
0!#
0z"
0v"
0r"
0n"
0j"
0f"
0a"
0]"
0Y"
0U"
0Q"
0M"
0H"
0D"
0@"
0<"
08"
04"
0/"
0+"
0'"
0#"
0v
0|!
1t
0~!
0y
0%"
0)"
0-"
01"
06"
0:"
0>"
0B"
0F"
0J"
0O"
0S"
0W"
0["
0_"
0c"
0h"
0l"
0p"
0t"
0x"
0|"
0##
0'#
0+#
0/#
03#
07#
0<#
0@#
0k
0j
0i
0h
0g
0f
0e
0d
0c
0b
0a
0`
0_
0^
0]
0\
0[
0Z
0Y
0X
0W
0V
0U
0T
0S
0R
0Q
0P
0O
0N
0M
1|!
1A#
18#
1}"
1d"
1K"
0B
0A
0@
0?
0>
0=
0<
0;
0:
09
08
07
06
05
04
03
02
01
00
0/
0.
0-
0,
0+
0*
0)
0(
0'
0&
0%
0$
0!"
0L
12"
0C
0B#
1K
1D
#85000
b101 #
b1 #
1m
0l
1?#
1;#
16#
12#
1.#
1*#
1&#
1"#
1{"
1w"
1s"
1o"
1k"
1g"
1b"
1^"
1Z"
1V"
1R"
1N"
1I"
1E"
1A"
1="
19"
15"
10"
1,"
1("
1$"
1}!
1w
1~!
1y
1%"
1)"
1-"
11"
16"
1:"
1>"
1B"
1F"
1J"
1O"
1S"
1W"
1["
1_"
1c"
1h"
1l"
1p"
1t"
1x"
1|"
1##
1'#
1+#
1/#
13#
17#
1<#
1@#
1k
1j
1i
1h
1g
1f
1e
1d
1c
1b
1a
1`
1_
1^
1]
1\
1[
1Z
1Y
1X
1W
1V
1U
1T
1S
1R
1Q
1P
1O
1N
1M
0A#
08#
0}"
0d"
0K"
02"
1B
1A
1@
1?
1>
1=
1<
1;
1:
19
18
17
16
15
14
13
12
11
10
1/
1.
1-
1,
1+
1*
1)
1(
1'
1&
1%
1$
1!"
1L
1B#
1C
0K
0D
#90000
b0 #
b100 #
0m
1l
0?#
0;#
06#
02#
0.#
0*#
0&#
0"#
0{"
0w"
0s"
0o"
0k"
0g"
0b"
0^"
0Z"
0V"
0R"
0N"
0I"
0E"
0A"
0="
09"
05"
00"
0,"
0("
0$"
0}!
0w
0~!
0y
0%"
0)"
0-"
01"
06"
0:"
0>"
0B"
0F"
0J"
0O"
0S"
0W"
0["
0_"
0c"
0h"
0l"
0p"
0t"
0x"
0|"
0##
0'#
0+#
0/#
03#
07#
0<#
0@#
0k
0j
0i
0h
0g
0f
0e
0d
0c
0b
0a
0`
0_
0^
0]
0\
0[
0Z
0Y
0X
0W
0V
0U
0T
0S
0R
0Q
0P
0O
0N
0M
1A#
18#
1}"
1d"
1K"
0B
0A
0@
0?
0>
0=
0<
0;
0:
09
08
07
06
05
04
03
02
01
00
0/
0.
0-
0,
0+
0*
0)
0(
0'
0&
0%
0$
0!"
0L
12"
0C
0B#
1K
1D
