simulation/qsim/MIPS.msim.vcd
$comment
	File created using the following command:
		vcd file MIPS.msim.vcd -direction
$end
$date
	Wed Nov 23 10:38:05 2016
$end
$version
	ModelSim Version 10.4d
$end
$timescale
	1ps
$end

$scope module adder_vlg_vec_tst $end
$var reg 32 ! a [31:0] $end
$var reg 32 " b [31:0] $end
$var wire 1 # y [31] $end
$var wire 1 $ y [30] $end
$var wire 1 % y [29] $end
$var wire 1 & y [28] $end
$var wire 1 ' y [27] $end
$var wire 1 ( y [26] $end
$var wire 1 ) y [25] $end
$var wire 1 * y [24] $end
$var wire 1 + y [23] $end
$var wire 1 , y [22] $end
$var wire 1 - y [21] $end
$var wire 1 . y [20] $end
$var wire 1 / y [19] $end
$var wire 1 0 y [18] $end
$var wire 1 1 y [17] $end
$var wire 1 2 y [16] $end
$var wire 1 3 y [15] $end
$var wire 1 4 y [14] $end
$var wire 1 5 y [13] $end
$var wire 1 6 y [12] $end
$var wire 1 7 y [11] $end
$var wire 1 8 y [10] $end
$var wire 1 9 y [9] $end
$var wire 1 : y [8] $end
$var wire 1 ; y [7] $end
$var wire 1 < y [6] $end
$var wire 1 = y [5] $end
$var wire 1 > y [4] $end
$var wire 1 ? y [3] $end
$var wire 1 @ y [2] $end
$var wire 1 A y [1] $end
$var wire 1 B y [0] $end

$scope module i1 $end
$var wire 1 C gnd $end
$var wire 1 D vcc $end
$var wire 1 E unknown $end
$var tri1 1 F devclrn $end
$var tri1 1 G devpor $end
$var tri1 1 H devoe $end
$var wire 1 I y[0]~output_o $end
$var wire 1 J y[1]~output_o $end
$var wire 1 K y[2]~output_o $end
$var wire 1 L y[3]~output_o $end
$var wire 1 M y[4]~output_o $end
$var wire 1 N y[5]~output_o $end
$var wire 1 O y[6]~output_o $end
$var wire 1 P y[7]~output_o $end
$var wire 1 Q y[8]~output_o $end
$var wire 1 R y[9]~output_o $end
$var wire 1 S y[10]~output_o $end
$var wire 1 T y[11]~output_o $end
$var wire 1 U y[12]~output_o $end
$var wire 1 V y[13]~output_o $end
$var wire 1 W y[14]~output_o $end
$var wire 1 X y[15]~output_o $end
$var wire 1 Y y[16]~output_o $end
$var wire 1 Z y[17]~output_o $end
$var wire 1 [ y[18]~output_o $end
$var wire 1 \ y[19]~output_o $end
$var wire 1 ] y[20]~output_o $end
$var wire 1 ^ y[21]~output_o $end
$var wire 1 _ y[22]~output_o $end
$var wire 1 ` y[23]~output_o $end
$var wire 1 a y[24]~output_o $end
$var wire 1 b y[25]~output_o $end
$var wire 1 c y[26]~output_o $end
$var wire 1 d y[27]~output_o $end
$var wire 1 e y[28]~output_o $end
$var wire 1 f y[29]~output_o $end
$var wire 1 g y[30]~output_o $end
$var wire 1 h y[31]~output_o $end
$var wire 1 i b[0]~input_o $end
$var wire 1 j a[0]~input_o $end
$var wire 1 k Add0~1_sumout $end
$var wire 1 l b[1]~input_o $end
$var wire 1 m a[1]~input_o $end
$var wire 1 n Add0~2 $end
$var wire 1 o Add0~5_sumout $end
$var wire 1 p b[2]~input_o $end
$var wire 1 q a[2]~input_o $end
$var wire 1 r Add0~6 $end
$var wire 1 s Add0~9_sumout $end
$var wire 1 t b[3]~input_o $end
$var wire 1 u a[3]~input_o $end
$var wire 1 v Add0~10 $end
$var wire 1 w Add0~13_sumout $end
$var wire 1 x b[4]~input_o $end
$var wire 1 y a[4]~input_o $end
$var wire 1 z Add0~14 $end
$var wire 1 { Add0~17_sumout $end
$var wire 1 | b[5]~input_o $end
$var wire 1 } a[5]~input_o $end
$var wire 1 ~ Add0~18 $end
$var wire 1 !! Add0~21_sumout $end
$var wire 1 "! b[6]~input_o $end
$var wire 1 #! a[6]~input_o $end
$var wire 1 $! Add0~22 $end
$var wire 1 %! Add0~25_sumout $end
$var wire 1 &! b[7]~input_o $end
$var wire 1 '! a[7]~input_o $end
$var wire 1 (! Add0~26 $end
$var wire 1 )! Add0~29_sumout $end
$var wire 1 *! b[8]~input_o $end
$var wire 1 +! a[8]~input_o $end
$var wire 1 ,! Add0~30 $end
$var wire 1 -! Add0~33_sumout $end
$var wire 1 .! b[9]~input_o $end
$var wire 1 /! a[9]~input_o $end
$var wire 1 0! Add0~34 $end
$var wire 1 1! Add0~37_sumout $end
$var wire 1 2! b[10]~input_o $end
$var wire 1 3! a[10]~input_o $end
$var wire 1 4! Add0~38 $end
$var wire 1 5! Add0~41_sumout $end
$var wire 1 6! b[11]~input_o $end
$var wire 1 7! a[11]~input_o $end
$var wire 1 8! Add0~42 $end
$var wire 1 9! Add0~45_sumout $end
$var wire 1 :! b[12]~input_o $end
$var wire 1 ;! a[12]~input_o $end
$var wire 1 <! Add0~46 $end
$var wire 1 =! Add0~49_sumout $end
$var wire 1 >! b[13]~input_o $end
$var wire 1 ?! a[13]~input_o $end
$var wire 1 @! Add0~50 $end
$var wire 1 A! Add0~53_sumout $end
$var wire 1 B! b[14]~input_o $end
$var wire 1 C! a[14]~input_o $end
$var wire 1 D! Add0~54 $end
$var wire 1 E! Add0~57_sumout $end
$var wire 1 F! b[15]~input_o $end
$var wire 1 G! a[15]~input_o $end
$var wire 1 H! Add0~58 $end
$var wire 1 I! Add0~61_sumout $end
$var wire 1 J! b[16]~input_o $end
$var wire 1 K! a[16]~input_o $end
$var wire 1 L! Add0~62 $end
$var wire 1 M! Add0~65_sumout $end
$var wire 1 N! b[17]~input_o $end
$var wire 1 O! a[17]~input_o $end
$var wire 1 P! Add0~66 $end
$var wire 1 Q! Add0~69_sumout $end
$var wire 1 R! b[18]~input_o $end
$var wire 1 S! a[18]~input_o $end
$var wire 1 T! Add0~70 $end
$var wire 1 U! Add0~73_sumout $end
$var wire 1 V! b[19]~input_o $end
$var wire 1 W! a[19]~input_o $end
$var wire 1 X! Add0~74 $end
$var wire 1 Y! Add0~77_sumout $end
$var wire 1 Z! b[20]~input_o $end
$var wire 1 [! a[20]~input_o $end
$var wire 1 \! Add0~78 $end
$var wire 1 ]! Add0~81_sumout $end
$var wire 1 ^! b[21]~input_o $end
$var wire 1 _! a[21]~input_o $end
$var wire 1 `! Add0~82 $end
$var wire 1 a! Add0~85_sumout $end
$var wire 1 b! b[22]~input_o $end
$var wire 1 c! a[22]~input_o $end
$var wire 1 d! Add0~86 $end
$var wire 1 e! Add0~89_sumout $end
$var wire 1 f! b[23]~input_o $end
$var wire 1 g! a[23]~input_o $end
$var wire 1 h! Add0~90 $end
$var wire 1 i! Add0~93_sumout $end
$var wire 1 j! b[24]~input_o $end
$var wire 1 k! a[24]~input_o $end
$var wire 1 l! Add0~94 $end
$var wire 1 m! Add0~97_sumout $end
$var wire 1 n! b[25]~input_o $end
$var wire 1 o! a[25]~input_o $end
$var wire 1 p! Add0~98 $end
$var wire 1 q! Add0~101_sumout $end
$var wire 1 r! b[26]~input_o $end
$var wire 1 s! a[26]~input_o $end
$var wire 1 t! Add0~102 $end
$var wire 1 u! Add0~105_sumout $end
$var wire 1 v! b[27]~input_o $end
$var wire 1 w! a[27]~input_o $end
$var wire 1 x! Add0~106 $end
$var wire 1 y! Add0~109_sumout $end
$var wire 1 z! b[28]~input_o $end
$var wire 1 {! a[28]~input_o $end
$var wire 1 |! Add0~110 $end
$var wire 1 }! Add0~113_sumout $end
$var wire 1 ~! b[29]~input_o $end
$var wire 1 !" a[29]~input_o $end
$var wire 1 "" Add0~114 $end
$var wire 1 #" Add0~117_sumout $end
$var wire 1 $" b[30]~input_o $end
$var wire 1 %" a[30]~input_o $end
$var wire 1 &" Add0~118 $end
$var wire 1 '" Add0~121_sumout $end
$var wire 1 (" b[31]~input_o $end
$var wire 1 )" a[31]~input_o $end
$var wire 1 *" Add0~122 $end
$var wire 1 +" Add0~125_sumout $end
$upscope $end
$upscope $end
$enddefinitions $end
#0
$dumpvars
b11111111111111111111111111111111 !
b0 "
1B
1A
1@
1?
1>
1=
1<
1;
1:
19
18
17
16
15
14
13
12
11
10
1/
1.
1-
1,
1+
1*
1)
1(
1'
1&
1%
1$
1#
0C
1D
xE
1F
1G
1H
1I
1J
1K
1L
1M
1N
1O
1P
1Q
1R
1S
1T
1U
1V
1W
1X
1Y
1Z
1[
1\
1]
1^
1_
1`
1a
1b
1c
1d
1e
1f
1g
1h
0i
1j
1k
0l
1m
0n
1o
0p
1q
0r
1s
0t
1u
0v
1w
0x
1y
0z
1{
0|
1}
0~
1!!
0"!
1#!
0$!
1%!
0&!
1'!
0(!
1)!
0*!
1+!
0,!
1-!
0.!
1/!
00!
11!
02!
13!
04!
15!
06!
17!
08!
19!
0:!
1;!
0<!
1=!
0>!
1?!
0@!
1A!
0B!
1C!
0D!
1E!
0F!
1G!
0H!
1I!
0J!
1K!
0L!
1M!
0N!
1O!
0P!
1Q!
0R!
1S!
0T!
1U!
0V!
1W!
0X!
1Y!
0Z!
1[!
0\!
1]!
0^!
1_!
0`!
1a!
0b!
1c!
0d!
1e!
0f!
1g!
0h!
1i!
0j!
1k!
0l!
1m!
0n!
1o!
0p!
1q!
0r!
1s!
0t!
1u!
0v!
1w!
0x!
1y!
0z!
1{!
0|!
1}!
0~!
1!"
0""
1#"
0$"
1%"
0&"
1'"
0("
1)"
0*"
1+"
$end
#10000
b1 "
1i
1n
0k
0I
1r
0B
0o
0J
1v
0A
0s
0K
1z
0@
0w
0L
1~
0?
0{
0M
1$!
0>
0!!
0N
1(!
0=
0%!
0O
1,!
0<
0)!
0P
10!
0;
0-!
0Q
14!
0:
01!
0R
18!
09
05!
0S
1<!
08
09!
0T
1@!
07
0=!
0U
1D!
06
0A!
0V
1H!
05
0E!
0W
1L!
04
0I!
0X
1P!
03
0M!
0Y
1T!
02
0Q!
0Z
1X!
01
0U!
0[
1\!
00
0Y!
0\
1`!
0/
0]!
0]
1d!
0.
0a!
0^
1h!
0-
0e!
0_
1l!
0,
0i!
0`
1p!
0+
0m!
0a
1t!
0*
0q!
0b
1x!
0)
0u!
0c
1|!
0(
0y!
0d
1""
0'
0}!
0e
1&"
0&
0#"
0f
1*"
0%
0'"
0g
0$
0+"
0h
0#
#20000
b11 "
b10 "
0i
1l
0n
1o
1k
1I
1J
1A
1B
0o
0J
0A
#30000
b11 "
1i
1n
0k
0I
0B
1o
1J
1A
#40000
b111 "
b101 "
b100 "
0i
0l
1p
0n
1s
0o
1k
1I
0J
1K
0r
1@
0A
1B
1o
1J
1A
0s
0K
0@
#50000
b101 "
1i
1n
0k
0I
1r
0B
0o
0J
0A
1s
1K
1@
#60000
b111 "
b110 "
0i
1l
0n
1o
1k
1I
1J
1A
1B
0o
0J
0A
#70000
b111 "
1i
1n
0k
0I
0B
1o
1J
1A
#80000
b1111 "
b1011 "
b1001 "
b1000 "
0i
0l
0p
1t
0n
1w
0s
0o
1k
1I
0J
0K
1L
0r
1?
0@
0A
1B
1o
1J
0v
1A
1s
1K
1@
0w
0L
0?
#90000
b1001 "
1i
1n
0k
0I
1r
0B
0o
0J
1v
0A
0s
0K
0@
1w
1L
1?
#100000
b1011 "
b1010 "
0i
1l
0n
1o
1k
1I
1J
1A
1B
0o
0J
0A
#110000
b1011 "
1i
1n
0k
0I
0B
1o
1J
1A
#120000
b1111 "
b1101 "
b1100 "
0i
0l
1p
0n
1s
0o
1k
1I
0J
1K
0r
1@
0A
1B
1o
1J
1A
0s
0K
0@
#130000
b1101 "
1i
1n
0k
0I
1r
0B
0o
0J
0A
1s
1K
1@
#140000
b1111 "
b1110 "
0i
1l
0n
1o
1k
1I
1J
1A
1B
0o
0J
0A
#150000
b1111 "
1i
1n
0k
0I
0B
1o
1J
1A
#160000
b11111 "
b10111 "
b10011 "
b10001 "
b10000 "
0i
0l
0p
0t
1x
0n
1{
0w
0s
0o
1k
1I
0J
0K
0L
1M
0r
1>
0?
0@
0A
1B
1o
1J
0v
1A
1s
1K
0z
1@
1w
1L
1?
0{
0M
0>
#170000
b10001 "
1i
1n
0k
0I
1r
0B
0o
0J
1v
0A
0s
0K
1z
0@
0w
0L
0?
1{
1M
1>
#180000
b10011 "
b10010 "
0i
1l
0n
1o
1k
1I
1J
1A
1B
0o
0J
0A
#190000
b10011 "
1i
1n
0k
0I
0B
1o
1J
1A
#200000
b10111 "
b10101 "
b10100 "
0i
0l
1p
0n
1s
0o
1k
1I
0J
1K
0r
1@
0A
1B
1o
1J
1A
0s
0K
0@
#210000
b10101 "
1i
1n
0k
0I
1r
0B
0o
0J
0A
1s
1K
1@
#220000
b10111 "
b10110 "
0i
1l
0n
1o
1k
1I
1J
1A
1B
0o
0J
0A
#230000
b10111 "
1i
1n
0k
0I
0B
1o
1J
1A
#240000
b11111 "
b11011 "
b11001 "
b11000 "
0i
0l
0p
1t
0n
1w
0s
0o
1k
1I
0J
0K
1L
0r
1?
0@
0A
1B
1o
1J
0v
1A
1s
1K
1@
0w
0L
0?
#250000
b11001 "
1i
1n
0k
0I
1r
0B
0o
0J
1v
0A
0s
0K
0@
1w
1L
1?
#260000
b11011 "
b11010 "
0i
1l
0n
1o
1k
1I
1J
1A
1B
0o
0J
0A
#270000
b11011 "
1i
1n
0k
0I
0B
1o
1J
1A
#280000
b11111 "
b11101 "
b11100 "
0i
0l
1p
0n
1s
0o
1k
1I
0J
1K
0r
1@
0A
1B
1o
1J
1A
0s
0K
0@
#290000
b11101 "
1i
1n
0k
0I
1r
0B
0o
0J
0A
1s
1K
1@
#300000
b11111 "
b11110 "
0i
1l
0n
1o
1k
1I
1J
1A
1B
0o
0J
0A
#310000
b11111 "
1i
1n
0k
0I
0B
1o
1J
1A
#320000
b111111 "
b101111 "
b100111 "
b100011 "
b100001 "
b100000 "
0i
0l
0p
0t
0x
1|
0n
1!!
0{
0w
0s
0o
1k
1I
0J
0K
0L
0M
1N
0r
1=
0>
0?
0@
0A
1B
1o
1J
0v
1A
1s
1K
0z
1@
1w
1L
0~
1?
1{
1M
1>
0!!
0N
0=
#330000
b100001 "
1i
1n
0k
0I
1r
0B
0o
0J
1v
0A
0s
0K
1z
0@
0w
0L
1~
0?
0{
0M
0>
1!!
1N
1=
#340000
b100011 "
b100010 "
0i
1l
0n
1o
1k
1I
1J
1A
1B
0o
0J
0A
#350000
b100011 "
1i
1n
0k
0I
0B
1o
1J
1A
#360000
b100111 "
b100101 "
b100100 "
0i
0l
1p
0n
1s
0o
1k
1I
0J
1K
0r
1@
0A
1B
1o
1J
1A
0s
0K
0@
#370000
b100101 "
1i
1n
0k
0I
1r
0B
0o
0J
0A
1s
1K
1@
#380000
b100111 "
b100110 "
0i
1l
0n
1o
1k
1I
1J
1A
1B
0o
0J
0A
#390000
b100111 "
1i
1n
0k
0I
0B
1o
1J
1A
#400000
b101111 "
b101011 "
b101001 "
b101000 "
0i
0l
0p
1t
0n
1w
0s
0o
1k
1I
0J
0K
1L
0r
1?
0@
0A
1B
1o
1J
0v
1A
1s
1K
1@
0w
0L
0?
#410000
b101001 "
1i
1n
0k
0I
1r
0B
0o
0J
1v
0A
0s
0K
0@
1w
1L
1?
#420000
b101011 "
b101010 "
0i
1l
0n
1o
1k
1I
1J
1A
1B
0o
0J
0A
#430000
b101011 "
1i
1n
0k
0I
0B
1o
1J
1A
#440000
b101111 "
b101101 "
b101100 "
0i
0l
1p
0n
1s
0o
1k
1I
0J
1K
0r
1@
0A
1B
1o
1J
1A
0s
0K
0@
#450000
b101101 "
1i
1n
0k
0I
1r
0B
0o
0J
0A
1s
1K
1@
#460000
b101111 "
b101110 "
0i
1l
0n
1o
1k
1I
1J
1A
1B
0o
0J
0A
#470000
b101111 "
1i
1n
0k
0I
0B
1o
1J
1A
#480000
b111111 "
b110111 "
b110011 "
b110001 "
b110000 "
0i
0l
0p
0t
1x
0n
1{
0w
0s
0o
1k
1I
0J
0K
0L
1M
0r
1>
0?
0@
0A
1B
1o
1J
0v
1A
1s
1K
0z
1@
1w
1L
1?
0{
0M
0>
#490000
b110001 "
1i
1n
0k
0I
1r
0B
0o
0J
1v
0A
0s
0K
1z
0@
0w
0L
0?
1{
1M
1>
#500000
b110011 "
b110010 "
0i
1l
0n
1o
1k
1I
1J
1A
1B
0o
0J
0A
#510000
b110011 "
1i
1n
0k
0I
0B
1o
1J
1A
#520000
b110111 "
b110101 "
b110100 "
0i
0l
1p
0n
1s
0o
1k
1I
0J
1K
0r
1@
0A
1B
1o
1J
1A
0s
0K
0@
#530000
b110101 "
1i
1n
0k
0I
1r
0B
0o
0J
0A
1s
1K
1@
#540000
b110111 "
b110110 "
0i
1l
0n
1o
1k
1I
1J
1A
1B
0o
0J
0A
#550000
b110111 "
1i
1n
0k
0I
0B
1o
1J
1A
#560000
b111111 "
b111011 "
b111001 "
b111000 "
0i
0l
0p
1t
0n
1w
0s
0o
1k
1I
0J
0K
1L
0r
1?
0@
0A
1B
1o
1J
0v
1A
1s
1K
1@
0w
0L
0?
#570000
b111001 "
1i
1n
0k
0I
1r
0B
0o
0J
1v
0A
0s
0K
0@
1w
1L
1?
#580000
b111011 "
b111010 "
0i
1l
0n
1o
1k
1I
1J
1A
1B
0o
0J
0A
#590000
b111011 "
1i
1n
0k
0I
0B
1o
1J
1A
#600000
b111111 "
b111101 "
b111100 "
0i
0l
1p
0n
1s
0o
1k
1I
0J
1K
0r
1@
0A
1B
1o
1J
1A
0s
0K
0@
#610000
b111101 "
1i
1n
0k
0I
1r
0B
0o
0J
0A
1s
1K
1@
#620000
b111111 "
b111110 "
0i
1l
0n
1o
1k
1I
1J
1A
1B
0o
0J
0A
#630000
b111111 "
1i
1n
0k
0I
0B
1o
1J
1A
#640000
b1111111 "
b1011111 "
b1001111 "
b1000111 "
b1000011 "
b1000001 "
b1000000 "
0i
0l
0p
0t
0x
0|
1"!
0n
1%!
0!!
0{
0w
0s
0o
1k
1I
0J
0K
0L
0M
0N
1O
0r
1<
0=
0>
0?
0@
0A
1B
1o
1J
0v
1A
1s
1K
0z
1@
1w
1L
0~
1?
1{
1M
0$!
1>
1!!
1N
1=
0%!
0O
0<
#650000
b1000001 "
1i
1n
0k
0I
1r
0B
0o
0J
1v
0A
0s
0K
1z
0@
0w
0L
1~
0?
0{
0M
1$!
0>
0!!
0N
0=
1%!
1O
1<
#660000
b1000011 "
b1000010 "
0i
1l
0n
1o
1k
1I
1J
1A
1B
0o
0J
0A
#670000
b1000011 "
1i
1n
0k
0I
0B
1o
1J
1A
#680000
b1000111 "
b1000101 "
b1000100 "
0i
0l
1p
0n
1s
0o
1k
1I
0J
1K
0r
1@
0A
1B
1o
1J
1A
0s
0K
0@
#690000
b1000101 "
1i
1n
0k
0I
1r
0B
0o
0J
0A
1s
1K
1@
#700000
b1000111 "
b1000110 "
0i
1l
0n
1o
1k
1I
1J
1A
1B
0o
0J
0A
#710000
b1000111 "
1i
1n
0k
0I
0B
1o
1J
1A
#720000
b1001111 "
b1001011 "
b1001001 "
b1001000 "
0i
0l
0p
1t
0n
1w
0s
0o
1k
1I
0J
0K
1L
0r
1?
0@
0A
1B
1o
1J
0v
1A
1s
1K
1@
0w
0L
0?
#730000
b1001001 "
1i
1n
0k
0I
1r
0B
0o
0J
1v
0A
0s
0K
0@
1w
1L
1?
#740000
b1001011 "
b1001010 "
0i
1l
0n
1o
1k
1I
1J
1A
1B
0o
0J
0A
#750000
b1001011 "
1i
1n
0k
0I
0B
1o
1J
1A
#760000
b1001111 "
b1001101 "
b1001100 "
0i
0l
1p
0n
1s
0o
1k
1I
0J
1K
0r
1@
0A
1B
1o
1J
1A
0s
0K
0@
#770000
b1001101 "
1i
1n
0k
0I
1r
0B
0o
0J
0A
1s
1K
1@
#780000
b1001111 "
b1001110 "
0i
1l
0n
1o
1k
1I
1J
1A
1B
0o
0J
0A
#790000
b1001111 "
1i
1n
0k
0I
0B
1o
1J
1A
#800000
b1011111 "
b1010111 "
b1010011 "
b1010001 "
b1010000 "
0i
0l
0p
0t
1x
0n
1{
0w
0s
0o
1k
1I
0J
0K
0L
1M
0r
1>
0?
0@
0A
1B
1o
1J
0v
1A
1s
1K
0z
1@
1w
1L
1?
0{
0M
0>
#810000
b1010001 "
1i
1n
0k
0I
1r
0B
0o
0J
1v
0A
0s
0K
1z
0@
0w
0L
0?
1{
1M
1>
#820000
b1010011 "
b1010010 "
0i
1l
0n
1o
1k
1I
1J
1A
1B
0o
0J
0A
#830000
b1010011 "
1i
1n
0k
0I
0B
1o
1J
1A
#840000
b1010111 "
b1010101 "
b1010100 "
0i
0l
1p
0n
1s
0o
1k
1I
0J
1K
0r
1@
0A
1B
1o
1J
1A
0s
0K
0@
#850000
b1010101 "
1i
1n
0k
0I
1r
0B
0o
0J
0A
1s
1K
1@
#860000
b1010111 "
b1010110 "
0i
1l
0n
1o
1k
1I
1J
1A
1B
0o
0J
0A
#870000
b1010111 "
1i
1n
0k
0I
0B
1o
1J
1A
#880000
b1011111 "
b1011011 "
b1011001 "
b1011000 "
0i
0l
0p
1t
0n
1w
0s
0o
1k
1I
0J
0K
1L
0r
1?
0@
0A
1B
1o
1J
0v
1A
1s
1K
1@
0w
0L
0?
#890000
b1011001 "
1i
1n
0k
0I
1r
0B
0o
0J
1v
0A
0s
0K
0@
1w
1L
1?
#900000
b1011011 "
b1011010 "
0i
1l
0n
1o
1k
1I
1J
1A
1B
0o
0J
0A
#910000
b1011011 "
1i
1n
0k
0I
0B
1o
1J
1A
#920000
b1011111 "
b1011101 "
b1011100 "
0i
0l
1p
0n
1s
0o
1k
1I
0J
1K
0r
1@
0A
1B
1o
1J
1A
0s
0K
0@
#930000
b1011101 "
1i
1n
0k
0I
1r
0B
0o
0J
0A
1s
1K
1@
#940000
b1011111 "
b1011110 "
0i
1l
0n
1o
1k
1I
1J
1A
1B
0o
0J
0A
#950000
b1011111 "
1i
1n
0k
0I
0B
1o
1J
1A
#960000
b1111111 "
b1101111 "
b1100111 "
b1100011 "
b1100001 "
b1100000 "
0i
0l
0p
0t
0x
1|
0n
1!!
0{
0w
0s
0o
1k
1I
0J
0K
0L
0M
1N
0r
1=
0>
0?
0@
0A
1B
1o
1J
0v
1A
1s
1K
0z
1@
1w
1L
0~
1?
1{
1M
1>
0!!
0N
0=
#970000
b1100001 "
1i
1n
0k
0I
1r
0B
0o
0J
1v
0A
0s
0K
1z
0@
0w
0L
1~
0?
0{
0M
0>
1!!
1N
1=
#980000
b1100011 "
b1100010 "
0i
1l
0n
1o
1k
1I
1J
1A
1B
0o
0J
0A
#990000
b1100011 "
1i
1n
0k
0I
0B
1o
1J
1A
