simulation/qsim/MIPS.msim.vcd
$comment
	File created using the following command:
		vcd file MIPS.msim.vcd -direction
$end
$date
	Thu Nov 24 17:56:50 2016
$end
$version
	ModelSim Version 10.4d
$end
$timescale
	1ps
$end

$scope module imem_vlg_vec_tst $end
$var reg 6 ! a [5:0] $end
$var wire 1 " rd [31] $end
$var wire 1 # rd [30] $end
$var wire 1 $ rd [29] $end
$var wire 1 % rd [28] $end
$var wire 1 & rd [27] $end
$var wire 1 ' rd [26] $end
$var wire 1 ( rd [25] $end
$var wire 1 ) rd [24] $end
$var wire 1 * rd [23] $end
$var wire 1 + rd [22] $end
$var wire 1 , rd [21] $end
$var wire 1 - rd [20] $end
$var wire 1 . rd [19] $end
$var wire 1 / rd [18] $end
$var wire 1 0 rd [17] $end
$var wire 1 1 rd [16] $end
$var wire 1 2 rd [15] $end
$var wire 1 3 rd [14] $end
$var wire 1 4 rd [13] $end
$var wire 1 5 rd [12] $end
$var wire 1 6 rd [11] $end
$var wire 1 7 rd [10] $end
$var wire 1 8 rd [9] $end
$var wire 1 9 rd [8] $end
$var wire 1 : rd [7] $end
$var wire 1 ; rd [6] $end
$var wire 1 < rd [5] $end
$var wire 1 = rd [4] $end
$var wire 1 > rd [3] $end
$var wire 1 ? rd [2] $end
$var wire 1 @ rd [1] $end
$var wire 1 A rd [0] $end

$scope module i1 $end
$var wire 1 B gnd $end
$var wire 1 C vcc $end
$var wire 1 D unknown $end
$var tri1 1 E devclrn $end
$var tri1 1 F devpor $end
$var tri1 1 G devoe $end
$var wire 1 H rd[0]~output_o $end
$var wire 1 I rd[1]~output_o $end
$var wire 1 J rd[2]~output_o $end
$var wire 1 K rd[3]~output_o $end
$var wire 1 L rd[4]~output_o $end
$var wire 1 M rd[5]~output_o $end
$var wire 1 N rd[6]~output_o $end
$var wire 1 O rd[7]~output_o $end
$var wire 1 P rd[8]~output_o $end
$var wire 1 Q rd[9]~output_o $end
$var wire 1 R rd[10]~output_o $end
$var wire 1 S rd[11]~output_o $end
$var wire 1 T rd[12]~output_o $end
$var wire 1 U rd[13]~output_o $end
$var wire 1 V rd[14]~output_o $end
$var wire 1 W rd[15]~output_o $end
$var wire 1 X rd[16]~output_o $end
$var wire 1 Y rd[17]~output_o $end
$var wire 1 Z rd[18]~output_o $end
$var wire 1 [ rd[19]~output_o $end
$var wire 1 \ rd[20]~output_o $end
$var wire 1 ] rd[21]~output_o $end
$var wire 1 ^ rd[22]~output_o $end
$var wire 1 _ rd[23]~output_o $end
$var wire 1 ` rd[24]~output_o $end
$var wire 1 a rd[25]~output_o $end
$var wire 1 b rd[26]~output_o $end
$var wire 1 c rd[27]~output_o $end
$var wire 1 d rd[28]~output_o $end
$var wire 1 e rd[29]~output_o $end
$var wire 1 f rd[30]~output_o $end
$var wire 1 g rd[31]~output_o $end
$var wire 1 h a[2]~input_o $end
$var wire 1 i a[5]~input_o $end
$var wire 1 j a[3]~input_o $end
$var wire 1 k a[4]~input_o $end
$var wire 1 l a[0]~input_o $end
$var wire 1 m a[1]~input_o $end
$var wire 1 n RAM~0_combout $end
$var wire 1 o RAM~19_combout $end
$var wire 1 p RAM~1_combout $end
$var wire 1 q RAM~18_combout $end
$var wire 1 r RAM~2_combout $end
$var wire 1 s RAM~17_combout $end
$var wire 1 t RAM~3_combout $end
$var wire 1 u RAM~4_combout $end
$var wire 1 v RAM~16_combout $end
$var wire 1 w RAM~15_combout $end
$var wire 1 x RAM~14_combout $end
$var wire 1 y RAM~5_combout $end
$var wire 1 z RAM~13_combout $end
$var wire 1 { RAM~12_combout $end
$var wire 1 | RAM~11_combout $end
$var wire 1 } RAM~10_combout $end
$var wire 1 ~ RAM~6_combout $end
$var wire 1 !! RAM~7_combout $end
$var wire 1 "! RAM~9_combout $end
$var wire 1 #! RAM~8_combout $end
$upscope $end
$upscope $end
$enddefinitions $end
#0
$dumpvars
b0 !
1A
0@
1?
0>
0=
0<
0;
0:
09
08
07
06
05
04
03
02
01
10
0/
0.
0-
0,
0+
0*
0)
0(
0'
0&
0%
1$
0#
0"
0B
1C
xD
1E
1F
1G
1H
0I
1J
0K
0L
0M
0N
0O
0P
0Q
0R
0S
0T
0U
0V
0W
0X
1Y
0Z
0[
0\
0]
0^
0_
0`
0a
0b
0c
0d
1e
0f
0g
0h
0i
0j
0k
0l
0m
1n
0o
1p
0q
0r
0s
0t
0u
0v
0w
0x
1y
0z
0{
0|
0}
0~
0!!
0"!
1#!
$end
#10000
b1 !
1l
1x
1q
0n
0H
1K
1X
11
1>
0A
#20000
b11 !
b10 !
0l
1m
1|
1{
1z
1w
1v
1u
1t
1s
1r
0q
1o
1n
1H
1I
0K
1L
1M
1U
1N
1O
1P
1Q
1R
1V
1W
1S
1T
1Z
1]
1^
1+
1,
1/
15
16
12
13
17
18
19
1:
1;
14
1<
1=
0>
1@
1A
#30000
b11 !
1l
0#!
1}
0z
0x
0w
0v
0u
0t
0r
0o
0I
0L
0N
0O
0P
0Q
0R
0V
0W
0S
0T
0X
0Z
1_
0e
0$
1*
0/
01
05
06
02
03
07
08
09
0:
0;
0=
0@
#40000
b111 !
b101 !
b100 !
0l
0m
1h
0}
1z
0y
1v
0n
0H
1S
0Y
1Z
0_
0*
1/
00
16
0A
#50000
b101 !
1l
1}
0|
0p
0J
0^
1_
1*
0+
0?
#60000
b111 !
b110 !
0l
1m
1"!
1y
1x
0v
0s
1q
1o
1I
1K
0M
0U
0S
1X
1Y
1d
1%
10
11
06
04
0<
1>
1@
#70000
b111 !
1l
0"!
0}
1|
0y
0x
1s
1M
1U
0X
0Y
1^
0_
0d
0%
0*
1+
00
01
14
1<
#80000
b1111 !
b1011 !
b1001 !
b1000 !
0l
0m
0h
1j
1"!
1}
0|
0{
0z
0s
0q
0o
1n
1H
0I
0K
0M
0U
0Z
0]
0^
1_
1d
1%
1*
0+
0,
0/
04
0<
0>
0@
1A
#90000
b1001 !
1l
1#!
0"!
0}
1z
1x
0n
0H
1X
1Z
0_
0d
1e
1$
0%
0*
1/
11
0A
#100000
b1011 !
b1010 !
0l
1m
0#!
1}
1|
1{
0z
1y
0x
1s
1q
1o
1I
1K
1M
1U
0X
1Y
0Z
1]
1^
1_
0e
0$
1*
1+
1,
0/
10
01
14
1<
1>
1@
#110000
b1011 !
1l
0|
0{
1z
0y
1x
1w
1v
0q
0o
0I
0K
1S
1T
1X
0Y
1Z
0]
0^
0+
0,
1/
00
11
15
16
0>
0@
#120000
b1111 !
b1101 !
b1100 !
0l
0m
1h
1|
1{
0z
1y
0x
1o
1I
0X
1Y
0Z
1]
1^
1+
1,
0/
10
01
1@
#130000
b1101 !
1l
1#!
1!!
1~
0}
1z
1x
0w
0v
1t
0s
1p
0o
0I
1J
0M
0U
1N
0S
0T
1X
1Z
0_
1b
1g
1c
1e
1$
1&
1"
1'
0*
1/
11
05
06
1;
04
0<
1?
0@
#140000
b1111 !
b1110 !
0l
1m
0#!
0|
0{
0z
0x
1r
0p
0J
1L
0X
0Z
0]
0^
0e
0$
0+
0,
0/
01
1=
0?
#150000
b1111 !
1l
0~
0y
0t
1n
1H
0N
0Y
0b
0g
0"
0'
00
0;
1A
#160000
b11111 !
b10111 !
b10011 !
b10001 !
b10000 !
0l
0m
0h
0j
1k
1#!
0!!
1y
0r
0L
1Y
0c
1e
1$
0&
10
0=
#170000
b10001 !
1l
1!!
1~
1t
1r
1p
0n
0H
1J
1L
1N
1b
1g
1c
1&
1"
1'
1;
1=
1?
0A
#180000
b10011 !
b10010 !
0l
1m
0#!
0!!
0~
0y
0t
0r
0p
0J
0L
0N
0Y
0b
0g
0c
0e
0$
0&
0"
0'
00
0;
0=
0?
#190000
b10011 !
1l
#200000
b10111 !
b10101 !
b10100 !
0l
0m
1h
#210000
b10101 !
1l
#220000
b10111 !
b10110 !
0l
1m
#230000
b10111 !
1l
#240000
b11111 !
b11011 !
b11001 !
b11000 !
0l
0m
0h
1j
#250000
b11001 !
1l
#260000
b11011 !
b11010 !
0l
1m
#270000
b11011 !
1l
#280000
b11111 !
b11101 !
b11100 !
0l
0m
1h
#290000
b11101 !
1l
#300000
b11111 !
b11110 !
0l
1m
#310000
b11111 !
1l
#320000
b111111 !
b101111 !
b100111 !
b100011 !
b100001 !
b100000 !
0l
0m
0h
0j
0k
1i
#330000
b100001 !
1l
#340000
b100011 !
b100010 !
0l
1m
#350000
b100011 !
1l
#360000
b100111 !
b100101 !
b100100 !
0l
0m
1h
#370000
b100101 !
1l
#380000
b100111 !
b100110 !
0l
1m
#390000
b100111 !
1l
#400000
b101111 !
b101011 !
b101001 !
b101000 !
0l
0m
0h
1j
#410000
b101001 !
1l
#420000
b101011 !
b101010 !
0l
1m
#430000
b101011 !
1l
#440000
b101111 !
b101101 !
b101100 !
0l
0m
1h
#450000
b101101 !
1l
#460000
b101111 !
b101110 !
0l
1m
#470000
b101111 !
1l
#480000
b111111 !
b110111 !
b110011 !
b110001 !
b110000 !
0l
0m
0h
0j
1k
#490000
b110001 !
1l
#500000
b110011 !
b110010 !
0l
1m
#510000
b110011 !
1l
#520000
b110111 !
b110101 !
b110100 !
0l
0m
1h
#530000
b110101 !
1l
#540000
b110111 !
b110110 !
0l
1m
#550000
b110111 !
1l
#560000
b111111 !
b111011 !
b111001 !
b111000 !
0l
0m
0h
1j
#570000
b111001 !
1l
#580000
b111011 !
b111010 !
0l
1m
#590000
b111011 !
1l
#600000
b111111 !
b111101 !
b111100 !
0l
0m
1h
#610000
b111101 !
1l
#620000
b111111 !
b111110 !
0l
1m
#630000
b111111 !
1l
#640000
b11111 !
b1111 !
b111 !
b11 !
b1 !
b0 !
0l
0m
0h
0j
0k
0i
1#!
1y
1p
1n
1H
1J
1Y
1e
1$
10
1?
1A
#650000
b1 !
1l
1x
1q
0n
0H
1K
1X
11
1>
0A
#660000
b11 !
b10 !
0l
1m
1|
1{
1z
1w
1v
1u
1t
1s
1r
0q
1o
1n
1H
1I
0K
1L
1M
1U
1N
1O
1P
1Q
1R
1V
1W
1S
1T
1Z
1]
1^
1+
1,
1/
15
16
12
13
17
18
19
1:
1;
14
1<
1=
0>
1@
1A
#670000
b11 !
1l
0#!
1}
0z
0x
0w
0v
0u
0t
0r
0o
0I
0L
0N
0O
0P
0Q
0R
0V
0W
0S
0T
0X
0Z
1_
0e
0$
1*
0/
01
05
06
02
03
07
08
09
0:
0;
0=
0@
#680000
b111 !
b101 !
b100 !
0l
0m
1h
0}
1z
0y
1v
0n
0H
1S
0Y
1Z
0_
0*
1/
00
16
0A
#690000
b101 !
1l
1}
0|
0p
0J
0^
1_
1*
0+
0?
#700000
b111 !
b110 !
0l
1m
1"!
1y
1x
0v
0s
1q
1o
1I
1K
0M
0U
0S
1X
1Y
1d
1%
10
11
06
04
0<
1>
1@
#710000
b111 !
1l
0"!
0}
1|
0y
0x
1s
1M
1U
0X
0Y
1^
0_
0d
0%
0*
1+
00
01
14
1<
#720000
b1111 !
b1011 !
b1001 !
b1000 !
0l
0m
0h
1j
1"!
1}
0|
0{
0z
0s
0q
0o
1n
1H
0I
0K
0M
0U
0Z
0]
0^
1_
1d
1%
1*
0+
0,
0/
04
0<
0>
0@
1A
#730000
b1001 !
1l
1#!
0"!
0}
1z
1x
0n
0H
1X
1Z
0_
0d
1e
1$
0%
0*
1/
11
0A
#740000
b1011 !
b1010 !
0l
1m
0#!
1}
1|
1{
0z
1y
0x
1s
1q
1o
1I
1K
1M
1U
0X
1Y
0Z
1]
1^
1_
0e
0$
1*
1+
1,
0/
10
01
14
1<
1>
1@
#750000
b1011 !
1l
0|
0{
1z
0y
1x
1w
1v
0q
0o
0I
0K
1S
1T
1X
0Y
1Z
0]
0^
0+
0,
1/
00
11
15
16
0>
0@
#760000
b1111 !
b1101 !
b1100 !
0l
0m
1h
1|
1{
0z
1y
0x
1o
1I
0X
1Y
0Z
1]
1^
1+
1,
0/
10
01
1@
#770000
b1101 !
1l
1#!
1!!
1~
0}
1z
1x
0w
0v
1t
0s
1p
0o
0I
1J
0M
0U
1N
0S
0T
1X
1Z
0_
1b
1g
1c
1e
1$
1&
1"
1'
0*
1/
11
05
06
1;
04
0<
1?
0@
#780000
b1111 !
b1110 !
0l
1m
0#!
0|
0{
0z
0x
1r
0p
0J
1L
0X
0Z
0]
0^
0e
0$
0+
0,
0/
01
1=
0?
#790000
b1111 !
1l
0~
0y
0t
1n
1H
0N
0Y
0b
0g
0"
0'
00
0;
1A
#800000
b11111 !
b10111 !
b10011 !
b10001 !
b10000 !
0l
0m
0h
0j
1k
1#!
0!!
1y
0r
0L
1Y
0c
1e
1$
0&
10
0=
#810000
b10001 !
1l
1!!
1~
1t
1r
1p
0n
0H
1J
1L
1N
1b
1g
1c
1&
1"
1'
1;
1=
1?
0A
#820000
b10011 !
b10010 !
0l
1m
0#!
0!!
0~
0y
0t
0r
0p
0J
0L
0N
0Y
0b
0g
0c
0e
0$
0&
0"
0'
00
0;
0=
0?
#830000
b10011 !
1l
#840000
b10111 !
b10101 !
b10100 !
0l
0m
1h
#850000
b10101 !
1l
#860000
b10111 !
b10110 !
0l
1m
#870000
b10111 !
1l
#880000
b11111 !
b11011 !
b11001 !
b11000 !
0l
0m
0h
1j
#890000
b11001 !
1l
#900000
b11011 !
b11010 !
0l
1m
#910000
b11011 !
1l
#920000
b11111 !
b11101 !
b11100 !
0l
0m
1h
#930000
b11101 !
1l
#940000
b11111 !
b11110 !
0l
1m
#950000
b11111 !
1l
#960000
b111111 !
b101111 !
b100111 !
b100011 !
b100001 !
b100000 !
0l
0m
0h
0j
0k
1i
#970000
b100001 !
1l
#980000
b100011 !
b100010 !
0l
1m
#990000
b100011 !
1l
