simulation/qsim/MIPS.msim.vcd
$comment
	File created using the following command:
		vcd file MIPS.msim.vcd -direction
$end
$date
	Wed Nov 23 09:54:10 2016
$end
$version
	ModelSim Version 10.4d
$end
$timescale
	1ps
$end

$scope module mux2_vlg_vec_tst $end
$var reg 8 ! d0 [7:0] $end
$var reg 8 " d1 [7:0] $end
$var reg 1 # s $end
$var wire 1 $ y [7] $end
$var wire 1 % y [6] $end
$var wire 1 & y [5] $end
$var wire 1 ' y [4] $end
$var wire 1 ( y [3] $end
$var wire 1 ) y [2] $end
$var wire 1 * y [1] $end
$var wire 1 + y [0] $end

$scope module i1 $end
$var wire 1 , gnd $end
$var wire 1 - vcc $end
$var wire 1 . unknown $end
$var tri1 1 / devclrn $end
$var tri1 1 0 devpor $end
$var tri1 1 1 devoe $end
$var wire 1 2 y[0]~output_o $end
$var wire 1 3 y[1]~output_o $end
$var wire 1 4 y[2]~output_o $end
$var wire 1 5 y[3]~output_o $end
$var wire 1 6 y[4]~output_o $end
$var wire 1 7 y[5]~output_o $end
$var wire 1 8 y[6]~output_o $end
$var wire 1 9 y[7]~output_o $end
$var wire 1 : d1[0]~input_o $end
$var wire 1 ; s~input_o $end
$var wire 1 < d0[0]~input_o $end
$var wire 1 = y~0_combout $end
$var wire 1 > d1[1]~input_o $end
$var wire 1 ? d0[1]~input_o $end
$var wire 1 @ y~1_combout $end
$var wire 1 A d1[2]~input_o $end
$var wire 1 B d0[2]~input_o $end
$var wire 1 C y~2_combout $end
$var wire 1 D d1[3]~input_o $end
$var wire 1 E d0[3]~input_o $end
$var wire 1 F y~3_combout $end
$var wire 1 G d1[4]~input_o $end
$var wire 1 H d0[4]~input_o $end
$var wire 1 I y~4_combout $end
$var wire 1 J d1[5]~input_o $end
$var wire 1 K d0[5]~input_o $end
$var wire 1 L y~5_combout $end
$var wire 1 M d1[6]~input_o $end
$var wire 1 N d0[6]~input_o $end
$var wire 1 O y~6_combout $end
$var wire 1 P d1[7]~input_o $end
$var wire 1 Q d0[7]~input_o $end
$var wire 1 R y~7_combout $end
$upscope $end
$upscope $end
$enddefinitions $end
#0
$dumpvars
b0 !
b11111111 "
1#
1+
1*
1)
1(
1'
1&
1%
1$
0,
1-
x.
1/
10
11
12
13
14
15
16
17
18
19
1:
1;
0<
1=
1>
0?
1@
1A
0B
1C
1D
0E
1F
1G
0H
1I
1J
0K
1L
1M
0N
1O
1P
0Q
1R
$end
#5000
0#
0;
0R
0O
0L
0I
0F
0C
0@
0=
02
03
04
05
06
07
08
09
0$
0%
0&
0'
0(
0)
0*
0+
#20000
1#
1;
1R
1O
1L
1I
1F
1C
1@
1=
12
13
14
15
16
17
18
19
1$
1%
1&
1'
1(
1)
1*
1+
#25000
0#
0;
0R
0O
0L
0I
0F
0C
0@
0=
02
03
04
05
06
07
08
09
0$
0%
0&
0'
0(
0)
0*
0+
#30000
1#
1;
1R
1O
1L
1I
1F
1C
1@
1=
12
13
14
15
16
17
18
19
1$
1%
1&
1'
1(
1)
1*
1+
#45000
0#
0;
0R
0O
0L
0I
0F
0C
0@
0=
02
03
04
05
06
07
08
09
0$
0%
0&
0'
0(
0)
0*
0+
#55000
1#
1;
1R
1O
1L
1I
1F
1C
1@
1=
12
13
14
15
16
17
18
19
1$
1%
1&
1'
1(
1)
1*
1+
#60000
0#
0;
0R
0O
0L
0I
0F
0C
0@
0=
02
03
04
05
06
07
08
09
0$
0%
0&
0'
0(
0)
0*
0+
#65000
1#
1;
1R
1O
1L
1I
1F
1C
1@
1=
12
13
14
15
16
17
18
19
1$
1%
1&
1'
1(
1)
1*
1+
#75000
0#
0;
0R
0O
0L
0I
0F
0C
0@
0=
02
03
04
05
06
07
08
09
0$
0%
0&
0'
0(
0)
0*
0+
#80000
1#
1;
1R
1O
1L
1I
1F
1C
1@
1=
12
13
14
15
16
17
18
19
1$
1%
1&
1'
1(
1)
1*
1+
#90000
0#
0;
0R
0O
0L
0I
0F
0C
0@
0=
02
03
04
05
06
07
08
09
0$
0%
0&
0'
0(
0)
0*
0+
#100000
1#
1;
1R
1O
1L
1I
1F
1C
1@
1=
12
13
14
15
16
17
18
19
1$
1%
1&
1'
1(
1)
1*
1+
#110000
0#
0;
0R
0O
0L
0I
0F
0C
0@
0=
02
03
04
05
06
07
08
09
0$
0%
0&
0'
0(
0)
0*
0+
#120000
1#
1;
1R
1O
1L
1I
1F
1C
1@
1=
12
13
14
15
16
17
18
19
1$
1%
1&
1'
1(
1)
1*
1+
#125000
0#
0;
0R
0O
0L
0I
0F
0C
0@
0=
02
03
04
05
06
07
08
09
0$
0%
0&
0'
0(
0)
0*
0+
#130000
1#
1;
1R
1O
1L
1I
1F
1C
1@
1=
12
13
14
15
16
17
18
19
1$
1%
1&
1'
1(
1)
1*
1+
#135000
0#
0;
0R
0O
0L
0I
0F
0C
0@
0=
02
03
04
05
06
07
08
09
0$
0%
0&
0'
0(
0)
0*
0+
#140000
1#
1;
1R
1O
1L
1I
1F
1C
1@
1=
12
13
14
15
16
17
18
19
1$
1%
1&
1'
1(
1)
1*
1+
#165000
0#
0;
0R
0O
0L
0I
0F
0C
0@
0=
02
03
04
05
06
07
08
09
0$
0%
0&
0'
0(
0)
0*
0+
#200000
1#
1;
1R
1O
1L
1I
1F
1C
1@
1=
12
13
14
15
16
17
18
19
1$
1%
1&
1'
1(
1)
1*
1+
#210000
0#
0;
0R
0O
0L
0I
0F
0C
0@
0=
02
03
04
05
06
07
08
09
0$
0%
0&
0'
0(
0)
0*
0+
#225000
1#
1;
1R
1O
1L
1I
1F
1C
1@
1=
12
13
14
15
16
17
18
19
1$
1%
1&
1'
1(
1)
1*
1+
#230000
0#
0;
0R
0O
0L
0I
0F
0C
0@
0=
02
03
04
05
06
07
08
09
0$
0%
0&
0'
0(
0)
0*
0+
#235000
1#
1;
1R
1O
1L
1I
1F
1C
1@
1=
12
13
14
15
16
17
18
19
1$
1%
1&
1'
1(
1)
1*
1+
#240000
0#
0;
0R
0O
0L
0I
0F
0C
0@
0=
02
03
04
05
06
07
08
09
0$
0%
0&
0'
0(
0)
0*
0+
#270000
1#
1;
1R
1O
1L
1I
1F
1C
1@
1=
12
13
14
15
16
17
18
19
1$
1%
1&
1'
1(
1)
1*
1+
#280000
0#
0;
0R
0O
0L
0I
0F
0C
0@
0=
02
03
04
05
06
07
08
09
0$
0%
0&
0'
0(
0)
0*
0+
#285000
1#
1;
1R
1O
1L
1I
1F
1C
1@
1=
12
13
14
15
16
17
18
19
1$
1%
1&
1'
1(
1)
1*
1+
#315000
0#
0;
0R
0O
0L
0I
0F
0C
0@
0=
02
03
04
05
06
07
08
09
0$
0%
0&
0'
0(
0)
0*
0+
#325000
1#
1;
1R
1O
1L
1I
1F
1C
1@
1=
12
13
14
15
16
17
18
19
1$
1%
1&
1'
1(
1)
1*
1+
#330000
0#
0;
0R
0O
0L
0I
0F
0C
0@
0=
02
03
04
05
06
07
08
09
0$
0%
0&
0'
0(
0)
0*
0+
#340000
1#
1;
1R
1O
1L
1I
1F
1C
1@
1=
12
13
14
15
16
17
18
19
1$
1%
1&
1'
1(
1)
1*
1+
#345000
0#
0;
0R
0O
0L
0I
0F
0C
0@
0=
02
03
04
05
06
07
08
09
0$
0%
0&
0'
0(
0)
0*
0+
#355000
1#
1;
1R
1O
1L
1I
1F
1C
1@
1=
12
13
14
15
16
17
18
19
1$
1%
1&
1'
1(
1)
1*
1+
#365000
0#
0;
0R
0O
0L
0I
0F
0C
0@
0=
02
03
04
05
06
07
08
09
0$
0%
0&
0'
0(
0)
0*
0+
#380000
1#
1;
1R
1O
1L
1I
1F
1C
1@
1=
12
13
14
15
16
17
18
19
1$
1%
1&
1'
1(
1)
1*
1+
#400000
0#
0;
0R
0O
0L
0I
0F
0C
0@
0=
02
03
04
05
06
07
08
09
0$
0%
0&
0'
0(
0)
0*
0+
#405000
1#
1;
1R
1O
1L
1I
1F
1C
1@
1=
12
13
14
15
16
17
18
19
1$
1%
1&
1'
1(
1)
1*
1+
#430000
0#
0;
0R
0O
0L
0I
0F
0C
0@
0=
02
03
04
05
06
07
08
09
0$
0%
0&
0'
0(
0)
0*
0+
#435000
1#
1;
1R
1O
1L
1I
1F
1C
1@
1=
12
13
14
15
16
17
18
19
1$
1%
1&
1'
1(
1)
1*
1+
#450000
0#
0;
0R
0O
0L
0I
0F
0C
0@
0=
02
03
04
05
06
07
08
09
0$
0%
0&
0'
0(
0)
0*
0+
#465000
1#
1;
1R
1O
1L
1I
1F
1C
1@
1=
12
13
14
15
16
17
18
19
1$
1%
1&
1'
1(
1)
1*
1+
#475000
0#
0;
0R
0O
0L
0I
0F
0C
0@
0=
02
03
04
05
06
07
08
09
0$
0%
0&
0'
0(
0)
0*
0+
#480000
1#
1;
1R
1O
1L
1I
1F
1C
1@
1=
12
13
14
15
16
17
18
19
1$
1%
1&
1'
1(
1)
1*
1+
#485000
0#
0;
0R
0O
0L
0I
0F
0C
0@
0=
02
03
04
05
06
07
08
09
0$
0%
0&
0'
0(
0)
0*
0+
#490000
1#
1;
1R
1O
1L
1I
1F
1C
1@
1=
12
13
14
15
16
17
18
19
1$
1%
1&
1'
1(
1)
1*
1+
#495000
0#
0;
0R
0O
0L
0I
0F
0C
0@
0=
02
03
04
05
06
07
08
09
0$
0%
0&
0'
0(
0)
0*
0+
#505000
1#
1;
1R
1O
1L
1I
1F
1C
1@
1=
12
13
14
15
16
17
18
19
1$
1%
1&
1'
1(
1)
1*
1+
#515000
0#
0;
0R
0O
0L
0I
0F
0C
0@
0=
02
03
04
05
06
07
08
09
0$
0%
0&
0'
0(
0)
0*
0+
#520000
1#
1;
1R
1O
1L
1I
1F
1C
1@
1=
12
13
14
15
16
17
18
19
1$
1%
1&
1'
1(
1)
1*
1+
#535000
0#
0;
0R
0O
0L
0I
0F
0C
0@
0=
02
03
04
05
06
07
08
09
0$
0%
0&
0'
0(
0)
0*
0+
#570000
1#
1;
1R
1O
1L
1I
1F
1C
1@
1=
12
13
14
15
16
17
18
19
1$
1%
1&
1'
1(
1)
1*
1+
#575000
0#
0;
0R
0O
0L
0I
0F
0C
0@
0=
02
03
04
05
06
07
08
09
0$
0%
0&
0'
0(
0)
0*
0+
#580000
1#
1;
1R
1O
1L
1I
1F
1C
1@
1=
12
13
14
15
16
17
18
19
1$
1%
1&
1'
1(
1)
1*
1+
#585000
0#
0;
0R
0O
0L
0I
0F
0C
0@
0=
02
03
04
05
06
07
08
09
0$
0%
0&
0'
0(
0)
0*
0+
#590000
1#
1;
1R
1O
1L
1I
1F
1C
1@
1=
12
13
14
15
16
17
18
19
1$
1%
1&
1'
1(
1)
1*
1+
#595000
0#
0;
0R
0O
0L
0I
0F
0C
0@
0=
02
03
04
05
06
07
08
09
0$
0%
0&
0'
0(
0)
0*
0+
#600000
1#
1;
1R
1O
1L
1I
1F
1C
1@
1=
12
13
14
15
16
17
18
19
1$
1%
1&
1'
1(
1)
1*
1+
#615000
0#
0;
0R
0O
0L
0I
0F
0C
0@
0=
02
03
04
05
06
07
08
09
0$
0%
0&
0'
0(
0)
0*
0+
#625000
1#
1;
1R
1O
1L
1I
1F
1C
1@
1=
12
13
14
15
16
17
18
19
1$
1%
1&
1'
1(
1)
1*
1+
#635000
0#
0;
0R
0O
0L
0I
0F
0C
0@
0=
02
03
04
05
06
07
08
09
0$
0%
0&
0'
0(
0)
0*
0+
#650000
1#
1;
1R
1O
1L
1I
1F
1C
1@
1=
12
13
14
15
16
17
18
19
1$
1%
1&
1'
1(
1)
1*
1+
#655000
0#
0;
0R
0O
0L
0I
0F
0C
0@
0=
02
03
04
05
06
07
08
09
0$
0%
0&
0'
0(
0)
0*
0+
#665000
1#
1;
1R
1O
1L
1I
1F
1C
1@
1=
12
13
14
15
16
17
18
19
1$
1%
1&
1'
1(
1)
1*
1+
#670000
0#
0;
0R
0O
0L
0I
0F
0C
0@
0=
02
03
04
05
06
07
08
09
0$
0%
0&
0'
0(
0)
0*
0+
#695000
1#
1;
1R
1O
1L
1I
1F
1C
1@
1=
12
13
14
15
16
17
18
19
1$
1%
1&
1'
1(
1)
1*
1+
#725000
0#
0;
0R
0O
0L
0I
0F
0C
0@
0=
02
03
04
05
06
07
08
09
0$
0%
0&
0'
0(
0)
0*
0+
#730000
1#
1;
1R
1O
1L
1I
1F
1C
1@
1=
12
13
14
15
16
17
18
19
1$
1%
1&
1'
1(
1)
1*
1+
#735000
0#
0;
0R
0O
0L
0I
0F
0C
0@
0=
02
03
04
05
06
07
08
09
0$
0%
0&
0'
0(
0)
0*
0+
#740000
1#
1;
1R
1O
1L
1I
1F
1C
1@
1=
12
13
14
15
16
17
18
19
1$
1%
1&
1'
1(
1)
1*
1+
#755000
0#
0;
0R
0O
0L
0I
0F
0C
0@
0=
02
03
04
05
06
07
08
09
0$
0%
0&
0'
0(
0)
0*
0+
#760000
1#
1;
1R
1O
1L
1I
1F
1C
1@
1=
12
13
14
15
16
17
18
19
1$
1%
1&
1'
1(
1)
1*
1+
#765000
0#
0;
0R
0O
0L
0I
0F
0C
0@
0=
02
03
04
05
06
07
08
09
0$
0%
0&
0'
0(
0)
0*
0+
#780000
1#
1;
1R
1O
1L
1I
1F
1C
1@
1=
12
13
14
15
16
17
18
19
1$
1%
1&
1'
1(
1)
1*
1+
#785000
0#
0;
0R
0O
0L
0I
0F
0C
0@
0=
02
03
04
05
06
07
08
09
0$
0%
0&
0'
0(
0)
0*
0+
#800000
1#
1;
1R
1O
1L
1I
1F
1C
1@
1=
12
13
14
15
16
17
18
19
1$
1%
1&
1'
1(
1)
1*
1+
#805000
0#
0;
0R
0O
0L
0I
0F
0C
0@
0=
02
03
04
05
06
07
08
09
0$
0%
0&
0'
0(
0)
0*
0+
#820000
1#
1;
1R
1O
1L
1I
1F
1C
1@
1=
12
13
14
15
16
17
18
19
1$
1%
1&
1'
1(
1)
1*
1+
#830000
0#
0;
0R
0O
0L
0I
0F
0C
0@
0=
02
03
04
05
06
07
08
09
0$
0%
0&
0'
0(
0)
0*
0+
#835000
1#
1;
1R
1O
1L
1I
1F
1C
1@
1=
12
13
14
15
16
17
18
19
1$
1%
1&
1'
1(
1)
1*
1+
#840000
0#
0;
0R
0O
0L
0I
0F
0C
0@
0=
02
03
04
05
06
07
08
09
0$
0%
0&
0'
0(
0)
0*
0+
#850000
1#
1;
1R
1O
1L
1I
1F
1C
1@
1=
12
13
14
15
16
17
18
19
1$
1%
1&
1'
1(
1)
1*
1+
#875000
0#
0;
0R
0O
0L
0I
0F
0C
0@
0=
02
03
04
05
06
07
08
09
0$
0%
0&
0'
0(
0)
0*
0+
#880000
1#
1;
1R
1O
1L
1I
1F
1C
1@
1=
12
13
14
15
16
17
18
19
1$
1%
1&
1'
1(
1)
1*
1+
#885000
0#
0;
0R
0O
0L
0I
0F
0C
0@
0=
02
03
04
05
06
07
08
09
0$
0%
0&
0'
0(
0)
0*
0+
#890000
1#
1;
1R
1O
1L
1I
1F
1C
1@
1=
12
13
14
15
16
17
18
19
1$
1%
1&
1'
1(
1)
1*
1+
#900000
0#
0;
0R
0O
0L
0I
0F
0C
0@
0=
02
03
04
05
06
07
08
09
0$
0%
0&
0'
0(
0)
0*
0+
#915000
1#
1;
1R
1O
1L
1I
1F
1C
1@
1=
12
13
14
15
16
17
18
19
1$
1%
1&
1'
1(
1)
1*
1+
#930000
0#
0;
0R
0O
0L
0I
0F
0C
0@
0=
02
03
04
05
06
07
08
09
0$
0%
0&
0'
0(
0)
0*
0+
#935000
1#
1;
1R
1O
1L
1I
1F
1C
1@
1=
12
13
14
15
16
17
18
19
1$
1%
1&
1'
1(
1)
1*
1+
#940000
0#
0;
0R
0O
0L
0I
0F
0C
0@
0=
02
03
04
05
06
07
08
09
0$
0%
0&
0'
0(
0)
0*
0+
#945000
1#
1;
1R
1O
1L
1I
1F
1C
1@
1=
12
13
14
15
16
17
18
19
1$
1%
1&
1'
1(
1)
1*
1+
#950000
0#
0;
0R
0O
0L
0I
0F
0C
0@
0=
02
03
04
05
06
07
08
09
0$
0%
0&
0'
0(
0)
0*
0+
#960000
1#
1;
1R
1O
1L
1I
1F
1C
1@
1=
12
13
14
15
16
17
18
19
1$
1%
1&
1'
1(
1)
1*
1+
#965000
0#
0;
0R
0O
0L
0I
0F
0C
0@
0=
02
03
04
05
06
07
08
09
0$
0%
0&
0'
0(
0)
0*
0+
#975000
1#
1;
1R
1O
1L
1I
1F
1C
1@
1=
12
13
14
15
16
17
18
19
1$
1%
1&
1'
1(
1)
1*
1+
#980000
0#
0;
0R
0O
0L
0I
0F
0C
0@
0=
02
03
04
05
06
07
08
09
0$
0%
0&
0'
0(
0)
0*
0+
#990000
1#
1;
1R
1O
1L
1I
1F
1C
1@
1=
12
13
14
15
16
17
18
19
1$
1%
1&
1'
1(
1)
1*
1+
