simulation/qsim/MIPS.msim.vcd
$comment
	File created using the following command:
		vcd file MIPS.msim.vcd -direction
$end
$date
	Wed Nov 23 10:06:25 2016
$end
$version
	ModelSim Version 10.4d
$end
$timescale
	1ps
$end

$scope module flopr_vlg_vec_tst $end
$var reg 1 ! clk $end
$var reg 8 " d [7:0] $end
$var reg 1 # reset $end
$var wire 1 $ q [7] $end
$var wire 1 % q [6] $end
$var wire 1 & q [5] $end
$var wire 1 ' q [4] $end
$var wire 1 ( q [3] $end
$var wire 1 ) q [2] $end
$var wire 1 * q [1] $end
$var wire 1 + q [0] $end

$scope module i1 $end
$var wire 1 , gnd $end
$var wire 1 - vcc $end
$var wire 1 . unknown $end
$var tri1 1 / devclrn $end
$var tri1 1 0 devpor $end
$var tri1 1 1 devoe $end
$var wire 1 2 q[0]~output_o $end
$var wire 1 3 q[1]~output_o $end
$var wire 1 4 q[2]~output_o $end
$var wire 1 5 q[3]~output_o $end
$var wire 1 6 q[4]~output_o $end
$var wire 1 7 q[5]~output_o $end
$var wire 1 8 q[6]~output_o $end
$var wire 1 9 q[7]~output_o $end
$var wire 1 : clk~input_o $end
$var wire 1 ; d[0]~input_o $end
$var wire 1 < reset~input_o $end
$var wire 1 = q[0]~reg0_q $end
$var wire 1 > d[1]~input_o $end
$var wire 1 ? q[1]~reg0_q $end
$var wire 1 @ d[2]~input_o $end
$var wire 1 A q[2]~reg0_q $end
$var wire 1 B d[3]~input_o $end
$var wire 1 C q[3]~reg0_q $end
$var wire 1 D d[4]~input_o $end
$var wire 1 E q[4]~reg0_q $end
$var wire 1 F d[5]~input_o $end
$var wire 1 G q[5]~reg0_q $end
$var wire 1 H d[6]~input_o $end
$var wire 1 I q[6]~reg0_q $end
$var wire 1 J d[7]~input_o $end
$var wire 1 K q[7]~reg0_q $end
$upscope $end
$upscope $end
$enddefinitions $end
#0
$dumpvars
0!
b0 "
1#
0+
0*
0)
0(
0'
0&
0%
0$
0,
1-
x.
1/
10
11
02
03
04
05
06
07
08
09
0:
0;
1<
0=
0>
0?
0@
0A
0B
0C
0D
0E
0F
0G
0H
0I
0J
0K
$end
#5000
1!
1:
#10000
b1 "
0!
1;
0:
#15000
1!
1:
#20000
b11 "
b10 "
0!
0;
1>
0:
#25000
1!
1:
#30000
b11 "
0!
1;
0:
#35000
1!
1:
#40000
0#
b111 "
b101 "
b100 "
0!
0<
0;
0>
1@
0:
#45000
1!
1:
1A
14
1)
#50000
b101 "
0!
1;
0:
#55000
1!
1:
1=
12
1+
#60000
b111 "
b110 "
0!
0;
1>
0:
#65000
1!
1:
1?
0=
02
13
1*
0+
#70000
b111 "
0!
1;
0:
#75000
1!
1:
1=
12
1+
#80000
b1111 "
b1011 "
b1001 "
b1000 "
0!
0;
0>
0@
1B
0:
#85000
1!
1:
1C
0A
0?
0=
02
03
04
15
1(
0)
0*
0+
#90000
b1001 "
0!
1;
0:
#95000
1!
1:
1=
12
1+
#100000
b1011 "
b1010 "
0!
0;
1>
0:
#105000
1!
1:
1?
0=
02
13
1*
0+
#110000
b1011 "
0!
1;
0:
#115000
1!
1:
1=
12
1+
#120000
b1111 "
b1101 "
b1100 "
0!
0;
0>
1@
0:
#125000
1!
1:
1A
0?
0=
02
03
14
1)
0*
0+
#130000
b1101 "
0!
1;
0:
#135000
1!
1:
1=
12
1+
#140000
b1111 "
b1110 "
0!
0;
1>
0:
#145000
1!
1:
1?
0=
02
13
1*
0+
#150000
b1111 "
0!
1;
0:
#155000
1!
1:
1=
12
1+
#160000
b11111 "
b10111 "
b10011 "
b10001 "
b10000 "
0!
0;
0>
0@
0B
1D
0:
#165000
1!
1:
1E
0C
0A
0?
0=
02
03
04
05
16
1'
0(
0)
0*
0+
#170000
b10001 "
0!
1;
0:
#175000
1!
1:
1=
12
1+
#180000
b10011 "
b10010 "
0!
0;
1>
0:
#185000
1!
1:
1?
0=
02
13
1*
0+
#190000
b10011 "
0!
1;
0:
#195000
1!
1:
1=
12
1+
#200000
b10111 "
b10101 "
b10100 "
0!
0;
0>
1@
0:
#205000
1!
1:
1A
0?
0=
02
03
14
1)
0*
0+
#210000
b10101 "
0!
1;
0:
#215000
1!
1:
1=
12
1+
#220000
b10111 "
b10110 "
0!
0;
1>
0:
#225000
1!
1:
1?
0=
02
13
1*
0+
#230000
b10111 "
0!
1;
0:
#235000
1!
1:
1=
12
1+
#240000
b11111 "
b11011 "
b11001 "
b11000 "
0!
0;
0>
0@
1B
0:
#245000
1!
1:
1C
0A
0?
0=
02
03
04
15
1(
0)
0*
0+
#250000
b11001 "
0!
1;
0:
#255000
1!
1:
1=
12
1+
#260000
b11011 "
b11010 "
0!
0;
1>
0:
#265000
1!
1:
1?
0=
02
13
1*
0+
#270000
b11011 "
0!
1;
0:
#275000
1!
1:
1=
12
1+
#280000
b11111 "
b11101 "
b11100 "
0!
0;
0>
1@
0:
#285000
1!
1:
1A
0?
0=
02
03
14
1)
0*
0+
#290000
b11101 "
0!
1;
0:
#295000
1!
1:
1=
12
1+
#300000
b11111 "
b11110 "
0!
0;
1>
0:
#305000
1!
1:
1?
0=
02
13
1*
0+
#310000
b11111 "
0!
1;
0:
#315000
1!
1:
1=
12
1+
#320000
b111111 "
b101111 "
b100111 "
b100011 "
b100001 "
b100000 "
0!
0;
0>
0@
0B
0D
1F
0:
#325000
1!
1:
1G
0E
0C
0A
0?
0=
02
03
04
05
06
17
1&
0'
0(
0)
0*
0+
#330000
b100001 "
0!
1;
0:
#335000
1!
1:
1=
12
1+
#340000
b100011 "
b100010 "
0!
0;
1>
0:
#345000
1!
1:
1?
0=
02
13
1*
0+
#350000
b100011 "
0!
1;
0:
#355000
1!
1:
1=
12
1+
#360000
b100111 "
b100101 "
b100100 "
0!
0;
0>
1@
0:
#365000
1!
1:
1A
0?
0=
02
03
14
1)
0*
0+
#370000
b100101 "
0!
1;
0:
#375000
1!
1:
1=
12
1+
#380000
b100111 "
b100110 "
0!
0;
1>
0:
#385000
1!
1:
1?
0=
02
13
1*
0+
#390000
b100111 "
0!
1;
0:
#395000
1!
1:
1=
12
1+
#400000
b101111 "
b101011 "
b101001 "
b101000 "
0!
0;
0>
0@
1B
0:
#405000
1!
1:
1C
0A
0?
0=
02
03
04
15
1(
0)
0*
0+
#410000
b101001 "
0!
1;
0:
#415000
1!
1:
1=
12
1+
#420000
b101011 "
b101010 "
0!
0;
1>
0:
#425000
1!
1:
1?
0=
02
13
1*
0+
#430000
b101011 "
0!
1;
0:
#435000
1!
1:
1=
12
1+
#440000
b101111 "
b101101 "
b101100 "
0!
0;
0>
1@
0:
#445000
1!
1:
1A
0?
0=
02
03
14
1)
0*
0+
#450000
b101101 "
0!
1;
0:
#455000
1!
1:
1=
12
1+
#460000
b101111 "
b101110 "
0!
0;
1>
0:
#465000
1!
1:
1?
0=
02
13
1*
0+
#470000
b101111 "
0!
1;
0:
#475000
1!
1:
1=
12
1+
#480000
b111111 "
b110111 "
b110011 "
b110001 "
b110000 "
0!
0;
0>
0@
0B
1D
0:
#485000
1!
1:
1E
0C
0A
0?
0=
02
03
04
05
16
1'
0(
0)
0*
0+
#490000
b110001 "
0!
1;
0:
#495000
1!
1:
1=
12
1+
#500000
b110011 "
b110010 "
0!
0;
1>
0:
#505000
1!
1:
1?
0=
02
13
1*
0+
#510000
b110011 "
0!
1;
0:
#515000
1!
1:
1=
12
1+
#520000
b110111 "
b110101 "
b110100 "
0!
0;
0>
1@
0:
#525000
1!
1:
1A
0?
0=
02
03
14
1)
0*
0+
#530000
b110101 "
0!
1;
0:
#535000
1!
1:
1=
12
1+
#540000
b110111 "
b110110 "
0!
0;
1>
0:
#545000
1!
1:
1?
0=
02
13
1*
0+
#550000
b110111 "
0!
1;
0:
#555000
1!
1:
1=
12
1+
#560000
b111111 "
b111011 "
b111001 "
b111000 "
0!
0;
0>
0@
1B
0:
#565000
1!
1:
1C
0A
0?
0=
02
03
04
15
1(
0)
0*
0+
#570000
b111001 "
0!
1;
0:
#575000
1!
1:
1=
12
1+
#580000
b111011 "
b111010 "
0!
0;
1>
0:
#585000
1!
1:
1?
0=
02
13
1*
0+
#590000
b111011 "
0!
1;
0:
#595000
1!
1:
1=
12
1+
#600000
b111111 "
b111101 "
b111100 "
0!
0;
0>
1@
0:
#605000
1!
1:
1A
0?
0=
02
03
14
1)
0*
0+
#610000
b111101 "
0!
1;
0:
#615000
1!
1:
1=
12
1+
#620000
b111111 "
b111110 "
0!
0;
1>
0:
#625000
1!
1:
1?
0=
02
13
1*
0+
#630000
b111111 "
0!
1;
0:
#635000
1!
1:
1=
12
1+
#640000
b1111111 "
b1011111 "
b1001111 "
b1000111 "
b1000011 "
b1000001 "
b1000000 "
0!
0;
0>
0@
0B
0D
0F
1H
0:
#645000
1!
1:
1I
0G
0E
0C
0A
0?
0=
02
03
04
05
06
07
18
1%
0&
0'
0(
0)
0*
0+
#650000
b1000001 "
0!
1;
0:
#655000
1!
1:
1=
12
1+
#660000
b1000011 "
b1000010 "
0!
0;
1>
0:
#665000
1!
1:
1?
0=
02
13
1*
0+
#670000
b1000011 "
0!
1;
0:
#675000
1!
1:
1=
12
1+
#680000
b1000111 "
b1000101 "
b1000100 "
0!
0;
0>
1@
0:
#685000
1!
1:
1A
0?
0=
02
03
14
1)
0*
0+
#690000
b1000101 "
0!
1;
0:
#695000
1!
1:
1=
12
1+
#700000
b1000111 "
b1000110 "
0!
0;
1>
0:
#705000
1!
1:
1?
0=
02
13
1*
0+
#710000
b1000111 "
0!
1;
0:
#715000
1!
1:
1=
12
1+
#720000
b1001111 "
b1001011 "
b1001001 "
b1001000 "
0!
0;
0>
0@
1B
0:
#725000
1!
1:
1C
0A
0?
0=
02
03
04
15
1(
0)
0*
0+
#730000
b1001001 "
0!
1;
0:
#735000
1!
1:
1=
12
1+
#740000
b1001011 "
b1001010 "
0!
0;
1>
0:
#745000
1!
1:
1?
0=
02
13
1*
0+
#750000
b1001011 "
0!
1;
0:
#755000
1!
1:
1=
12
1+
#760000
b1001111 "
b1001101 "
b1001100 "
0!
0;
0>
1@
0:
#765000
1!
1:
1A
0?
0=
02
03
14
1)
0*
0+
#770000
b1001101 "
0!
1;
0:
#775000
1!
1:
1=
12
1+
#780000
b1001111 "
b1001110 "
0!
0;
1>
0:
#785000
1!
1:
1?
0=
02
13
1*
0+
#790000
b1001111 "
0!
1;
0:
#795000
1!
1:
1=
12
1+
#800000
b1011111 "
b1010111 "
b1010011 "
b1010001 "
b1010000 "
0!
0;
0>
0@
0B
1D
0:
#805000
1!
1:
1E
0C
0A
0?
0=
02
03
04
05
16
1'
0(
0)
0*
0+
#810000
b1010001 "
0!
1;
0:
#815000
1!
1:
1=
12
1+
#820000
b1010011 "
b1010010 "
0!
0;
1>
0:
#825000
1!
1:
1?
0=
02
13
1*
0+
#830000
b1010011 "
0!
1;
0:
#835000
1!
1:
1=
12
1+
#840000
b1010111 "
b1010101 "
b1010100 "
0!
0;
0>
1@
0:
#845000
1!
1:
1A
0?
0=
02
03
14
1)
0*
0+
#850000
b1010101 "
0!
1;
0:
#855000
1!
1:
1=
12
1+
#860000
b1010111 "
b1010110 "
0!
0;
1>
0:
#865000
1!
1:
1?
0=
02
13
1*
0+
#870000
b1010111 "
0!
1;
0:
#875000
1!
1:
1=
12
1+
#880000
b1011111 "
b1011011 "
b1011001 "
b1011000 "
0!
0;
0>
0@
1B
0:
#885000
1!
1:
1C
0A
0?
0=
02
03
04
15
1(
0)
0*
0+
#890000
b1011001 "
0!
1;
0:
#895000
1!
1:
1=
12
1+
#900000
b1011011 "
b1011010 "
0!
0;
1>
0:
#905000
1!
1:
1?
0=
02
13
1*
0+
#910000
b1011011 "
0!
1;
0:
#915000
1!
1:
1=
12
1+
#920000
b1011111 "
b1011101 "
b1011100 "
0!
0;
0>
1@
0:
#925000
1!
1:
1A
0?
0=
02
03
14
1)
0*
0+
#930000
b1011101 "
0!
1;
0:
#935000
1!
1:
1=
12
1+
#940000
b1011111 "
b1011110 "
0!
0;
1>
0:
#945000
1!
1:
1?
0=
02
13
1*
0+
#950000
b1011111 "
0!
1;
0:
#955000
1!
1:
1=
12
1+
#960000
b1111111 "
b1101111 "
b1100111 "
b1100011 "
b1100001 "
b1100000 "
0!
0;
0>
0@
0B
0D
1F
0:
#965000
1!
1:
1G
0E
0C
0A
0?
0=
02
03
04
05
06
17
1&
0'
0(
0)
0*
0+
#970000
b1100001 "
0!
1;
0:
#975000
1!
1:
1=
12
1+
#980000
b1100011 "
b1100010 "
0!
0;
1>
0:
#985000
1!
1:
1?
0=
02
13
1*
0+
#990000
b1100011 "
0!
1;
0:
#995000
1!
1:
1=
12
1+
